<?xml version="1.0" encoding="UTF-8" standalone="no"?>
<!-- Created with Inkscape (http://www.inkscape.org/) -->

<svg
   xmlns:dc="http://purl.org/dc/elements/1.1/"
   xmlns:cc="http://creativecommons.org/ns#"
   xmlns:rdf="http://www.w3.org/1999/02/22-rdf-syntax-ns#"
   xmlns:svg="http://www.w3.org/2000/svg"
   xmlns="http://www.w3.org/2000/svg"
   xmlns:xlink="http://www.w3.org/1999/xlink"
   xmlns:sodipodi="http://sodipodi.sourceforge.net/DTD/sodipodi-0.dtd"
   xmlns:inkscape="http://www.inkscape.org/namespaces/inkscape"
   width="210mm"
   height="297mm"
   viewBox="0 0 744.09448819 1052.3622047"
   id="svg2"
   version="1.1"
   inkscape:version="0.91 r13725"
   sodipodi:docname="Button_X.svg">
  <defs
     id="defs4">
    <linearGradient
       inkscape:collect="always"
       id="linearGradient4266">
      <stop
         style="stop-color:#000000;stop-opacity:1;"
         offset="0"
         id="stop4268" />
      <stop
         style="stop-color:#000000;stop-opacity:0;"
         offset="1"
         id="stop4270" />
    </linearGradient>
    <linearGradient
       inkscape:collect="always"
       id="linearGradient4210">
      <stop
         style="stop-color:#ffffff;stop-opacity:1;"
         offset="0"
         id="stop4212" />
      <stop
         style="stop-color:#ffffff;stop-opacity:0;"
         offset="1"
         id="stop4214" />
    </linearGradient>
    <radialGradient
       inkscape:collect="always"
       xlink:href="#linearGradient4210"
       id="radialGradient4216"
       cx="462.85715"
       cy="369.50507"
       fx="462.85715"
       fy="369.50507"
       r="105.71429"
       gradientUnits="userSpaceOnUse"
       gradientTransform="matrix(0.87288135,0,0,0.87288135,57.409205,39.828125)" />
    <radialGradient
       inkscape:collect="always"
       xlink:href="#linearGradient4266"
       id="radialGradient4272"
       cx="407.08691"
       cy="400.86133"
       fx="407.08691"
       fy="400.86133"
       r="176.7295"
       gradientTransform="matrix(1,0,0,0.98860037,0,4.5696689)"
       gradientUnits="userSpaceOnUse" />
  </defs>
  <sodipodi:namedview
     id="base"
     pagecolor="#ffffff"
     bordercolor="#666666"
     borderopacity="1.0"
     inkscape:pageopacity="0"
     inkscape:pageshadow="2"
     inkscape:zoom="0.7"
     inkscape:cx="326.60183"
     inkscape:cy="647.032"
     inkscape:document-units="px"
     inkscape:current-layer="layer3"
     showgrid="false"
     showguides="false"
     inkscape:window-width="1366"
     inkscape:window-height="706"
     inkscape:window-x="-8"
     inkscape:window-y="124"
     inkscape:window-maximized="1">
    <inkscape:grid
       type="xygrid"
       id="grid4169" />
  </sodipodi:namedview>
  <metadata
     id="metadata7">
    <rdf:RDF>
      <cc:Work
         rdf:about="">
        <dc:format>image/svg+xml</dc:format>
        <dc:type
           rdf:resource="http://purl.org/dc/dcmitype/StillImage" />
        <dc:title></dc:title>
      </cc:Work>
    </rdf:RDF>
  </metadata>
  <g
     inkscape:groupmode="layer"
     id="layer3"
     inkscape:label="Background"
     style="display:inline">
    <rect
       style="display:inline;fill:#d4d4d4;fill-opacity:1"
       id="rect4171"
       width="822.85712"
       height="1088.5714"
       x="-22.857143"
       y="-27.637796"
       ry="0" />
  </g>
  <g
     inkscape:groupmode="layer"
     id="layer4"
     inkscape:label="Button">
    <circle
       style="fill:#ffffff;fill-opacity:0.50295859;stroke:#ffffff;stroke-width:30;stroke-miterlimit:4;stroke-dasharray:none;stroke-opacity:1"
       id="path4188"
       cx="407.5"
       cy="398.43362"
       r="161.42857"
       inkscape:export-xdpi="99.900993"
       inkscape:export-ydpi="99.900993" />
    <path
       style="fill:url(#radialGradient4272);fill-opacity:1;stroke:none;stroke-width:30;stroke-miterlimit:4;stroke-dasharray:none;stroke-opacity:1"
       d="M 367.24219 226.14648 A 177.14285 177.14285 0 0 0 230.35742 398.43359 A 177.14285 177.14285 0 0 0 407.5 575.57617 A 177.14285 177.14285 0 0 0 583.81641 414.93164 A 171.42857 171.42857 0 0 1 414.28516 562.36133 A 171.42857 171.42857 0 0 1 242.85742 390.93359 A 171.42857 171.42857 0 0 1 367.24219 226.14648 z "
       id="path4188-3"
       inkscape:export-xdpi="99.900993"
       inkscape:export-ydpi="99.900993" />
  </g>
  <g
     inkscape:label="A"
     inkscape:groupmode="layer"
     id="layer1"
     style="display:none">
    <flowRoot
       xml:space="preserve"
       id="flowRoot3336"
       style="font-style:normal;font-weight:normal;font-size:40px;line-height:125%;font-family:sans-serif;letter-spacing:0px;word-spacing:0px;fill:#32974c;fill-opacity:1;stroke:none;stroke-width:1px;stroke-linecap:butt;stroke-linejoin:miter;stroke-opacity:1"
       transform="matrix(5.7157248,0,0,5.7157248,-1409.7433,-1715.8987)"
       inkscape:export-xdpi="99.900993"
       inkscape:export-ydpi="99.900993"><flowRegion
         id="flowRegion3338"><rect
           id="rect3340"
           width="77.14286"
           height="71.428574"
           x="300"
           y="329.50507"
           style="fill:#32974c;fill-opacity:1" /></flowRegion><flowPara
         id="flowPara3342"
         style="font-size:54.67373276px;fill:#32974c;fill-opacity:1">A</flowPara></flowRoot>  </g>
  <g
     inkscape:groupmode="layer"
     id="layer5"
     inkscape:label="B"
     style="display:inline">
    <flowRoot
       xml:space="preserve"
       id="flowRoot3336-9"
       style="font-style:normal;font-weight:normal;font-size:228.6289978px;line-height:125%;font-family:sans-serif;letter-spacing:0px;word-spacing:0px;display:inline;fill:#fb6f73;fill-opacity:1;stroke:none;stroke-width:1px;stroke-linecap:butt;stroke-linejoin:miter;stroke-opacity:1"
       transform="translate(338.60762,278.76473)"><flowRegion
         id="flowRegion3338-4"><rect
           id="rect3340-5"
           width="440.92737"
           height="408.26608"
           x="-30.517559"
           y="-95.941727"
           style="fill:#fb6f73;fill-opacity:1" /></flowRegion><flowPara
         id="flowPara3342-9"
         style="font-size:312.5px;fill:#fb6f73;fill-opacity:1">B</flowPara></flowRoot>  </g>
  <g
     inkscape:groupmode="layer"
     id="layer6"
     inkscape:label="X"
     style="display:none">
    <flowRoot
       xml:space="preserve"
       id="flowRoot3336-9-8"
       style="font-style:normal;font-weight:normal;font-size:228.6289978px;line-height:125%;font-family:sans-serif;letter-spacing:0px;word-spacing:0px;display:inline;fill:#00bded;fill-opacity:1;stroke:none;stroke-width:1px;stroke-linecap:butt;stroke-linejoin:miter;stroke-opacity:1"
       transform="translate(332.89332,283.05043)"><flowRegion
         id="flowRegion3338-4-9"><rect
           id="rect3340-5-1"
           width="440.92737"
           height="408.26608"
           x="-30.517559"
           y="-95.941727"
           style="fill:#00bded;fill-opacity:1" /></flowRegion><flowPara
         id="flowPara3342-9-8"
         style="font-size:312.5px;fill:#00bded;fill-opacity:1">X</flowPara></flowRoot>    <flowRoot
       xml:space="preserve"
       id="flowRoot3336-9-8-3"
       style="font-style:normal;font-weight:normal;font-size:228.6289978px;line-height:125%;font-family:sans-serif;letter-spacing:0px;word-spacing:0px;display:inline;fill:#00bded;fill-opacity:1;stroke:none;stroke-width:1px;stroke-linecap:butt;stroke-linejoin:miter;stroke-opacity:1"
       transform="translate(329.11517,281.62187)"><flowRegion
         id="flowRegion3338-4-9-6"><rect
           id="rect3340-5-1-0"
           width="440.92737"
           height="408.26608"
           x="-30.517559"
           y="-95.941727"
           style="fill:#00bded;fill-opacity:1" /></flowRegion><flowPara
         id="flowPara3342-9-8-5"
         style="font-size:312.5px;fill:#00bded;fill-opacity:1">X</flowPara></flowRoot>  </g>
  <g
     inkscape:groupmode="layer"
     id="layer7"
     inkscape:label="Y"
     style="display:none">
    <flowRoot
       xml:space="preserve"
       id="flowRoot3336-9-8-3-3"
       style="font-style:normal;font-weight:normal;font-size:228.6289978px;line-height:125%;font-family:sans-serif;letter-spacing:0px;word-spacing:0px;display:inline;fill:#ffd046;fill-opacity:1;stroke:none;stroke-width:1px;stroke-linecap:butt;stroke-linejoin:miter;stroke-opacity:1"
       transform="translate(341.9723,294.47901)"
       inkscape:export-xdpi="99.900993"
       inkscape:export-ydpi="99.900993"><flowRegion
         id="flowRegion3338-4-9-6-4"><rect
           id="rect3340-5-1-0-5"
           width="440.92737"
           height="408.26608"
           x="-30.517559"
           y="-95.941727"
           style="fill:#ffd046;fill-opacity:1" /></flowRegion><flowPara
         id="flowPara3342-9-8-5-1"
         style="font-size:312.5px;fill:#ffd046;fill-opacity:1">Y</flowPara></flowRoot>  </g>
  <g
     inkscape:groupmode="layer"
     id="layer8"
     inkscape:label="Glitter"
     style="display:inline">
    <circle
       style="display:inline;fill:url(#radialGradient4216);fill-opacity:1;stroke:none;stroke-width:30;stroke-miterlimit:4;stroke-dasharray:none;stroke-opacity:1"
       id="path4192"
       cx="461.42859"
       cy="362.36221"
       r="147.14285"
       inkscape:export-xdpi="99.900993"
       inkscape:export-ydpi="99.900993" />
  </g>
</svg>
