<?xml version="1.0" encoding="UTF-8" standalone="no"?>
<!-- Created with Inkscape (http://www.inkscape.org/) -->

<svg
   xmlns:dc="http://purl.org/dc/elements/1.1/"
   xmlns:cc="http://creativecommons.org/ns#"
   xmlns:rdf="http://www.w3.org/1999/02/22-rdf-syntax-ns#"
   xmlns:svg="http://www.w3.org/2000/svg"
   xmlns="http://www.w3.org/2000/svg"
   xmlns:xlink="http://www.w3.org/1999/xlink"
   xmlns:sodipodi="http://sodipodi.sourceforge.net/DTD/sodipodi-0.dtd"
   xmlns:inkscape="http://www.inkscape.org/namespaces/inkscape"
   width="210mm"
   height="297mm"
   viewBox="0 0 744.09448819 1052.3622047"
   id="svg2"
   version="1.1"
   inkscape:version="0.91 r13725"
   sodipodi:docname="Heart.svg">
  <defs
     id="defs4">
    <linearGradient
       inkscape:collect="always"
       id="linearGradient4277">
      <stop
         style="stop-color:#ffffff;stop-opacity:1;"
         offset="0"
         id="stop4279" />
      <stop
         style="stop-color:#ffffff;stop-opacity:0;"
         offset="1"
         id="stop4281" />
    </linearGradient>
    <linearGradient
       inkscape:collect="always"
       id="linearGradient4266">
      <stop
         style="stop-color:#000000;stop-opacity:1;"
         offset="0"
         id="stop4268" />
      <stop
         style="stop-color:#000000;stop-opacity:0;"
         offset="1"
         id="stop4270" />
    </linearGradient>
    <radialGradient
       inkscape:collect="always"
       xlink:href="#linearGradient4266"
       id="radialGradient4272"
       cx="407.08691"
       cy="400.86133"
       fx="407.08691"
       fy="400.86133"
       r="176.7295"
       gradientTransform="matrix(1,0,0,0.98860037,1.4285714,334.56967)"
       gradientUnits="userSpaceOnUse" />
    <radialGradient
       inkscape:collect="always"
       xlink:href="#linearGradient4266"
       id="radialGradient4246"
       cx="355.10538"
       cy="170.49609"
       fx="355.10538"
       fy="170.49609"
       r="203.24814"
       gradientTransform="matrix(1,0,0,0.87301884,29.491843,134.96056)"
       gradientUnits="userSpaceOnUse" />
    <radialGradient
       inkscape:collect="always"
       xlink:href="#linearGradient4266"
       id="radialGradient4254"
       gradientUnits="userSpaceOnUse"
       gradientTransform="matrix(1,0,0,0.87301884,29.491843,125.64735)"
       cx="355.10538"
       cy="170.49609"
       fx="355.10538"
       fy="170.49609"
       r="203.24814" />
    <radialGradient
       inkscape:collect="always"
       xlink:href="#linearGradient4277"
       id="radialGradient4283"
       cx="475.75"
       cy="194.77045"
       fx="475.75"
       fy="194.77045"
       r="277.06812"
       gradientUnits="userSpaceOnUse"
       gradientTransform="matrix(1.3809524,0,0,1,-178.13369,-6.2088091)" />
  </defs>
  <sodipodi:namedview
     id="base"
     pagecolor="#ffffff"
     bordercolor="#666666"
     borderopacity="1.0"
     inkscape:pageopacity="0"
     inkscape:pageshadow="2"
     inkscape:zoom="0.64424593"
     inkscape:cx="465.33453"
     inkscape:cy="653.3998"
     inkscape:document-units="px"
     inkscape:current-layer="layer4"
     showgrid="false"
     showguides="false"
     inkscape:window-width="1366"
     inkscape:window-height="706"
     inkscape:window-x="-8"
     inkscape:window-y="-8"
     inkscape:window-maximized="1">
    <inkscape:grid
       type="xygrid"
       id="grid4169" />
  </sodipodi:namedview>
  <metadata
     id="metadata7">
    <rdf:RDF>
      <cc:Work
         rdf:about="">
        <dc:format>image/svg+xml</dc:format>
        <dc:type
           rdf:resource="http://purl.org/dc/dcmitype/StillImage" />
        <dc:title></dc:title>
      </cc:Work>
    </rdf:RDF>
  </metadata>
  <g
     inkscape:groupmode="layer"
     id="layer3"
     inkscape:label="Background"
     style="display:none">
    <rect
       style="display:inline;fill:#d4d4d4;fill-opacity:1"
       id="rect4171"
       width="822.85712"
       height="1088.5714"
       x="25.590284"
       y="-60.732101"
       ry="0" />
  </g>
  <g
     inkscape:groupmode="layer"
     id="layer4"
     inkscape:label="Fill"
     style="display:inline">
    <circle
       style="fill:#ffffff;fill-opacity:0.50295859;stroke:#ffffff;stroke-width:30;stroke-miterlimit:4;stroke-dasharray:none;stroke-opacity:1"
       id="path4188"
       cx="408.92856"
       cy="728.43359"
       r="161.42857"
       inkscape:export-xdpi="90"
       inkscape:export-ydpi="90" />
    <path
       style="fill:url(#radialGradient4272);fill-opacity:1;stroke:none;stroke-width:30;stroke-miterlimit:4;stroke-dasharray:none;stroke-opacity:1"
       d="M 368.67076,556.14648 A 177.14285,177.14285 0 0 0 231.78599,728.43359 177.14285,177.14285 0 0 0 408.92857,905.57617 177.14285,177.14285 0 0 0 585.24498,744.93164 171.42857,171.42857 0 0 1 415.71373,892.36133 171.42857,171.42857 0 0 1 244.28599,720.93359 171.42857,171.42857 0 0 1 368.67076,556.14648 Z"
       id="path4188-3"
       inkscape:export-xdpi="90"
       inkscape:export-ydpi="90"
       inkscape:connector-curvature="0" />
    <path
       style="fill:#ff0000;fill-opacity:1;fill-rule:evenodd;stroke:none;stroke-width:25;stroke-linecap:butt;stroke-linejoin:miter;stroke-miterlimit:4;stroke-dasharray:none;stroke-opacity:1"
       d="m 299.70425,62.484292 c -58.97937,0.0392 -114.63182,50.116138 -110.36286,127.899298 7.87359,143.46178 151.49928,229.30285 231.37535,258.25812 l 0.50311,0.18754 c 0.50149,-0.18754 0.50149,-0.18754 0.50149,-0.18754 C 501.59665,419.68651 645.22238,333.84549 653.09598,190.38359 660.91618,47.893102 467.66118,-1.6060573 421.21949,179.13484 400.12963,97.056973 348.76892,62.451652 299.70425,62.484292 Z"
       id="path4229"
       inkscape:connector-curvature="0"
       sodipodi:nodetypes="sscccscs"
       inkscape:export-xdpi="90"
       inkscape:export-ydpi="90" />
  </g>
  <g
     inkscape:groupmode="layer"
     id="layer7"
     inkscape:label="Glitter"
     style="display:none">
    <path
       style="display:inline;opacity:0.63500001;fill:url(#radialGradient4283);fill-opacity:1;stroke:none;stroke-width:25;stroke-miterlimit:4;stroke-dasharray:none;stroke-opacity:1"
       d="m 302.80948,57.8283 c -33.62874,0.02235 -66.1697,16.318666 -87.14453,44.73633 a 277.06812,277.06812 0 0 0 -13.87891,85.99609 277.06812,277.06812 0 0 0 12.68164,81.89453 c 44.81081,93.08545 146.69243,150.8145 209.35352,173.5293 l 0.5039,0.1875 0.5,-0.1875 C 504.70041,415.02935 648.3265,329.18865 656.2001,185.72674 664.0203,43.236254 470.76484,-6.2622031 424.32315,174.47869 403.23329,92.400827 351.87415,57.79566 302.80948,57.8283 Z"
       id="path4258"
       inkscape:connector-curvature="0"
       inkscape:export-xdpi="90"
       inkscape:export-ydpi="90" />
  </g>
  <g
     inkscape:groupmode="layer"
     id="layer5"
     inkscape:label="Frame"
     style="display:none">
    <path
       sodipodi:nodetypes="sscccscs"
       inkscape:connector-curvature="0"
       id="path4288"
       d="m 299.70425,62.484292 c -58.97937,0.0392 -114.63182,50.116138 -110.36286,127.899298 7.87359,143.46178 151.49928,229.30285 231.37535,258.25812 l 0.50311,0.18754 c 0.50149,-0.18754 0.50149,-0.18754 0.50149,-0.18754 C 501.59665,419.68651 645.22238,333.84549 653.09598,190.38359 660.91618,47.893102 467.66118,-1.6060573 421.21949,179.13484 400.12963,97.056973 348.76892,62.451652 299.70425,62.484292 Z"
       style="display:inline;fill:none;fill-opacity:1;fill-rule:evenodd;stroke:#ffffff;stroke-width:25;stroke-linecap:butt;stroke-linejoin:miter;stroke-miterlimit:4;stroke-dasharray:none;stroke-opacity:1"
       inkscape:export-xdpi="90"
       inkscape:export-ydpi="90" />
  </g>
  <g
     inkscape:groupmode="layer"
     id="layer6"
     inkscape:label="Frame Shade"
     style="display:none">
    <path
       style="display:inline;fill:url(#radialGradient4246);fill-opacity:1;fill-rule:evenodd;stroke:none;stroke-width:25;stroke-linecap:butt;stroke-linejoin:miter;stroke-miterlimit:4;stroke-dasharray:none;stroke-opacity:1"
       d="m 216.29457,106.36741 c -22.64429,22.33228 -36.95851,55.55249 -34.71484,96.43359 7.87359,143.4618 151.50088,229.30255 231.37695,258.25782 l 0.50196,0.1875 0.50195,-0.1875 c 49.31504,-17.87695 122.92,-57.44747 173.88474,-118.86524 C 537.69642,396.559 470.73456,431.9987 424.82582,448.64085 l -0.50195,0.1875 -0.50195,-0.1875 C 343.94585,419.68558 200.31856,333.84483 192.44496,190.38304 c -1.85926,-33.87693 7.65181,-62.49462 23.84961,-84.01563 z"
       id="path4250"
       inkscape:connector-curvature="0"
       inkscape:export-xdpi="90"
       inkscape:export-ydpi="90" />
    <path
       style="display:inline;fill:url(#radialGradient4254);fill-opacity:1;fill-rule:evenodd;stroke:none;stroke-width:25;stroke-linecap:butt;stroke-linejoin:miter;stroke-miterlimit:4;stroke-dasharray:none;stroke-opacity:1"
       d="m 457.12856,99.337396 c -14.33649,14.478744 -26.81807,33.892314 -36.1211,58.763684 1.17491,3.79527 2.28303,7.69898 3.31641,11.7207 7.55098,-29.38677 18.98677,-52.6808 32.80469,-70.484384 z"
       id="path3418"
       inkscape:connector-curvature="0"
       inkscape:export-xdpi="90"
       inkscape:export-ydpi="90" />
  </g>
</svg>
