<?xml version="1.0" encoding="UTF-8" standalone="no"?>
<!-- Created with Inkscape (http://www.inkscape.org/) -->

<svg
   xmlns:osb="http://www.openswatchbook.org/uri/2009/osb"
   xmlns:dc="http://purl.org/dc/elements/1.1/"
   xmlns:cc="http://creativecommons.org/ns#"
   xmlns:rdf="http://www.w3.org/1999/02/22-rdf-syntax-ns#"
   xmlns:svg="http://www.w3.org/2000/svg"
   xmlns="http://www.w3.org/2000/svg"
   xmlns:xlink="http://www.w3.org/1999/xlink"
   xmlns:sodipodi="http://sodipodi.sourceforge.net/DTD/sodipodi-0.dtd"
   xmlns:inkscape="http://www.inkscape.org/namespaces/inkscape"
   width="210mm"
   height="297mm"
   viewBox="0 0 744.09448819 1052.3622047"
   id="svg2"
   version="1.1"
   inkscape:version="0.91 r13725"
   sodipodi:docname="Icon_Sock.svg">
  <defs
     id="defs4">
    <linearGradient
       inkscape:collect="always"
       id="linearGradient4441">
      <stop
         style="stop-color:#3b66e6;stop-opacity:1;"
         offset="0"
         id="stop4443" />
      <stop
         style="stop-color:#000000;stop-opacity:0"
         offset="1"
         id="stop4445" />
    </linearGradient>
    <linearGradient
       inkscape:collect="always"
       id="linearGradient4361">
      <stop
         style="stop-color:#000000;stop-opacity:1"
         offset="0"
         id="stop4363" />
      <stop
         style="stop-color:#000000;stop-opacity:0"
         offset="1"
         id="stop4365" />
    </linearGradient>
    <linearGradient
       inkscape:collect="always"
       id="linearGradient4237">
      <stop
         style="stop-color:#000000;stop-opacity:1;"
         offset="0"
         id="stop4239" />
      <stop
         style="stop-color:#000000;stop-opacity:0;"
         offset="1"
         id="stop4241" />
    </linearGradient>
    <linearGradient
       inkscape:collect="always"
       id="linearGradient4219"
       osb:paint="gradient">
      <stop
         style="stop-color:#000000;stop-opacity:1;"
         offset="0"
         id="stop4221" />
      <stop
         style="stop-color:#000000;stop-opacity:0;"
         offset="1"
         id="stop4223" />
    </linearGradient>
    <linearGradient
       inkscape:collect="always"
       xlink:href="#linearGradient4237"
       id="linearGradient4243"
       x1="88.572266"
       y1="602.54632"
       x2="346.37109"
       y2="602.54632"
       gradientUnits="userSpaceOnUse"
       gradientTransform="translate(2.0203051,0)" />
    <linearGradient
       inkscape:collect="always"
       xlink:href="#linearGradient4361"
       id="linearGradient4253"
       x1="192.93913"
       y1="413.94577"
       x2="288.90366"
       y2="217.97621"
       gradientUnits="userSpaceOnUse"
       gradientTransform="translate(0,-9.0913729)" />
    <radialGradient
       inkscape:collect="always"
       xlink:href="#linearGradient4441"
       id="radialGradient4433"
       cx="519.5481"
       cy="594.38135"
       fx="519.5481"
       fy="594.38135"
       r="14.432615"
       gradientTransform="matrix(3.9626068,-2.5253891,2.1343821,3.3490835,-2925.8661,-110.57761)"
       gradientUnits="userSpaceOnUse" />
  </defs>
  <sodipodi:namedview
     id="base"
     pagecolor="#ffffff"
     bordercolor="#666666"
     borderopacity="1.0"
     inkscape:pageopacity="0.0"
     inkscape:pageshadow="2"
     inkscape:zoom="0.49497475"
     inkscape:cx="-88.90396"
     inkscape:cy="490.23034"
     inkscape:document-units="px"
     inkscape:current-layer="layer4"
     showgrid="false"
     inkscape:window-width="1366"
     inkscape:window-height="706"
     inkscape:window-x="-8"
     inkscape:window-y="-8"
     inkscape:window-maximized="1"
     showguides="false" />
  <metadata
     id="metadata7">
    <rdf:RDF>
      <cc:Work
         rdf:about="">
        <dc:format>image/svg+xml</dc:format>
        <dc:type
           rdf:resource="http://purl.org/dc/dcmitype/StillImage" />
        <dc:title></dc:title>
      </cc:Work>
    </rdf:RDF>
  </metadata>
  <g
     inkscape:groupmode="layer"
     id="layer4"
     inkscape:label="Background"
     style="display:none">
    <rect
       style="display:inline;opacity:1;fill:#ff4cff;fill-opacity:0.66451613;stroke:#000000;stroke-width:15;stroke-miterlimit:4;stroke-dasharray:none;stroke-opacity:1"
       id="rect4155"
       width="749.5332"
       height="739.43164"
       x="-90.913727"
       y="110.90003" />
  </g>
  <g
     inkscape:label="Main Sock"
     inkscape:groupmode="layer"
     id="layer1"
     style="display:inline">
    <path
       style="opacity:0.98999999;fill:#3b66e6;fill-opacity:1;fill-rule:evenodd;stroke:#ffffff;stroke-width:15;stroke-linecap:butt;stroke-linejoin:miter;stroke-miterlimit:4;stroke-dasharray:none;stroke-opacity:1"
       d="m 191.35352,686.82031 a 172.14285,172.14285 0 0 0 2.07226,-13.70117 172.14285,172.14285 0 0 0 0.85938,-17.18555 172.14285,172.14285 0 0 0 -0.43164,-12.17773 172.14285,172.14285 0 0 0 -2.07227,-17.08008 172.14285,172.14285 0 0 0 -3.76953,-16.79101 172.14285,172.14285 0 0 0 -5.42578,-16.32813 172.14285,172.14285 0 0 0 -7.02735,-15.70703 172.14285,172.14285 0 0 0 -5.03125,-8.77149 c -24.91699,21.31359 -49.37703,43.10999 -74.812496,67.57032 10.261376,20.71447 57.113856,42.64322 95.638676,50.17187 z"
       id="path4148"
       inkscape:connector-curvature="0"
       inkscape:export-xdpi="89.676224"
       inkscape:export-ydpi="89.676224" />
    <path
       style="opacity:0.98999999;fill:#ffffff;fill-opacity:0.66451613;fill-rule:evenodd;stroke:#ffffff;stroke-width:15;stroke-linecap:butt;stroke-linejoin:miter;stroke-miterlimit:4;stroke-dasharray:none;stroke-opacity:1"
       d="m 274.28516,203.79102 -2.85743,282.85742 c -36.65691,29.01729 -69.16893,55.28714 -100.90039,82.42968 a 172.14285,172.14285 0 0 1 5.03125,8.77149 172.14285,172.14285 0 0 1 7.02735,15.70703 172.14285,172.14285 0 0 1 5.42578,16.32813 172.14285,172.14285 0 0 1 3.76953,16.79101 172.14285,172.14285 0 0 1 2.07227,17.08008 172.14285,172.14285 0 0 1 0.43164,12.17773 172.14285,172.14285 0 0 1 -0.85938,17.18555 172.14285,172.14285 0 0 1 -2.07226,13.70117 c 10.45144,2.04246 20.3249,3.08697 28.64648,2.68555 35.48477,-1.71173 65.36377,1.72253 132.85742,-52.85742 1.76662,-1.42861 3.65311,-3.14781 5.5332,-4.86524 a 91.428574,91.428574 0 0 1 -2.17773,-4.86328 91.428574,91.428574 0 0 1 -2.88086,-8.67187 91.428574,91.428574 0 0 1 -2.00195,-8.91797 91.428574,91.428574 0 0 1 -1.10156,-9.07227 91.428574,91.428574 0 0 1 -0.22852,-6.46679 91.428574,91.428574 0 0 1 0.45703,-9.12696 91.428574,91.428574 0 0 1 1.36524,-9.03711 91.428574,91.428574 0 0 1 2.26171,-8.85547 91.428574,91.428574 0 0 1 3.13282,-8.58398 91.428574,91.428574 0 0 1 3.97656,-8.23047 91.428574,91.428574 0 0 1 4.77539,-7.79101 91.428574,91.428574 0 0 1 5.53125,-7.2754 91.428574,91.428574 0 0 1 6.23047,-6.6875 91.428574,91.428574 0 0 1 6.86523,-6.03124 91.428574,91.428574 0 0 1 7.4336,-5.31641 91.428574,91.428574 0 0 1 7.92773,-4.54688 91.428574,91.428574 0 0 1 3.77539,-1.68945 l 0.55274,-9.68555 1.42968,-297.14257 -131.42968,0 z"
       id="path4136"
       inkscape:connector-curvature="0"
       inkscape:export-xdpi="89.676224"
       inkscape:export-ydpi="89.676224" />
    <path
       inkscape:connector-curvature="0"
       id="path4184"
       d="m 403.73242,510.61914 a 91.428574,91.428574 0 0 0 -3.77539,1.68945 91.428574,91.428574 0 0 0 -7.92773,4.54688 91.428574,91.428574 0 0 0 -7.4336,5.31641 91.428574,91.428574 0 0 0 -6.86523,6.03124 91.428574,91.428574 0 0 0 -6.23047,6.6875 91.428574,91.428574 0 0 0 -5.53125,7.2754 91.428574,91.428574 0 0 0 -4.77539,7.79101 91.428574,91.428574 0 0 0 -3.97656,8.23047 91.428574,91.428574 0 0 0 -3.13282,8.58398 91.428574,91.428574 0 0 0 -2.26171,8.85547 91.428574,91.428574 0 0 0 -1.36524,9.03711 91.428574,91.428574 0 0 0 -0.45703,9.12696 91.428574,91.428574 0 0 0 0.22852,6.46679 91.428574,91.428574 0 0 0 1.10156,9.07227 91.428574,91.428574 0 0 0 2.00195,8.91797 91.428574,91.428574 0 0 0 2.88086,8.67187 91.428574,91.428574 0 0 0 2.17773,4.86328 c 18.20047,-16.62573 40.4398,-46.21883 43.03711,-80.84961 l 2.30469,-40.31445 z"
       style="display:inline;opacity:0.98999999;fill:#3b66e6;fill-opacity:1;fill-rule:evenodd;stroke:#ffffff;stroke-width:15;stroke-linecap:butt;stroke-linejoin:miter;stroke-miterlimit:4;stroke-dasharray:none;stroke-opacity:1"
       inkscape:export-xdpi="89.676224"
       inkscape:export-ydpi="89.676224" />
    <path
       style="display:inline;opacity:0.98999999;fill:url(#radialGradient4433);fill-opacity:1;fill-rule:evenodd;stroke:none;stroke-width:15;stroke-linecap:butt;stroke-linejoin:miter;stroke-miterlimit:4;stroke-dasharray:none;stroke-opacity:1"
       d="m 367.11151,531.31625 a 91.428574,91.428574 0 0 0 -3.00781,3.22851 91.428574,91.428574 0 0 0 -5.53125,7.27539 91.428574,91.428574 0 0 0 -4.77539,7.79102 91.428574,91.428574 0 0 0 -3.97657,8.23047 91.428574,91.428574 0 0 0 -3.13281,8.58398 91.428574,91.428574 0 0 0 -2.26172,8.85547 91.428574,91.428574 0 0 0 -1.36523,9.03711 91.428574,91.428574 0 0 0 -0.45703,9.12695 91.428574,91.428574 0 0 0 0.22851,6.4668 91.428574,91.428574 0 0 0 1.10157,9.07227 91.428574,91.428574 0 0 0 2.00195,8.91796 91.428574,91.428574 0 0 0 2.88086,8.67188 91.428574,91.428574 0 0 0 2.17773,4.86328 c 6.67163,-6.09439 13.88398,-13.93832 20.47461,-23.12695 -3.80577,4.34404 -7.63909,8.24972 -11.31055,11.60351 a 91.428574,91.428574 0 0 1 -2.17773,-4.86328 91.428574,91.428574 0 0 1 -2.88086,-8.67187 91.428574,91.428574 0 0 1 -2.00195,-8.91797 91.428574,91.428574 0 0 1 -1.10156,-9.07227 91.428574,91.428574 0 0 1 -0.22852,-6.46679 91.428574,91.428574 0 0 1 0.45703,-9.12696 91.428574,91.428574 0 0 1 1.36524,-9.03711 91.428574,91.428574 0 0 1 2.26171,-8.85547 91.428574,91.428574 0 0 1 3.13282,-8.58398 91.428574,91.428574 0 0 1 3.97656,-8.23047 91.428574,91.428574 0 0 1 4.15039,-6.77148 z"
       id="path4384"
       inkscape:connector-curvature="0"
       inkscape:export-xdpi="89.676224"
       inkscape:export-ydpi="89.676224" />
  </g>
  <g
     inkscape:groupmode="layer"
     id="layer2"
     inkscape:label="OverShade"
     style="display:inline">
    <path
       style="display:inline;opacity:0.325;fill:url(#linearGradient4253);fill-opacity:1;fill-rule:evenodd;stroke:none;stroke-width:15;stroke-linecap:butt;stroke-linejoin:miter;stroke-miterlimit:4;stroke-dasharray:none;stroke-opacity:1"
       d="m 267.14258,200.41449 -2.85742,282.81055 c 2.37881,-1.88795 4.72878,-3.75723 7.14257,-5.66797 l 2.79883,-277.14258 -7.08398,0 z"
       id="path4217"
       inkscape:connector-curvature="0"
       inkscape:export-xdpi="89.676224"
       inkscape:export-ydpi="89.676224" />
    <path
       style="display:inline;opacity:0.40100002;fill:url(#linearGradient4243);fill-opacity:1;fill-rule:evenodd;stroke:none;stroke-width:15;stroke-linecap:butt;stroke-linejoin:miter;stroke-miterlimit:4;stroke-dasharray:none;stroke-opacity:1"
       d="m 244.39922,509.78711 c -27.94438,22.32553 -53.73578,43.40029 -78.99414,65.00586 -24.91699,21.31359 -49.37704,43.10998 -74.812509,67.57031 10.261379,20.71447 57.113859,42.64323 95.638679,50.17188 10.45144,2.04246 20.3249,3.08696 28.64648,2.68554 35.48477,-1.71173 65.36377,1.72253 132.85742,-52.85742 0.21288,-0.17214 0.44012,-0.38048 0.65625,-0.56055 -62.9598,49.19993 -92.04456,46.04727 -126.37109,47.70313 -8.32158,0.40142 -18.19504,-0.64309 -28.64648,-2.68555 -38.52482,-7.52865 -85.3773,-29.4574 -95.638681,-50.17187 25.435471,-24.46033 49.895511,-46.25671 74.812501,-67.57032 23.09719,-19.75693 46.62975,-39.06269 71.85157,-59.29101 z"
       id="path4158"
       inkscape:connector-curvature="0"
       inkscape:export-xdpi="89.676224"
       inkscape:export-ydpi="89.676224" />
  </g>
  <g
     inkscape:groupmode="layer"
     id="layer3"
     inkscape:label="FakeShit"
     style="display:inline" />
</svg>
