<?xml version="1.0" encoding="UTF-8" standalone="no"?>
<!-- Created with Inkscape (http://www.inkscape.org/) -->

<svg
   xmlns:dc="http://purl.org/dc/elements/1.1/"
   xmlns:cc="http://creativecommons.org/ns#"
   xmlns:rdf="http://www.w3.org/1999/02/22-rdf-syntax-ns#"
   xmlns:svg="http://www.w3.org/2000/svg"
   xmlns="http://www.w3.org/2000/svg"
   xmlns:sodipodi="http://sodipodi.sourceforge.net/DTD/sodipodi-0.dtd"
   xmlns:inkscape="http://www.inkscape.org/namespaces/inkscape"
   id="svg3234"
   sodipodi:docname="waves.svg"
   viewBox="0 0 833.87 399.12"
   version="1.1"
   inkscape:version="0.48.4 r"
   width="100%"
   height="100%">
  <defs
     id="defs3236">
    <linearGradient
       id="linearGradient7611"
       y2="3124.3"
       gradientUnits="userSpaceOnUse"
       x2="4028"
       gradientTransform="translate(-3637.5 -2434.5)"
       y1="2789.6"
       x1="4028"
       inkscape:collect="always">
      <stop
         id="stop7607"
         style="stop-color:#a4cbd8"
         offset="0" />
      <stop
         id="stop7609"
         style="stop-color:#b4c3dc;stop-opacity:0"
         offset="1" />
    </linearGradient>
  </defs>
  <sodipodi:namedview
     id="base"
     bordercolor="#666666"
     inkscape:pageshadow="2"
     inkscape:window-y="-8"
     fit-margin-left="0"
     pagecolor="#ffffff"
     fit-margin-top="0"
     inkscape:window-maximized="0"
     inkscape:zoom="0.5"
     inkscape:window-x="-8"
     inkscape:window-height="988"
     showgrid="false"
     borderopacity="1.0"
     inkscape:current-layer="layer1"
     inkscape:cx="400.90053"
     inkscape:cy="36.633761"
     fit-margin-right="0"
     fit-margin-bottom="0"
     inkscape:window-width="1680"
     inkscape:pageopacity="0.0"
     inkscape:document-units="px" />
  <g
     id="layer1"
     inkscape:label="Layer 1"
     inkscape:groupmode="layer"
     transform="translate(74.079 -509.94)">
    <g
       id="g2992"
       transform="matrix(2.0716096,0,0,2.0716096,-444.62395,-795.64217)"
       inkscape:export-filename="C:\Users\Jean-Sébastien\Documents\concours-ubisoft\Lost_Socks\Assets\UI\waves.png"
       inkscape:export-xdpi="90"
       inkscape:export-ydpi="90">
      <path
         inkscape:export-xdpi="90"
         inkscape:connector-curvature="0"
         inkscape:export-filename="J:\Newsletters\Semptember\Swim Season\Banner 1.png"
         inkscape:export-ydpi="90"
         d="m 97.8564,733.15 c 7.9425,0.096 14.247,2.4316 19.543,6.6411 4.7511,3.9117 6.5784,8.1422 4.6882,8.6927 -3.5505,-2.2358 -7.7506,-3.5334 -12.256,-3.5334 -12.724,0 -23.038,10.314 -23.038,23.039 0,12.724 10.838,19.032 23.038,22.644 9.7944,2.8988 22.894,3.0482 32.613,-0.023 h 0.01 c 59.7,-24.288 125.25,-90.21 206.47,-23.882 48.173,39.337 85.403,-14.42 148.1,-21.253 25.393,-2.7674 60.123,11.681 74.723,22.97 24.517,18.317 111.65,-82.742 162.3,29.915 16.178,21.032 7.1181,71.582 0.152,103.99 l -808.23,0 v -146.03 c 36.544,-5.2548 78.621,-0.7177 114.45,14.338 9.3227,-12.76 22.301,-28.146 41.229,-35.188 6.0807,-1.6294 11.434,-2.3826 16.2,-2.3252 z m 27.111,20.524 c 1.7726,0.088 3.1761,4.3822 3.1761,6.1395 0,1.8142 -1.4979,3.2826 -3.3509,3.2826 -1.853,0 -3.3585,-1.4684 -3.3585,-3.2826 0,-1.814 1.5055,-6.1395 3.3585,-6.1395 0.058,0 0.1175,-0.01 0.1748,0 z"
         style="color:#000000;fill:#275e85"
         id="path6690" />
      <path
         inkscape:export-xdpi="90"
         inkscape:connector-curvature="0"
         inkscape:export-filename="J:\Newsletters\Semptember\Swim Season\Banner 1.png"
         sodipodi:nodetypes="sccsscsccccsscsccccccccs"
         inkscape:export-ydpi="90"
         d="m 346.8264,734.53 c 7.9425,0.096 14.247,2.4316 19.543,6.641 4.7511,3.9117 6.5784,8.1421 4.6882,8.6926 -3.5504,-2.2357 -7.7506,-3.5332 -12.256,-3.5332 -12.724,0 -23.038,10.314 -23.038,23.038 0,6.7597 1.3843,10.271 4.3463,13.024 39.329,4.3705 45.326,24.768 61.791,31.268 17.381,6.8609 61.892,3.8434 100.41,-5.3873 7.1654,-14.383 17.474,-41.147 40.986,-54.83 15.24,-7.039 26.46,-7.0198 35.956,-1.8237 5.3471,3.0468 7.8706,6.9093 6.1016,7.7732 -3.879,-1.5994 -8.2418,-2.1642 -12.682,-1.3981 -12.539,2.1637 -20.947,14.079 -18.783,26.618 0.5757,3.3366 1.8388,6.3533 3.6169,8.9433 31.658,-4.8674 61.747,-0.6729 81.714,7.4618 26.26,10.699 37.445,23.829 85.103,8.267 l -2.4316,93.074 -795.9,0 v -81.304 c 24.56,-23.007 59.299,-45.465 113.73,-45.279 73.661,-1.1044 83.266,43.956 108.33,47.612 46.302,5.5883 71.95,-26.179 131.57,-37.742 9.4552,-12.361 24.318,-38.862 51.001,-48.79 6.0808,-1.6293 11.442,-2.3826 16.208,-2.3251 z"
         style="fill:#79acd4"
         id="path6644" />
      <path
         inkscape:export-xdpi="90"
         inkscape:connector-curvature="0"
         inkscape:export-filename="J:\Newsletters\Semptember\Swim Season\Banner 1.png"
         inkscape:export-ydpi="90"
         d="m 271.4664,787.63 c 5.901,0.098 10.995,1.6767 15.594,4.5312 5.1721,3.3352 7.4701,7.3281 5.6563,8.0938 -3.7855,-1.8098 -8.1183,-2.6154 -12.594,-2.0938 -12.638,1.4731 -24.224,13.932 -21.156,26.281 5.4261,21.841 30.49,21.944 50.719,16.281 27.456,-7.6867 53.46,-27.288 93.594,-28.469 87.199,-2.5648 92.588,29.437 125.53,44.625 23.645,8.96 43.748,-40.208 78.969,-53.313 16.216,-4.3449 27.276,-2.4226 35.75,4.3126 4.7513,3.9115 6.5777,8.1369 4.6876,8.6874 -3.5506,-2.2358 -7.7757,-3.5312 -12.281,-3.5312 -12.724,0 -23.031,10.307 -23.031,23.031 0,7.1102 3.2193,13.352 8.2813,17.469 45.448,-17.8 89.201,-52.525 132.59,-47.594 l 0.8126,99.5 -828.66,0 v -7.0312 c 71.785,-48.11 119.98,-93.318 208.69,-93.75 38.204,0.1256 57.69,14.482 79.469,27.25 7.7872,-13.784 18.91,-30.651 36.969,-39.875 7.8017,-3.0965 14.505,-4.5043 20.406,-4.4062 z"
         style="color:#000000;fill:#ffffff"
         id="path6885" />
      <path
         inkscape:export-xdpi="90"
         inkscape:connector-curvature="0"
         inkscape:export-filename="J:\Newsletters\Semptember\Swim Season\Banner 1.png"
         sodipodi:nodetypes="cssssc"
         inkscape:export-ydpi="90"
         d="m 591.3664,774.96 c 1.7728,0.088 3.1838,4.3821 3.1838,6.1396 0,1.8141 -1.5055,3.2901 -3.3585,3.2901 -1.853,0 -3.3509,-1.476 -3.3509,-3.2901 0,-1.8141 1.4979,-6.1396 3.3509,-6.1396 0.058,0 0.1176,-0.01 0.1747,0 z"
         style="color:#000000;fill:#79acd4"
         id="path7499" />
    </g>
  </g>
  <metadata
     id="metadata15">
    <rdf:RDF>
      <cc:Work>
        <dc:format>image/svg+xml</dc:format>
        <dc:type
           rdf:resource="http://purl.org/dc/dcmitype/StillImage" />
        <cc:license
           rdf:resource="http://creativecommons.org/licenses/publicdomain/" />
        <dc:publisher>
          <cc:Agent
             rdf:about="http://openclipart.org/">
            <dc:title>Openclipart</dc:title>
          </cc:Agent>
        </dc:publisher>
        <dc:title>Sea waves</dc:title>
        <dc:date>2011-09-09T19:00:12</dc:date>
        <dc:description>Sea waves</dc:description>
        <dc:source>https://openclipart.org/detail/159751/sea-waves-by-printerkiller</dc:source>
        <dc:creator>
          <cc:Agent>
            <dc:title>PrinterKiller</dc:title>
          </cc:Agent>
        </dc:creator>
        <dc:subject>
          <rdf:Bag>
            <rdf:li>Sea wave</rdf:li>
          </rdf:Bag>
        </dc:subject>
      </cc:Work>
      <cc:License
         rdf:about="http://creativecommons.org/licenses/publicdomain/">
        <cc:permits
           rdf:resource="http://creativecommons.org/ns#Reproduction" />
        <cc:permits
           rdf:resource="http://creativecommons.org/ns#Distribution" />
        <cc:permits
           rdf:resource="http://creativecommons.org/ns#DerivativeWorks" />
      </cc:License>
    </rdf:RDF>
  </metadata>
</svg>
