# This file uses centimeters as units for non-parametric coordinates.

g default
v -35.218342 2.112894 25.794079
v -38.763443 2.124519 24.666439
v -42.780510 2.131681 23.750546
v -46.882286 2.155849 23.069418
v -50.452713 2.166076 22.350565
v -32.455791 2.115309 26.724237
v -52.353355 2.214589 21.616709
v -42.769222 0.512625 8.128997
v -42.564880 0.377289 7.688333
v -44.427227 0.413667 7.075783
v -44.343914 0.542241 7.606452
v -42.394260 0.278987 7.249312
v -44.529373 0.312325 6.557875
v -46.648277 0.345850 6.624662
v -46.231785 0.436663 7.139429
v -45.838570 0.562075 7.699330
v -32.859081 1.638163 19.794281
v -30.200308 1.684692 20.985176
v -37.639748 1.127808 15.957761
v -39.570160 1.673276 16.913536
v -35.923229 1.648193 18.588545
v -51.304810 1.708875 15.542875
v -49.030720 1.700810 15.285461
v -31.339298 1.727661 23.942530
v -34.027031 1.683953 22.809278
v -37.347263 1.694520 21.647861
v -41.256954 1.715789 20.592611
v -44.539459 1.670501 16.418062
v -45.742397 1.765788 19.788363
v -49.891953 1.719769 18.949291
v -52.147671 1.744739 18.496084
v -45.094707 0.882608 8.894131
v -44.249245 0.890748 8.869647
v -44.292355 0.715033 8.173058
v -45.475651 0.740113 8.329967
v -43.376392 0.859708 9.008863
v -43.040955 0.704581 8.576766
v -38.485088 0.493814 14.190331
v -38.877819 0.721347 14.342630
v -38.150616 0.338063 14.078863
v -39.233364 0.324337 12.733274
v -39.626579 0.463894 12.827414
v -40.068508 0.674259 12.968952
v -48.025455 0.548889 12.275456
v -48.936115 0.394203 12.058131
v -50.091248 0.346188 11.898450
v -48.545597 0.953726 13.390223
v -47.200157 1.327183 13.915473
v -46.333492 1.200841 12.978333
v -47.428822 0.877102 12.605536
v -44.149197 1.412400 14.447203
v -41.048855 1.378785 14.694425
v -41.923897 1.267431 13.316934
v -44.155109 1.320021 13.243684
v -39.483459 1.065061 14.556378
v -40.670940 0.994248 13.178617
v -40.262745 0.394442 11.420245
v -40.718704 0.577423 11.616180
v -39.864136 0.292200 11.267512
v -40.359249 0.263225 9.779438
v -40.726688 0.336538 10.030777
v -41.159824 0.493447 10.311844
v -48.214207 0.402256 10.832151
v -49.243565 0.352625 10.645274
v -47.368996 0.547628 11.103947
v -47.007000 0.562697 9.763948
v -47.761097 0.425517 9.422629
v -48.627552 0.368075 9.197525
v -46.764267 0.847948 11.523678
v -45.839767 1.143004 11.924671
v -45.551872 1.079409 10.772182
v -46.399487 0.827770 10.292007
v -44.153816 1.258508 12.112843
v -42.404961 1.170598 12.083124
v -42.699821 1.061214 10.889198
v -44.148197 1.165763 10.961944
v -41.326614 0.888148 11.875918
v -41.745720 0.784416 10.633131
v -41.386307 0.339723 8.734070
v -41.751842 0.482439 9.093365
v -41.075111 0.259825 8.386238
v -47.251675 0.439530 8.044391
v -47.924988 0.366037 7.666975
v -46.635399 0.568869 8.513825
v -46.088009 0.786292 9.123151
v -45.349899 0.982034 9.644085
v -44.190796 1.040581 9.820837
v -43.011951 0.951736 9.752925
v -42.240215 0.725275 9.462773
v -36.913170 2.120750 25.220982
v -40.735435 2.126750 24.174658
v -44.850029 2.143549 23.399010
v -48.815552 2.162074 22.711123
v -31.507256 2.201663 26.803131
v -33.712681 2.098400 26.341526
v -52.828918 2.330350 21.072895
v -51.596634 2.171706 22.014179
v -42.660728 0.438006 7.908363
v -43.518715 0.528419 7.801500
v -43.447487 0.396631 7.313356
v -44.382038 0.472850 7.338725
v -43.400948 0.294700 6.829650
v -42.477459 0.325825 7.468719
v -44.477127 0.361294 6.816031
v -46.438576 0.389094 6.879225
v -45.653748 0.330000 6.475650
v -45.392525 0.427363 7.007250
v -45.149109 0.553619 7.565256
v -46.030815 0.492881 7.410913
v -31.447113 1.636135 20.392200
v -32.448669 1.428263 18.890881
v -29.741512 1.494372 20.104755
v -29.208725 1.832797 21.554707
v -37.605167 1.658399 17.879557
v -38.287033 1.408338 16.291374
v -35.409981 1.432888 17.702499
v -34.346153 1.641815 19.209925
v -51.813248 1.874351 15.615519
v -49.622288 1.393412 14.383206
v -50.465008 1.674199 15.467106
v -30.747850 1.716990 22.355425
v -30.377064 1.874030 24.391582
v -33.407173 1.672788 21.182470
v -32.578701 1.680622 23.398813
v -34.652725 1.823475 24.428539
v -31.929813 1.853106 25.473518
v -36.595493 1.683957 19.992682
v -35.616051 1.688697 22.222769
v -40.397224 1.704704 18.765125
v -39.222183 1.701091 21.093122
v -42.084450 1.849681 22.341797
v -38.099014 1.834225 23.287035
v -42.162674 1.679806 16.733288
v -45.082794 1.718127 17.990936
v -43.467716 1.745997 20.180382
v -49.428299 1.722966 17.092449
v -46.849789 1.696537 15.944857
v -47.968922 1.749234 19.348488
v -50.238853 1.861037 20.835587
v -46.374294 1.892315 21.601841
v -51.722244 1.739026 16.874657
v -51.256161 1.700826 18.679310
v -52.652618 1.903841 18.357161
v -52.315567 1.898556 20.214111
v -44.745564 0.891106 8.864513
v -45.278313 0.824456 8.644287
v -44.271759 0.804819 8.495975
v -44.932022 0.725269 8.173888
v -43.212730 0.796056 8.812138
v -43.744350 0.878188 8.928875
v -43.635750 0.707113 8.309194
v -42.894539 0.605794 8.350426
v -44.315208 0.625238 7.880557
v -45.657955 0.648569 8.010331
v -38.053871 0.730181 15.007093
v -38.670517 0.594131 14.258831
v -38.314213 0.411450 14.132044
v -39.426922 0.389688 12.777382
v -38.757149 0.333200 13.423450
v -39.126633 0.483512 13.518568
v -39.548050 0.703881 13.658626
v -39.838409 0.555812 12.889294
v -48.436275 0.451531 12.155113
v -48.543175 0.564639 12.728495
v -49.498135 0.363531 11.974862
v -48.842186 0.757864 13.211313
v -47.916470 1.497802 14.471444
v -48.055138 1.161626 13.635331
v -46.997864 1.054526 12.795981
v -46.694073 1.240704 13.439026
v -47.939461 0.907383 13.032963
v -47.730492 0.699651 12.428812
v -44.256371 1.544075 15.278231
v -45.810005 1.396016 14.199488
v -40.429329 1.511424 15.599268
v -42.482239 1.420611 14.618450
v -42.967155 1.319155 13.307438
v -41.543324 1.308722 13.958857
v -44.133625 1.349030 13.800732
v -45.331562 1.284961 13.130775
v -38.655071 1.099067 15.267118
v -40.088787 1.245061 14.656324
v -39.114304 0.884406 14.446813
v -40.322975 0.828050 13.072319
v -40.152294 1.032350 13.859070
v -41.181541 1.149919 13.267076
v -40.443130 0.628956 12.287487
v -39.989643 0.431613 12.125431
v -40.479973 0.470794 11.510100
v -39.587700 0.309550 12.010050
v -40.059856 0.338275 11.341182
v -40.538864 0.294656 9.903250
v -40.106651 0.275650 10.519400
v -40.492790 0.360156 10.719475
v -40.942013 0.529113 10.956981
v -40.930943 0.399319 10.165731
v -49.620449 0.346350 11.298300
v -48.524242 0.394638 11.478062
v -48.717117 0.371456 10.733575
v -47.644318 0.544419 11.724856
v -47.758369 0.456994 10.951282
v -47.363407 0.479156 9.571225
v -47.168713 0.554919 10.439981
v -47.972691 0.413687 10.139494
v -48.924599 0.361150 9.943600
v -48.187218 0.391813 9.302869
v -47.045715 0.858950 12.094906
v -47.065487 0.686119 11.303131
v -46.053650 1.170067 12.469631
v -46.381752 1.008600 11.740431
v -46.034081 0.966075 10.556038
v -45.677052 1.114275 11.355200
v -46.558567 0.839119 10.914455
v -46.704742 0.686106 10.016094
v -44.159119 1.291431 12.680932
v -45.060150 1.226092 12.047676
v -42.201744 1.221110 12.693031
v -43.231701 1.240898 12.123569
v -43.388992 1.137637 10.953837
v -42.561630 1.116731 11.483194
v -44.147381 1.216500 11.539787
v -44.896198 1.146163 10.904438
v -41.048767 0.944069 12.518450
v -41.784752 1.044944 11.994781
v -40.986092 0.724425 11.743918
v -41.421551 0.629369 10.472844
v -41.545326 0.832825 11.248375
v -42.161938 0.935919 10.777106
v -41.418930 0.479850 9.682718
v -41.011368 0.331369 9.361807
v -41.558887 0.399294 8.911569
v -40.665947 0.258250 9.061350
v -41.227310 0.295850 8.559438
v -41.635101 0.267050 7.775200
v -41.890980 0.356675 8.169075
v -42.191101 0.495331 8.567537
v -48.316399 0.369550 8.411300
v -47.540833 0.434331 8.704100
v -47.584755 0.399294 7.849937
v -46.847389 0.567369 9.106837
v -46.932892 0.493725 8.261826
v -46.316563 0.567131 8.030087
v -46.833412 0.440513 7.503987
v -47.387150 0.358000 7.046600
v -46.257881 0.809213 9.681099
v -46.366215 0.671950 8.811975
v -45.450607 1.033937 10.186575
v -45.763466 0.895219 9.414231
v -45.226402 0.927875 9.190413
v -45.844120 0.761856 8.659581
v -44.164661 1.106650 10.379488
v -44.804646 1.030044 9.771582
v -42.847599 1.005750 10.297100
v -43.571468 1.014981 9.815969
v -43.199883 0.900569 9.302700
v -44.220627 0.968975 9.314413
v -41.968613 0.749237 10.027500
v -42.577538 0.849338 9.627657
v -41.971970 0.597037 9.280888
v -42.586716 0.710513 8.970243
v -43.478477 0.456925 7.556600
v -43.422676 0.343800 7.071225
v -45.522026 0.376875 6.739800
v -45.267475 0.485075 7.281300
v -31.022499 1.425901 19.494776
v -28.711550 1.704317 20.706249
v -36.927052 1.433782 17.032850
v -33.914177 1.430821 18.307650
v -29.773651 1.857394 22.890175
v -31.984550 1.670788 21.777525
v -33.173450 1.816400 25.004126
v -30.989700 1.978625 25.737850
v -34.939148 1.676988 20.596251
v -38.391224 1.694263 19.345575
v -40.035019 1.838600 22.784416
v -36.299751 1.829300 23.845627
v -42.684372 1.712077 18.361525
v -47.422600 1.724599 17.509525
v -48.455975 1.881047 21.210924
v -44.223995 1.874722 21.963200
v -50.824402 1.704705 16.914875
v -52.233177 1.895138 16.869650
v -52.805294 2.042925 19.862089
v -51.492733 1.852400 20.520962
v -44.819149 0.810875 8.500726
v -43.711597 0.796100 8.594575
v -43.571297 0.614850 8.048600
v -45.039650 0.636600 7.862425
v -38.938648 0.403975 13.468200
v -39.327599 0.580575 13.580175
v -48.963974 0.463425 12.628176
v -48.800526 1.284800 14.044575
v -47.461021 1.091881 13.231250
v -48.250923 0.722130 12.864401
v -46.283249 1.554446 14.905300
v -42.191326 1.556026 15.522326
v -42.747322 1.353437 13.911475
v -45.517075 1.318937 13.636050
v -39.311577 1.331394 15.470750
v -38.276802 0.897575 15.118725
v -39.794502 0.862150 13.759525
v -40.706776 1.191450 13.933451
v -40.206726 0.516175 12.197701
v -39.785450 0.365875 12.064825
v -40.295776 0.312625 10.617100
v -40.705574 0.428800 10.831201
v -49.058548 0.364150 11.384174
v -48.045124 0.450500 11.587976
v -47.543846 0.467675 10.269550
v -48.439224 0.381875 10.035125
v -47.344948 0.689075 11.899650
v -46.645325 1.028525 12.293175
v -46.185478 0.989475 11.155350
v -46.863300 0.686500 10.665476
v -45.180573 1.255841 12.599451
v -43.122299 1.282417 12.712375
v -43.314301 1.192275 11.538300
v -44.966324 1.190225 11.481050
v -41.529076 1.099825 12.622150
v -40.705299 0.779350 12.400650
v -41.209976 0.671650 11.101524
v -41.983925 0.989050 11.381075
v -41.203499 0.391475 9.518425
v -40.834774 0.290100 9.210300
v -41.760273 0.308800 7.971850
v -42.032749 0.416800 8.367451
v -47.923450 0.397675 8.550850
v -47.178875 0.488050 8.884750
v -46.568077 0.495550 7.754150
v -47.107975 0.396500 7.271000
v -46.556175 0.680825 9.384400
v -45.905151 0.933325 9.960600
v -45.573799 0.855750 8.962125
v -46.083477 0.660775 8.340400
v -44.846874 1.091825 10.322700
v -43.474674 1.078075 10.367450
v -43.679504 0.949750 9.336226
v -44.755798 0.963650 9.286825
v -42.354126 0.889325 10.178950
v -41.665424 0.605925 9.857250
v -42.371552 0.598425 8.769899
v -42.849220 0.816025 9.164275
v -37.379227 2.585000 26.105000
v -35.657951 2.573750 26.659718
v -39.253242 2.586850 25.542313
v -43.245934 2.587094 24.556732
v -41.229137 2.585500 25.019054
v -45.242645 2.597775 24.176846
v -47.170174 2.614531 23.829144
v -50.517220 2.654194 23.093449
v -48.979431 2.634350 23.463369
v -31.825424 2.573625 27.461575
v -30.973980 2.625381 27.064350
v -30.944693 2.336850 26.645294
v -32.853626 2.536256 27.470535
v -34.140278 2.546900 27.159077
v -53.005100 2.487881 20.541906
v -53.083630 2.845200 20.822163
v -52.861214 2.784075 21.678036
v -52.388466 2.706950 22.291859
v -51.630348 2.671025 22.733305
v -29.355583 1.237426 19.595987
v -30.696444 1.151072 18.966700
v -32.151699 1.153437 18.355314
v -28.562416 2.206126 22.082254
v -28.038431 2.180898 21.284649
v -27.498976 2.079632 20.858021
v -28.239056 1.502196 20.232105
v -36.410118 1.144719 16.594774
v -36.107624 0.915519 16.354649
v -37.276428 0.906374 15.759818
v -35.042049 1.152743 17.194405
v -33.611404 1.154821 17.772900
v -51.659100 1.699014 14.810725
v -51.978867 2.157378 14.975394
v -52.080791 2.252126 15.724665
v -51.160908 1.481746 14.693794
v -49.901512 1.076169 13.920544
v -50.557846 1.091831 14.067969
v -50.445526 1.419470 14.575450
v -29.138527 2.188486 23.355776
v -29.755606 2.180179 24.756830
v -30.402500 2.233406 25.937046
v -52.464279 2.245895 16.911787
v -52.869904 2.240365 18.292593
v -53.038242 2.337213 19.622906
v -37.072258 0.734417 15.638173
v -36.902390 0.602319 15.533450
v -37.863373 0.600150 14.913750
v -37.697197 0.498144 14.834131
v -37.547203 0.414825 14.763675
v -37.405300 0.340850 14.697800
v -49.483143 0.404325 12.553263
v -50.098442 0.434077 12.978414
v -49.539925 0.495395 13.013868
v -49.116447 0.597325 13.089046
v -50.691948 0.356000 12.441500
v -50.070499 0.373175 12.493575
v -49.440224 0.808203 13.474450
v -49.215183 1.020061 13.690356
v -49.664238 0.652606 13.362187
vt 0.160686 0.693754
vt 0.162109 0.707342
vt 0.155569 0.709366
vt 0.154546 0.696111
vt 0.162504 0.721705
vt 0.156007 0.723640
vt 0.162127 0.751525
vt 0.156441 0.753373
vt 0.156203 0.738442
vt 0.162342 0.736493
vt 0.162365 0.766617
vt 0.157005 0.768034
vt 0.162692 0.781662
vt 0.157578 0.782293
vt 0.162043 0.809622
vt 0.157466 0.807933
vt 0.157844 0.796016
vt 0.162743 0.796553
vt 0.143722 0.657930
vt 0.149079 0.663789
vt 0.146575 0.667468
vt 0.142121 0.661475
vt 0.153756 0.670966
vt 0.149877 0.674648
vt 0.152591 0.684367
vt 0.157764 0.681291
vt 0.146318 0.837124
vt 0.144967 0.833409
vt 0.150073 0.828588
vt 0.152124 0.831928
vt 0.153683 0.823377
vt 0.156849 0.826299
vt 0.160116 0.819200
vt 0.156113 0.816772
vt 0.481581 0.278728
vt 0.479864 0.277735
vt 0.483613 0.271966
vt 0.484990 0.273406
vt 0.478258 0.276700
vt 0.482322 0.270507
vt 0.487560 0.264758
vt 0.488451 0.266670
vt 0.489420 0.268593
vt 0.475220 0.274560
vt 0.479877 0.267554
vt 0.481086 0.269033
vt 0.476721 0.275637
vt 0.485908 0.260950
vt 0.486722 0.262852
vt 0.499641 0.252132
vt 0.499453 0.254693
vt 0.493035 0.257828
vt 0.492694 0.255545
vt 0.499309 0.257281
vt 0.493406 0.260125
vt 0.499335 0.262654
vt 0.494368 0.264828
vt 0.493840 0.262453
vt 0.499256 0.259925
vt 0.470179 0.397617
vt 0.463947 0.407745
vt 0.456945 0.403850
vt 0.463273 0.393619
vt 0.458806 0.417165
vt 0.451680 0.413586
vt 0.446552 0.411870
vt 0.452097 0.401720
vt 0.458590 0.391328
vt 0.451425 0.431617
vt 0.445692 0.430737
vt 0.448232 0.422394
vt 0.455319 0.425418
vt 0.439918 0.430633
vt 0.442789 0.421405
vt 0.478931 0.351546
vt 0.482593 0.351443
vt 0.477603 0.360997
vt 0.474117 0.360537
vt 0.499905 0.349430
vt 0.491637 0.364260
vt 0.483275 0.361724
vt 0.488628 0.350932
vt 0.484126 0.376244
vt 0.476652 0.372768
vt 0.471632 0.370953
vt 0.469914 0.383329
vt 0.476939 0.387240
vt 0.465199 0.381068
vt 0.574953 0.285955
vt 0.573760 0.287958
vt 0.569361 0.283269
vt 0.573150 0.282734
vt 0.569753 0.289737
vt 0.565054 0.284383
vt 0.553781 0.297920
vt 0.553509 0.288992
vt 0.559710 0.286653
vt 0.563848 0.292891
vt 0.553042 0.284183
vt 0.557926 0.282201
vt 0.464941 0.431169
vt 0.462092 0.438381
vt 0.468549 0.423281
vt 0.479457 0.430533
vt 0.475503 0.437818
vt 0.472210 0.444241
vt 0.479936 0.403917
vt 0.473676 0.414042
vt 0.491130 0.411357
vt 0.484729 0.421522
vt 0.513584 0.426190
vt 0.506646 0.436396
vt 0.495707 0.428968
vt 0.502351 0.418778
vt 0.500549 0.444366
vt 0.490075 0.437516
vt 0.489707 0.451437
vt 0.481232 0.448291
vt 0.485412 0.443536
vt 0.494993 0.448788
vt 0.486945 0.393370
vt 0.494699 0.382185
vt 0.506800 0.389329
vt 0.498470 0.400607
vt 0.513371 0.357647
vt 0.503192 0.370144
vt 0.526860 0.365526
vt 0.516176 0.377581
vt 0.552534 0.380462
vt 0.541304 0.391851
vt 0.528824 0.384776
vt 0.539828 0.373076
vt 0.530898 0.403461
vt 0.518860 0.396410
vt 0.510052 0.407835
vt 0.521662 0.415060
vt 0.515740 0.336934
vt 0.526182 0.345099
vt 0.529624 0.324569
vt 0.539930 0.332347
vt 0.551944 0.341038
vt 0.539119 0.353326
vt 0.564071 0.308020
vt 0.552919 0.319239
vt 0.542502 0.311587
vt 0.574969 0.317991
vt 0.564330 0.328719
vt 0.595516 0.339433
vt 0.586653 0.348561
vt 0.575541 0.338552
vt 0.585368 0.328562
vt 0.575815 0.358930
vt 0.563896 0.349933
vt 0.551755 0.361451
vt 0.564240 0.369526
vt 0.572310 0.300934
vt 0.578037 0.296783
vt 0.587596 0.305457
vt 0.582556 0.310479
vt 0.584216 0.292816
vt 0.581654 0.294365
vt 0.592571 0.299828
vt 0.590594 0.302201
vt 0.604737 0.314614
vt 0.604970 0.320710
vt 0.598133 0.311172
vt 0.599108 0.307145
vt 0.604136 0.326720
vt 0.596124 0.315697
vt 0.592049 0.321219
vt 0.601164 0.332556
vt 0.500001 0.273773
vt 0.497678 0.275121
vt 0.496516 0.272431
vt 0.500042 0.271339
vt 0.494569 0.277316
vt 0.493033 0.274783
vt 0.491695 0.272570
vt 0.495754 0.269793
vt 0.499877 0.268409
vt 0.489617 0.281955
vt 0.487675 0.281370
vt 0.489906 0.277833
vt 0.491623 0.279872
vt 0.485473 0.280550
vt 0.488111 0.276278
vt 0.486481 0.274823
vt 0.483446 0.279668
vt 0.490496 0.270533
vt 0.499592 0.265498
vt 0.495022 0.267267
vt 0.476664 0.351453
vt 0.474815 0.351378
vt 0.478338 0.343247
vt 0.480260 0.343142
vt 0.476714 0.343365
vt 0.479095 0.335880
vt 0.480786 0.335598
vt 0.482760 0.335340
vt 0.473956 0.343621
vt 0.476179 0.336484
vt 0.477590 0.336178
vt 0.475286 0.343491
vt 0.477640 0.323313
vt 0.479173 0.322810
vt 0.478873 0.329289
vt 0.477396 0.329731
vt 0.480792 0.322321
vt 0.480440 0.328860
vt 0.484638 0.321445
vt 0.484199 0.328088
vt 0.482184 0.328455
vt 0.482583 0.321861
vt 0.533583 0.281186
vt 0.535565 0.278428
vt 0.540886 0.278964
vt 0.538774 0.281655
vt 0.538177 0.275512
vt 0.543687 0.276104
vt 0.549310 0.275908
vt 0.546142 0.278772
vt 0.543924 0.281340
vt 0.544482 0.269270
vt 0.550366 0.269929
vt 0.546919 0.273062
vt 0.541222 0.272432
vt 0.547858 0.282807
vt 0.547564 0.285705
vt 0.541896 0.286693
vt 0.542865 0.283754
vt 0.548596 0.280659
vt 0.542913 0.297266
vt 0.546630 0.290307
vt 0.535747 0.296655
vt 0.539942 0.290833
vt 0.525992 0.294363
vt 0.529420 0.290053
vt 0.534315 0.290803
vt 0.530351 0.295743
vt 0.531306 0.286622
vt 0.536440 0.287073
vt 0.537609 0.284191
vt 0.532428 0.283791
vt 0.534272 0.307236
vt 0.522801 0.318413
vt 0.518432 0.313484
vt 0.528053 0.304643
vt 0.499542 0.337166
vt 0.510590 0.328992
vt 0.499508 0.328597
vt 0.508455 0.321870
vt 0.499119 0.315914
vt 0.505836 0.311328
vt 0.507056 0.316160
vt 0.499464 0.321697
vt 0.513192 0.305728
vt 0.515490 0.309387
vt 0.523666 0.302260
vt 0.520247 0.299830
vt 0.491558 0.341125
vt 0.486088 0.342533
vt 0.488356 0.334347
vt 0.492981 0.332466
vt 0.482583 0.343055
vt 0.485117 0.335114
vt 0.487051 0.321087
vt 0.486578 0.327771
vt 0.490079 0.320344
vt 0.489668 0.326962
vt 0.493816 0.325117
vt 0.493985 0.318769
vt 0.482031 0.315856
vt 0.484140 0.315467
vt 0.480191 0.316279
vt 0.478984 0.310583
vt 0.480870 0.310270
vt 0.483035 0.309970
vt 0.476945 0.317180
vt 0.478525 0.316723
vt 0.475653 0.311234
vt 0.477274 0.310906
vt 0.472653 0.299522
vt 0.474354 0.299587
vt 0.475766 0.305233
vt 0.474103 0.305377
vt 0.476139 0.299641
vt 0.477517 0.305086
vt 0.480319 0.299674
vt 0.481653 0.304768
vt 0.479444 0.304932
vt 0.478093 0.299675
vt 0.535948 0.270777
vt 0.539014 0.267684
vt 0.533090 0.273807
vt 0.528304 0.271245
vt 0.530958 0.268319
vt 0.533805 0.265360
vt 0.528784 0.279516
vt 0.530647 0.276714
vt 0.524302 0.276939
vt 0.526037 0.274105
vt 0.515991 0.270302
vt 0.517360 0.267398
vt 0.521640 0.270885
vt 0.520063 0.273750
vt 0.519155 0.264627
vt 0.523701 0.268083
vt 0.523509 0.259250
vt 0.528699 0.262492
vt 0.526113 0.265286
vt 0.521256 0.261922
vt 0.527663 0.282230
vt 0.526604 0.285112
vt 0.522267 0.282787
vt 0.523243 0.279785
vt 0.521937 0.292345
vt 0.524928 0.288417
vt 0.518145 0.289822
vt 0.520780 0.286091
vt 0.511189 0.283770
vt 0.513277 0.280152
vt 0.516915 0.283267
vt 0.514574 0.286923
vt 0.514428 0.276694
vt 0.518230 0.279888
vt 0.519102 0.276733
vt 0.515174 0.273406
vt 0.516934 0.297097
vt 0.510754 0.302114
vt 0.508230 0.298510
vt 0.513725 0.294108
vt 0.498188 0.310695
vt 0.504237 0.306838
vt 0.496834 0.305893
vt 0.502368 0.302590
vt 0.493518 0.296947
vt 0.498261 0.294412
vt 0.500339 0.298481
vt 0.495222 0.301359
vt 0.503142 0.291181
vt 0.505673 0.294877
vt 0.510623 0.290909
vt 0.507631 0.287540
vt 0.493414 0.313110
vt 0.489646 0.314461
vt 0.488635 0.309122
vt 0.492321 0.307963
vt 0.486617 0.315125
vt 0.485582 0.309689
vt 0.482919 0.299627
vt 0.484250 0.304588
vt 0.485944 0.299309
vt 0.487314 0.304135
vt 0.490926 0.303151
vt 0.489445 0.298498
vt 0.477159 0.294329
vt 0.479358 0.294504
vt 0.475201 0.294105
vt 0.475025 0.288455
vt 0.476942 0.288895
vt 0.479056 0.289279
vt 0.471657 0.293578
vt 0.473392 0.293850
vt 0.471498 0.287483
vt 0.473231 0.287978
vt 0.474221 0.281930
vt 0.472556 0.281173
vt 0.475934 0.282668
vt 0.479700 0.284019
vt 0.477742 0.283370
vt 0.516231 0.258473
vt 0.518045 0.255807
vt 0.514541 0.261185
vt 0.509761 0.258396
vt 0.510969 0.255655
vt 0.512272 0.252959
vt 0.512014 0.266949
vt 0.513099 0.263988
vt 0.508003 0.264213
vt 0.508744 0.261230
vt 0.504176 0.259696
vt 0.503828 0.262615
vt 0.504723 0.256900
vt 0.506152 0.251502
vt 0.505404 0.254182
vt 0.511392 0.270133
vt 0.510801 0.273486
vt 0.507244 0.270726
vt 0.507625 0.267402
vt 0.507953 0.280487
vt 0.509812 0.276953
vt 0.504920 0.277467
vt 0.506495 0.274112
vt 0.503304 0.272070
vt 0.502140 0.275104
vt 0.503655 0.268876
vt 0.503742 0.265700
vt 0.504754 0.284041
vt 0.500691 0.287383
vt 0.498404 0.283690
vt 0.502059 0.280698
vt 0.491888 0.292508
vt 0.496245 0.290283
vt 0.490568 0.288307
vt 0.494447 0.286328
vt 0.493021 0.282780
vt 0.489794 0.284608
vt 0.496361 0.280310
vt 0.499613 0.277801
vt 0.488093 0.293825
vt 0.484785 0.294453
vt 0.484124 0.289659
vt 0.487147 0.289325
vt 0.481886 0.294612
vt 0.481438 0.289588
vt 0.481861 0.284598
vt 0.484248 0.285017
vt 0.486881 0.285187
vn 0.101894 0.956190 -0.274443
vn 0.091141 0.956855 -0.275902
vn 0.176690 0.810680 -0.558192
vn 0.190371 0.805963 -0.560520
vn 0.091141 0.956855 -0.275902
vn 0.079115 0.957314 -0.278013
vn 0.161930 0.806808 -0.568189
vn 0.176690 0.810680 -0.558192
vn 0.061018 0.957418 -0.282185
vn 0.136999 0.767065 -0.626772
vn 0.148861 0.791810 -0.592349
vn 0.068537 0.957244 -0.281047
vn 0.068537 0.957244 -0.281047
vn 0.148861 0.791810 -0.592349
vn 0.161930 0.806808 -0.568189
vn 0.079115 0.957314 -0.278013
vn 0.061018 0.957418 -0.282185
vn 0.056166 0.957282 -0.283648
vn 0.131064 0.735158 -0.665105
vn 0.136999 0.767065 -0.626772
vn 0.056166 0.957282 -0.283648
vn 0.055791 0.955680 -0.289073
vn 0.141798 0.701114 -0.698808
vn 0.131064 0.735158 -0.665105
vn 0.080753 0.945557 -0.315280
vn 0.214151 0.626182 -0.749690
vn 0.167928 0.665785 -0.727001
vn 0.062426 0.951786 -0.300344
vn 0.062426 0.951786 -0.300344
vn 0.167928 0.665785 -0.727001
vn 0.141798 0.701114 -0.698808
vn 0.055791 0.955680 -0.289073
vn -0.409300 0.790207 -0.456121
vn -0.135962 0.917057 -0.374861
vn -0.175308 0.653767 -0.736108
vn -0.586759 0.401726 -0.703086
vn -0.135962 0.917057 -0.374861
vn 0.023205 0.948170 -0.316916
vn 0.078000 0.755714 -0.650240
vn -0.175308 0.653767 -0.736108
vn 0.101894 0.956190 -0.274443
vn 0.190371 0.805963 -0.560520
vn 0.176997 0.790813 -0.585907
vn 0.092458 0.954767 -0.282615
vn 0.092458 0.954767 -0.282615
vn 0.176997 0.790813 -0.585907
vn 0.078000 0.755714 -0.650240
vn 0.023205 0.948170 -0.316916
vn 0.926808 0.361911 -0.100233
vn 0.993909 0.018133 -0.108701
vn 0.860646 0.281007 -0.424645
vn 0.641061 0.727354 -0.244944
vn 0.641061 0.727354 -0.244944
vn 0.860646 0.281007 -0.424645
vn 0.573347 0.474252 -0.668100
vn 0.334637 0.885275 -0.322964
vn 0.080753 0.945557 -0.315280
vn 0.146470 0.932370 -0.330503
vn 0.330255 0.569003 -0.753105
vn 0.214151 0.626182 -0.749690
vn 0.146470 0.932370 -0.330503
vn 0.334637 0.885275 -0.322964
vn 0.573347 0.474252 -0.668100
vn 0.330255 0.569003 -0.753105
vn 0.175593 0.948986 -0.261903
vn 0.150502 0.963493 -0.221430
vn 0.099328 0.965110 -0.242276
vn 0.111086 0.953287 -0.280898
vn 0.150502 0.963493 -0.221430
vn 0.128643 0.973179 -0.190721
vn 0.088551 0.973007 -0.213111
vn 0.099328 0.965110 -0.242276
vn 0.099328 0.965110 -0.242276
vn 0.088551 0.973007 -0.213111
vn 0.048935 0.975531 -0.214348
vn 0.051932 0.969315 -0.240273
vn 0.111086 0.953287 -0.280898
vn 0.099328 0.965110 -0.242276
vn 0.051932 0.969315 -0.240273
vn 0.054185 0.960156 -0.274160
vn 0.105227 0.980117 -0.168219
vn 0.075318 0.978799 -0.190470
vn 0.080480 0.977459 -0.195185
vn 0.112459 0.978608 -0.172279
vn 0.075318 0.978799 -0.190470
vn 0.041856 0.980419 -0.192423
vn 0.046599 0.979048 -0.198226
vn 0.080480 0.977459 -0.195185
vn 0.080480 0.977459 -0.195185
vn 0.046599 0.979048 -0.198226
vn 0.048935 0.975531 -0.214348
vn 0.088551 0.973007 -0.213111
vn 0.112459 0.978608 -0.172279
vn 0.080480 0.977459 -0.195185
vn 0.088551 0.973007 -0.213111
vn 0.128643 0.973179 -0.190721
vn -0.036766 0.990292 -0.134054
vn -0.034572 0.989000 -0.143816
vn 0.008441 0.983255 -0.182038
vn 0.003866 0.984757 -0.173894
vn -0.034572 0.989000 -0.143816
vn -0.043658 0.986767 -0.156156
vn 0.005781 0.980517 -0.196350
vn 0.008441 0.983255 -0.182038
vn 0.008441 0.983255 -0.182038
vn 0.005781 0.980517 -0.196350
vn 0.048935 0.975531 -0.214348
vn 0.046599 0.979048 -0.198226
vn 0.003866 0.984757 -0.173894
vn 0.008441 0.983255 -0.182038
vn 0.046599 0.979048 -0.198226
vn 0.041856 0.980419 -0.192423
vn -0.071219 0.975677 -0.207321
vn -0.003052 0.968264 -0.249912
vn 0.002204 0.975566 -0.219694
vn -0.056060 0.982435 -0.177987
vn -0.003052 0.968264 -0.249912
vn 0.054185 0.960156 -0.274160
vn 0.051932 0.969315 -0.240273
vn 0.002204 0.975566 -0.219694
vn 0.002204 0.975566 -0.219694
vn 0.051932 0.969315 -0.240273
vn 0.048935 0.975531 -0.214348
vn 0.005781 0.980517 -0.196350
vn -0.056060 0.982435 -0.177987
vn 0.002204 0.975566 -0.219694
vn 0.005781 0.980517 -0.196350
vn -0.043658 0.986767 -0.156156
vn 0.038825 0.995152 -0.090366
vn 0.024876 0.995059 -0.096118
vn 0.099352 0.957135 -0.272070
vn 0.111465 0.956853 -0.268344
vn 0.024876 0.995059 -0.096118
vn -0.032737 0.993019 -0.113324
vn 0.038893 0.957419 -0.286070
vn 0.099352 0.957135 -0.272070
vn 0.099352 0.957135 -0.272070
vn 0.038893 0.957419 -0.286070
vn 0.118910 0.879316 -0.461155
vn 0.167892 0.884501 -0.435282
vn 0.111465 0.956853 -0.268344
vn 0.099352 0.957135 -0.272070
vn 0.167892 0.884501 -0.435282
vn 0.178345 0.883449 -0.433257
vn -0.569511 0.756236 -0.322124
vn -0.442645 0.738924 -0.507993
vn -0.122811 0.931066 -0.343560
vn -0.198400 0.965554 -0.168355
vn -0.442645 0.738924 -0.507993
vn -0.152076 0.664103 -0.732011
vn 0.014734 0.833049 -0.553003
vn -0.122811 0.931066 -0.343560
vn -0.122811 0.931066 -0.343560
vn 0.014734 0.833049 -0.553003
vn 0.118910 0.879316 -0.461155
vn 0.038893 0.957419 -0.286070
vn -0.198400 0.965554 -0.168355
vn -0.122811 0.931066 -0.343560
vn 0.038893 0.957419 -0.286070
vn -0.032737 0.993019 -0.113324
vn 0.278824 0.817032 -0.504695
vn 0.220016 0.887835 -0.404157
vn 0.196627 0.882785 -0.426648
vn 0.250558 0.801315 -0.543245
vn 0.035267 0.996361 -0.077598
vn 0.041398 0.995928 -0.080081
vn 0.121310 0.958627 -0.257522
vn 0.132318 0.959640 -0.248158
vn 0.041398 0.995928 -0.080081
vn 0.039456 0.995579 -0.085234
vn 0.112685 0.957674 -0.264881
vn 0.121310 0.958627 -0.257522
vn 0.121310 0.958627 -0.257522
vn 0.112685 0.957674 -0.264881
vn 0.181471 0.882042 -0.434822
vn 0.196627 0.882785 -0.426648
vn 0.132318 0.959640 -0.248158
vn 0.121310 0.958627 -0.257522
vn 0.196627 0.882785 -0.426648
vn 0.220016 0.887835 -0.404157
vn 0.038825 0.995152 -0.090366
vn 0.111465 0.956853 -0.268344
vn 0.108720 0.957330 -0.267766
vn 0.037990 0.995354 -0.088473
vn 0.111465 0.956853 -0.268344
vn 0.178345 0.883449 -0.433257
vn 0.175419 0.882470 -0.436435
vn 0.108720 0.957330 -0.267766
vn 0.108720 0.957330 -0.267766
vn 0.175419 0.882470 -0.436435
vn 0.181471 0.882042 -0.434822
vn 0.112685 0.957674 -0.264881
vn 0.037990 0.995354 -0.088473
vn 0.108720 0.957330 -0.267766
vn 0.112685 0.957674 -0.264881
vn 0.039456 0.995579 -0.085234
vn 0.932511 0.300270 0.200651
vn 0.562878 0.823509 0.070720
vn 0.457996 0.816602 -0.351285
vn 0.821113 0.475259 -0.316075
vn 0.562878 0.823509 0.070720
vn 0.129831 0.988934 -0.071789
vn 0.105164 0.923429 -0.369079
vn 0.457996 0.816602 -0.351285
vn -0.006299 0.994811 -0.101550
vn -0.060088 0.929529 -0.363820
vn -0.034117 0.932157 -0.360444
vn -0.006494 0.994919 -0.100473
vn -0.060088 0.929529 -0.363820
vn -0.110925 0.825202 -0.553840
vn -0.071727 0.813638 -0.576931
vn -0.034117 0.932157 -0.360444
vn -0.006494 0.994919 -0.100473
vn -0.034117 0.932157 -0.360444
vn 0.105164 0.923429 -0.369079
vn 0.129831 0.988934 -0.071789
vn -0.569511 0.756236 -0.322124
vn -0.198400 0.965554 -0.168355
vn -0.222385 0.969523 -0.102812
vn -0.594720 0.761669 -0.257230
vn -0.198400 0.965554 -0.168355
vn -0.032737 0.993019 -0.113324
vn -0.064719 0.997094 -0.040195
vn -0.222385 0.969523 -0.102812
vn -0.222385 0.969523 -0.102812
vn -0.064719 0.997094 -0.040195
vn -0.055069 0.996369 -0.064938
vn -0.207928 0.969985 -0.126073
vn -0.594720 0.761669 -0.257230
vn -0.222385 0.969523 -0.102812
vn -0.207928 0.969985 -0.126073
vn -0.563247 0.777465 -0.279824
vn 0.038825 0.995152 -0.090366
vn 0.007182 0.999898 -0.012357
vn -0.008468 0.999799 -0.018153
vn 0.024876 0.995059 -0.096118
vn 0.007182 0.999898 -0.012357
vn 0.017808 0.999068 -0.039312
vn 0.002943 0.999036 -0.043794
vn -0.008468 0.999799 -0.018153
vn -0.008468 0.999799 -0.018153
vn 0.002943 0.999036 -0.043794
vn -0.055069 0.996369 -0.064938
vn -0.064719 0.997094 -0.040195
vn 0.024876 0.995059 -0.096118
vn -0.008468 0.999799 -0.018153
vn -0.064719 0.997094 -0.040195
vn -0.032737 0.993019 -0.113324
vn 0.101894 0.956190 -0.274443
vn 0.092458 0.954767 -0.282615
vn 0.037378 0.991320 -0.126042
vn 0.049145 0.991282 -0.122248
vn 0.092458 0.954767 -0.282615
vn 0.023205 0.948170 -0.316916
vn -0.022082 0.988795 -0.147638
vn 0.037378 0.991320 -0.126042
vn 0.037378 0.991320 -0.126042
vn -0.022082 0.988795 -0.147638
vn -0.055069 0.996369 -0.064938
vn 0.002943 0.999036 -0.043794
vn 0.049145 0.991282 -0.122248
vn 0.037378 0.991320 -0.126042
vn 0.002943 0.999036 -0.043794
vn 0.017808 0.999068 -0.039312
vn -0.409300 0.790207 -0.456121
vn -0.498990 0.791887 -0.352029
vn -0.167381 0.965109 -0.201367
vn -0.135962 0.917057 -0.374861
vn -0.498990 0.791887 -0.352029
vn -0.563247 0.777465 -0.279824
vn -0.207928 0.969985 -0.126073
vn -0.167381 0.965109 -0.201367
vn -0.167381 0.965109 -0.201367
vn -0.207928 0.969985 -0.126073
vn -0.055069 0.996369 -0.064938
vn -0.022082 0.988795 -0.147638
vn -0.135962 0.917057 -0.374861
vn -0.167381 0.965109 -0.201367
vn -0.022082 0.988795 -0.147638
vn 0.023205 0.948170 -0.316916
vn 0.038825 0.995152 -0.090366
vn 0.037990 0.995354 -0.088473
vn 0.007881 0.999898 -0.011915
vn 0.007182 0.999898 -0.012357
vn 0.037990 0.995354 -0.088473
vn 0.039456 0.995579 -0.085234
vn 0.008613 0.999907 -0.010612
vn 0.007881 0.999898 -0.011915
vn 0.007881 0.999898 -0.011915
vn 0.008613 0.999907 -0.010612
vn 0.015085 0.999164 -0.038005
vn 0.016776 0.999079 -0.039499
vn 0.007182 0.999898 -0.012357
vn 0.007881 0.999898 -0.011915
vn 0.016776 0.999079 -0.039499
vn 0.017808 0.999068 -0.039312
vn 0.035267 0.996361 -0.077598
vn 0.007928 0.999916 -0.010281
vn 0.009161 0.999918 -0.008918
vn 0.041398 0.995928 -0.080081
vn 0.007928 0.999916 -0.010281
vn 0.015411 0.999294 -0.034259
vn 0.014100 0.999281 -0.035208
vn 0.009161 0.999918 -0.008918
vn 0.009161 0.999918 -0.008918
vn 0.014100 0.999281 -0.035208
vn 0.015085 0.999164 -0.038005
vn 0.008613 0.999907 -0.010612
vn 0.041398 0.995928 -0.080081
vn 0.009161 0.999918 -0.008918
vn 0.008613 0.999907 -0.010612
vn 0.039456 0.995579 -0.085234
vn 0.061018 0.957418 -0.282185
vn 0.068537 0.957244 -0.281047
vn 0.032690 0.992269 -0.119724
vn 0.030882 0.992967 -0.114294
vn 0.068537 0.957244 -0.281047
vn 0.079115 0.957314 -0.278013
vn 0.037640 0.991745 -0.122575
vn 0.032690 0.992269 -0.119724
vn 0.032690 0.992269 -0.119724
vn 0.037640 0.991745 -0.122575
vn 0.015085 0.999164 -0.038005
vn 0.014100 0.999281 -0.035208
vn 0.030882 0.992967 -0.114294
vn 0.032690 0.992269 -0.119724
vn 0.014100 0.999281 -0.035208
vn 0.015411 0.999294 -0.034259
vn 0.101894 0.956190 -0.274443
vn 0.049145 0.991282 -0.122248
vn 0.043874 0.991401 -0.123286
vn 0.091141 0.956855 -0.275902
vn 0.049145 0.991282 -0.122248
vn 0.017808 0.999068 -0.039312
vn 0.016776 0.999079 -0.039499
vn 0.043874 0.991401 -0.123286
vn 0.043874 0.991401 -0.123286
vn 0.016776 0.999079 -0.039499
vn 0.015085 0.999164 -0.038005
vn 0.037640 0.991745 -0.122575
vn 0.091141 0.956855 -0.275902
vn 0.043874 0.991401 -0.123286
vn 0.037640 0.991745 -0.122575
vn 0.079115 0.957314 -0.278013
vn 0.035267 0.996361 -0.077598
vn 0.007783 0.998471 -0.054736
vn 0.006592 0.999843 -0.016449
vn 0.007928 0.999916 -0.010281
vn 0.007783 0.998471 -0.054736
vn 0.011523 0.998396 -0.055435
vn 0.006379 0.999770 -0.020456
vn 0.006592 0.999843 -0.016449
vn 0.006592 0.999843 -0.016449
vn 0.006379 0.999770 -0.020456
vn 0.009125 0.999079 -0.041935
vn 0.015358 0.999160 -0.038004
vn 0.007928 0.999916 -0.010281
vn 0.006592 0.999843 -0.016449
vn 0.015358 0.999160 -0.038004
vn 0.015411 0.999294 -0.034259
vn -0.006299 0.994811 -0.101550
vn -0.006374 0.999924 -0.010590
vn 0.002595 0.999878 -0.015373
vn 0.016282 0.998014 -0.060847
vn -0.006374 0.999924 -0.010590
vn -0.002837 0.999239 -0.038907
vn 0.001047 0.999151 -0.041194
vn 0.002595 0.999878 -0.015373
vn 0.002595 0.999878 -0.015373
vn 0.001047 0.999151 -0.041194
vn 0.009125 0.999079 -0.041935
vn 0.006379 0.999770 -0.020456
vn 0.016282 0.998014 -0.060847
vn 0.002595 0.999878 -0.015373
vn 0.006379 0.999770 -0.020456
vn 0.011523 0.998396 -0.055435
vn 0.080753 0.945557 -0.315280
vn 0.062426 0.951786 -0.300344
vn 0.016688 0.993003 -0.116900
vn 0.020523 0.992028 -0.124334
vn 0.062426 0.951786 -0.300344
vn 0.055791 0.955680 -0.289073
vn 0.021386 0.993563 -0.111246
vn 0.016688 0.993003 -0.116900
vn 0.016688 0.993003 -0.116900
vn 0.021386 0.993563 -0.111246
vn 0.009125 0.999079 -0.041935
vn 0.001047 0.999151 -0.041194
vn 0.020523 0.992028 -0.124334
vn 0.016688 0.993003 -0.116900
vn 0.001047 0.999151 -0.041194
vn -0.002837 0.999239 -0.038907
vn 0.061018 0.957418 -0.282185
vn 0.030882 0.992967 -0.114294
vn 0.028172 0.993505 -0.110243
vn 0.056166 0.957282 -0.283648
vn 0.030882 0.992967 -0.114294
vn 0.015411 0.999294 -0.034259
vn 0.015358 0.999160 -0.038004
vn 0.028172 0.993505 -0.110243
vn 0.028172 0.993505 -0.110243
vn 0.015358 0.999160 -0.038004
vn 0.009125 0.999079 -0.041935
vn 0.021386 0.993563 -0.111246
vn 0.056166 0.957282 -0.283648
vn 0.028172 0.993505 -0.110243
vn 0.021386 0.993563 -0.111246
vn 0.055791 0.955680 -0.289073
vn -0.006299 0.994811 -0.101550
vn -0.006494 0.994919 -0.100473
vn 0.005326 0.999967 -0.006110
vn -0.006374 0.999924 -0.010590
vn -0.006494 0.994919 -0.100473
vn 0.129831 0.988934 -0.071789
vn 0.132944 0.990692 0.029243
vn 0.005326 0.999967 -0.006110
vn 0.005326 0.999967 -0.006110
vn 0.132944 0.990692 0.029243
vn 0.151619 0.988263 -0.018632
vn 0.021189 0.999098 -0.036791
vn -0.006374 0.999924 -0.010590
vn 0.005326 0.999967 -0.006110
vn 0.021189 0.999098 -0.036791
vn -0.002837 0.999239 -0.038907
vn 0.932511 0.300270 0.200651
vn 0.925331 0.256617 0.279124
vn 0.550338 0.819308 0.160820
vn 0.562878 0.823509 0.070720
vn 0.925331 0.256617 0.279124
vn 0.939365 0.284633 0.191253
vn 0.542861 0.837061 0.068050
vn 0.550338 0.819308 0.160820
vn 0.550338 0.819308 0.160820
vn 0.542861 0.837061 0.068050
vn 0.151619 0.988263 -0.018632
vn 0.132944 0.990692 0.029243
vn 0.562878 0.823509 0.070720
vn 0.550338 0.819308 0.160820
vn 0.132944 0.990692 0.029243
vn 0.129831 0.988934 -0.071789
vn 0.926808 0.361911 -0.100233
vn 0.641061 0.727354 -0.244944
vn 0.536957 0.839678 -0.081354
vn 0.940805 0.336248 0.042710
vn 0.641061 0.727354 -0.244944
vn 0.334637 0.885275 -0.322964
vn 0.202210 0.970724 -0.129642
vn 0.536957 0.839678 -0.081354
vn 0.536957 0.839678 -0.081354
vn 0.202210 0.970724 -0.129642
vn 0.151619 0.988263 -0.018632
vn 0.542861 0.837061 0.068050
vn 0.940805 0.336248 0.042710
vn 0.536957 0.839678 -0.081354
vn 0.542861 0.837061 0.068050
vn 0.939365 0.284633 0.191253
vn 0.080753 0.945557 -0.315280
vn 0.020523 0.992028 -0.124334
vn 0.057850 0.989687 -0.131048
vn 0.146470 0.932370 -0.330503
vn 0.020523 0.992028 -0.124334
vn -0.002837 0.999239 -0.038907
vn 0.021189 0.999098 -0.036791
vn 0.057850 0.989687 -0.131048
vn 0.057850 0.989687 -0.131048
vn 0.021189 0.999098 -0.036791
vn 0.151619 0.988263 -0.018632
vn 0.202210 0.970724 -0.129642
vn 0.146470 0.932370 -0.330503
vn 0.057850 0.989687 -0.131048
vn 0.202210 0.970724 -0.129642
vn 0.334637 0.885275 -0.322964
vn -0.051916 0.981596 -0.183779
vn -0.012342 0.981289 -0.192144
vn -0.012319 0.971705 -0.235878
vn -0.071569 0.975567 -0.207720
vn -0.012342 0.981289 -0.192144
vn 0.025618 0.979675 -0.198951
vn 0.034735 0.967927 -0.248817
vn -0.012319 0.971705 -0.235878
vn -0.012319 0.971705 -0.235878
vn 0.034735 0.967927 -0.248817
vn 0.044454 0.957627 -0.284560
vn -0.013257 0.964853 -0.262456
vn -0.071569 0.975567 -0.207720
vn -0.012319 0.971705 -0.235878
vn -0.013257 0.964853 -0.262456
vn -0.083235 0.970692 -0.225454
vn 0.107518 0.972404 -0.207052
vn 0.143610 0.959189 -0.243584
vn 0.083338 0.963374 -0.254881
vn 0.064680 0.976898 -0.203684
vn 0.143610 0.959189 -0.243584
vn 0.173643 0.945588 -0.275158
vn 0.103671 0.950793 -0.291969
vn 0.083338 0.963374 -0.254881
vn 0.083338 0.963374 -0.254881
vn 0.103671 0.950793 -0.291969
vn 0.044454 0.957627 -0.284560
vn 0.034735 0.967927 -0.248817
vn 0.064680 0.976898 -0.203684
vn 0.083338 0.963374 -0.254881
vn 0.034735 0.967927 -0.248817
vn 0.025618 0.979675 -0.198951
vn 0.175593 0.948986 -0.261903
vn 0.111086 0.953287 -0.280898
vn 0.114790 0.945347 -0.305192
vn 0.188088 0.939207 -0.287252
vn 0.111086 0.953287 -0.280898
vn 0.054185 0.960156 -0.274160
vn 0.052126 0.953878 -0.295634
vn 0.114790 0.945347 -0.305192
vn 0.114790 0.945347 -0.305192
vn 0.052126 0.953878 -0.295634
vn 0.044454 0.957627 -0.284560
vn 0.103671 0.950793 -0.291969
vn 0.188088 0.939207 -0.287252
vn 0.114790 0.945347 -0.305192
vn 0.103671 0.950793 -0.291969
vn 0.173643 0.945588 -0.275158
vn -0.071219 0.975677 -0.207321
vn -0.083353 0.970032 -0.228233
vn -0.009142 0.962897 -0.269713
vn -0.003052 0.968264 -0.249912
vn -0.083353 0.970032 -0.228233
vn -0.083235 0.970692 -0.225454
vn -0.013257 0.964853 -0.262456
vn -0.009142 0.962897 -0.269713
vn -0.009142 0.962897 -0.269713
vn -0.013257 0.964853 -0.262456
vn 0.044454 0.957627 -0.284560
vn 0.052126 0.953878 -0.295634
vn -0.003052 0.968264 -0.249912
vn -0.009142 0.962897 -0.269713
vn 0.052126 0.953878 -0.295634
vn 0.054185 0.960156 -0.274160
vn 0.306562 0.779917 -0.545664
vn 0.288413 0.811131 -0.508807
vn 0.320872 0.831867 -0.452812
vn 0.339923 0.805808 -0.484898
vn 0.320872 0.831867 -0.452812
vn 0.300417 0.856164 -0.420395
vn 0.319430 0.877208 -0.358427
vn 0.342170 0.854798 -0.390180
vn 0.339923 0.805808 -0.484898
vn 0.320872 0.831867 -0.452812
vn 0.342170 0.854798 -0.390180
vn 0.363908 0.830570 -0.421574
vn 0.273803 0.878626 -0.391213
vn 0.293418 0.896893 -0.330892
vn 0.301554 0.893623 -0.332420
vn 0.283906 0.873973 -0.394422
vn 0.283906 0.873973 -0.394422
vn 0.301554 0.893623 -0.332420
vn 0.319430 0.877208 -0.358427
vn 0.300417 0.856164 -0.420395
vn 0.275158 0.942399 -0.190190
vn 0.282260 0.938708 -0.197882
vn 0.301130 0.916437 -0.263562
vn 0.294559 0.919513 -0.260250
vn 0.282260 0.938708 -0.197882
vn 0.308517 0.923578 -0.227641
vn 0.322205 0.900703 -0.291407
vn 0.301130 0.916437 -0.263562
vn 0.301130 0.916437 -0.263562
vn 0.322205 0.900703 -0.291407
vn 0.319430 0.877208 -0.358427
vn 0.301554 0.893623 -0.332420
vn 0.294559 0.919513 -0.260250
vn 0.301130 0.916437 -0.263562
vn 0.301554 0.893623 -0.332420
vn 0.293418 0.896893 -0.330892
vn 0.379840 0.876014 -0.297190
vn 0.377063 0.854283 -0.357804
vn 0.349832 0.878734 -0.324722
vn 0.343888 0.901567 -0.262521
vn 0.377063 0.854283 -0.357804
vn 0.363908 0.830570 -0.421574
vn 0.342170 0.854798 -0.390180
vn 0.349832 0.878734 -0.324722
vn 0.349832 0.878734 -0.324722
vn 0.342170 0.854798 -0.390180
vn 0.319430 0.877208 -0.358427
vn 0.322205 0.900703 -0.291407
vn 0.343888 0.901567 -0.262521
vn 0.349832 0.878734 -0.324722
vn 0.322205 0.900703 -0.291407
vn 0.308517 0.923578 -0.227641
vn -0.242381 0.940330 -0.238810
vn -0.137377 0.981033 -0.136752
vn -0.124849 0.969248 -0.212065
vn -0.214989 0.913951 -0.344200
vn -0.137377 0.981033 -0.136752
vn -0.071728 0.994598 -0.075035
vn -0.066328 0.989506 -0.128372
vn -0.124849 0.969248 -0.212065
vn -0.124849 0.969248 -0.212065
vn -0.066328 0.989506 -0.128372
vn -0.071357 0.974210 -0.214062
vn -0.116128 0.944113 -0.308489
vn -0.214989 0.913951 -0.344200
vn -0.124849 0.969248 -0.212065
vn -0.116128 0.944113 -0.308489
vn -0.189655 0.871872 -0.451520
vn -0.024935 0.999017 -0.036665
vn -0.028733 0.997129 -0.070052
vn -0.036091 0.996037 -0.081293
vn -0.036728 0.998415 -0.042649
vn -0.036728 0.998415 -0.042649
vn -0.036091 0.996037 -0.081293
vn -0.066328 0.989506 -0.128372
vn -0.071728 0.994598 -0.075035
vn -0.174655 0.775951 -0.606132
vn -0.130834 0.833508 -0.536794
vn -0.170354 0.855150 -0.489590
vn -0.217854 0.814719 -0.537375
vn -0.164594 0.818113 -0.551000
vn -0.174655 0.775951 -0.606132
vn -0.217854 0.814719 -0.537375
vn -0.189655 0.871872 -0.451520
vn -0.006299 0.994811 -0.101550
vn 0.005055 0.974286 -0.225256
vn -0.065937 0.920848 -0.384307
vn -0.060088 0.929529 -0.363820
vn 0.005055 0.974286 -0.225256
vn -0.022272 0.965865 -0.258089
vn -0.096908 0.919077 -0.381976
vn -0.065937 0.920848 -0.384307
vn -0.065937 0.920848 -0.384307
vn -0.096908 0.919077 -0.381976
vn -0.170354 0.855150 -0.489590
vn -0.130834 0.833508 -0.536794
vn -0.060088 0.929529 -0.363820
vn -0.065937 0.920848 -0.384307
vn -0.130834 0.833508 -0.536794
vn -0.110925 0.825202 -0.553840
vn -0.102113 0.985659 -0.134350
vn -0.194913 0.953639 -0.229307
vn -0.147011 0.941002 -0.304801
vn -0.066227 0.979777 -0.188815
vn -0.194913 0.953639 -0.229307
vn -0.277779 0.909317 -0.309809
vn -0.223441 0.885894 -0.406530
vn -0.147011 0.941002 -0.304801
vn -0.147011 0.941002 -0.304801
vn -0.223441 0.885894 -0.406530
vn -0.170354 0.855150 -0.489590
vn -0.096908 0.919077 -0.381976
vn -0.066227 0.979777 -0.188815
vn -0.147011 0.941002 -0.304801
vn -0.096908 0.919077 -0.381976
vn -0.022272 0.965865 -0.258089
vn -0.242381 0.940330 -0.238810
vn -0.214989 0.913951 -0.344200
vn -0.264047 0.859129 -0.438380
vn -0.311348 0.893674 -0.323125
vn -0.214989 0.913951 -0.344200
vn -0.189655 0.871872 -0.451520
vn -0.217854 0.814719 -0.537375
vn -0.264047 0.859129 -0.438380
vn -0.264047 0.859129 -0.438380
vn -0.217854 0.814719 -0.537375
vn -0.170354 0.855150 -0.489590
vn -0.223441 0.885894 -0.406530
vn -0.311348 0.893674 -0.323125
vn -0.264047 0.859129 -0.438380
vn -0.223441 0.885894 -0.406530
vn -0.277779 0.909317 -0.309809
vn -0.006299 0.994811 -0.101550
vn 0.016282 0.998014 -0.060847
vn 0.027325 0.987339 -0.156256
vn 0.005055 0.974286 -0.225256
vn 0.016282 0.998014 -0.060847
vn 0.011523 0.998396 -0.055435
vn 0.018780 0.991558 -0.128294
vn 0.027325 0.987339 -0.156256
vn 0.027325 0.987339 -0.156256
vn 0.018780 0.991558 -0.128294
vn 0.013235 0.989816 -0.141738
vn 0.010568 0.984038 -0.177643
vn 0.005055 0.974286 -0.225256
vn 0.027325 0.987339 -0.156256
vn 0.010568 0.984038 -0.177643
vn -0.022272 0.965865 -0.258089
vn 0.035267 0.996361 -0.077598
vn 0.056516 0.985608 -0.159319
vn 0.017469 0.991596 -0.128187
vn 0.007783 0.998471 -0.054736
vn 0.056516 0.985608 -0.159319
vn 0.070939 0.982684 -0.171171
vn 0.021850 0.990125 -0.138474
vn 0.017469 0.991596 -0.128187
vn 0.017469 0.991596 -0.128187
vn 0.021850 0.990125 -0.138474
vn 0.013235 0.989816 -0.141738
vn 0.018780 0.991558 -0.128294
vn 0.007783 0.998471 -0.054736
vn 0.017469 0.991596 -0.128187
vn 0.018780 0.991558 -0.128294
vn 0.011523 0.998396 -0.055435
vn 0.089311 0.989729 -0.111625
vn 0.026005 0.997245 -0.069474
vn 0.021407 0.995700 -0.090129
vn 0.077926 0.988522 -0.129429
vn 0.026005 0.997245 -0.069474
vn -0.008671 0.998291 -0.057799
vn -0.001335 0.996270 -0.086277
vn 0.021407 0.995700 -0.090129
vn 0.021407 0.995700 -0.090129
vn -0.001335 0.996270 -0.086277
vn 0.013235 0.989816 -0.141738
vn 0.021850 0.990125 -0.138474
vn 0.077926 0.988522 -0.129429
vn 0.021407 0.995700 -0.090129
vn 0.021850 0.990125 -0.138474
vn 0.070939 0.982684 -0.171171
vn -0.102113 0.985659 -0.134350
vn -0.066227 0.979777 -0.188815
vn -0.020439 0.993111 -0.115382
vn -0.042037 0.996169 -0.076678
vn -0.066227 0.979777 -0.188815
vn -0.022272 0.965865 -0.258089
vn 0.010568 0.984038 -0.177643
vn -0.020439 0.993111 -0.115382
vn -0.020439 0.993111 -0.115382
vn 0.010568 0.984038 -0.177643
vn 0.013235 0.989816 -0.141738
vn -0.001335 0.996270 -0.086277
vn -0.042037 0.996169 -0.076678
vn -0.020439 0.993111 -0.115382
vn -0.001335 0.996270 -0.086277
vn -0.008671 0.998291 -0.057799
vn 0.035267 0.996361 -0.077598
vn 0.132318 0.959640 -0.248158
vn 0.149607 0.956872 -0.249025
vn 0.056516 0.985608 -0.159319
vn 0.132318 0.959640 -0.248158
vn 0.220016 0.887835 -0.404157
vn 0.244722 0.897180 -0.367666
vn 0.149607 0.956872 -0.249025
vn 0.149607 0.956872 -0.249025
vn 0.244722 0.897180 -0.367666
vn 0.262006 0.908169 -0.326470
vn 0.166658 0.955678 -0.242702
vn 0.056516 0.985608 -0.159319
vn 0.149607 0.956872 -0.249025
vn 0.166658 0.955678 -0.242702
vn 0.070939 0.982684 -0.171171
vn 0.306562 0.779917 -0.545664
vn 0.339923 0.805808 -0.484898
vn 0.311822 0.835037 -0.453299
vn 0.278824 0.817032 -0.504695
vn 0.339923 0.805808 -0.484898
vn 0.363908 0.830570 -0.421574
vn 0.337290 0.851846 -0.400743
vn 0.311822 0.835037 -0.453299
vn 0.311822 0.835037 -0.453299
vn 0.337290 0.851846 -0.400743
vn 0.262006 0.908169 -0.326470
vn 0.244722 0.897180 -0.367666
vn 0.278824 0.817032 -0.504695
vn 0.311822 0.835037 -0.453299
vn 0.244722 0.897180 -0.367666
vn 0.220016 0.887835 -0.404157
vn 0.379840 0.876014 -0.297190
vn 0.363511 0.882920 -0.297172
vn 0.353929 0.868273 -0.347616
vn 0.377063 0.854283 -0.357804
vn 0.363511 0.882920 -0.297172
vn 0.286673 0.924733 -0.250376
vn 0.274866 0.918370 -0.284685
vn 0.353929 0.868273 -0.347616
vn 0.353929 0.868273 -0.347616
vn 0.274866 0.918370 -0.284685
vn 0.262006 0.908169 -0.326470
vn 0.337290 0.851846 -0.400743
vn 0.377063 0.854283 -0.357804
vn 0.353929 0.868273 -0.347616
vn 0.337290 0.851846 -0.400743
vn 0.363908 0.830570 -0.421574
vn 0.089311 0.989729 -0.111625
vn 0.077926 0.988522 -0.129429
vn 0.174933 0.963304 -0.203578
vn 0.187376 0.965450 -0.181100
vn 0.077926 0.988522 -0.129429
vn 0.070939 0.982684 -0.171171
vn 0.166658 0.955678 -0.242702
vn 0.174933 0.963304 -0.203578
vn 0.174933 0.963304 -0.203578
vn 0.166658 0.955678 -0.242702
vn 0.262006 0.908169 -0.326470
vn 0.274866 0.918370 -0.284685
vn 0.187376 0.965450 -0.181100
vn 0.174933 0.963304 -0.203578
vn 0.274866 0.918370 -0.284685
vn 0.286673 0.924733 -0.250376
vn 0.379840 0.876014 -0.297190
vn 0.343888 0.901567 -0.262521
vn 0.326753 0.921484 -0.210002
vn 0.373932 0.894655 -0.244473
vn 0.343888 0.901567 -0.262521
vn 0.308517 0.923578 -0.227641
vn 0.281518 0.943394 -0.175373
vn 0.326753 0.921484 -0.210002
vn 0.326753 0.921484 -0.210002
vn 0.281518 0.943394 -0.175373
vn 0.248778 0.958629 -0.138347
vn 0.304168 0.937074 -0.171391
vn 0.373932 0.894655 -0.244473
vn 0.326753 0.921484 -0.210002
vn 0.304168 0.937074 -0.171391
vn 0.362657 0.909226 -0.204422
vn 0.275158 0.942399 -0.190190
vn 0.238653 0.961823 -0.133944
vn 0.248782 0.957560 -0.145556
vn 0.282260 0.938708 -0.197882
vn 0.238653 0.961823 -0.133944
vn 0.194899 0.975947 -0.097680
vn 0.209251 0.971637 -0.110158
vn 0.248782 0.957560 -0.145556
vn 0.248782 0.957560 -0.145556
vn 0.209251 0.971637 -0.110158
vn 0.248778 0.958629 -0.138347
vn 0.281518 0.943394 -0.175373
vn 0.282260 0.938708 -0.197882
vn 0.248782 0.957560 -0.145556
vn 0.281518 0.943394 -0.175373
vn 0.308517 0.923578 -0.227641
vn 0.135370 0.988645 -0.065232
vn 0.152870 0.985470 -0.074029
vn 0.173815 0.980889 -0.087440
vn 0.156380 0.984762 -0.076093
vn 0.152870 0.985470 -0.074029
vn 0.199752 0.975040 -0.096931
vn 0.218786 0.969170 -0.113322
vn 0.173815 0.980889 -0.087440
vn 0.173815 0.980889 -0.087440
vn 0.218786 0.969170 -0.113322
vn 0.248778 0.958629 -0.138347
vn 0.209251 0.971637 -0.110158
vn 0.156380 0.984762 -0.076093
vn 0.173815 0.980889 -0.087440
vn 0.209251 0.971637 -0.110158
vn 0.194899 0.975947 -0.097680
vn 0.334161 0.928609 -0.161312
vn 0.348869 0.920247 -0.177303
vn 0.281968 0.948406 -0.144986
vn 0.264992 0.955736 -0.127862
vn 0.348869 0.920247 -0.177303
vn 0.362657 0.909226 -0.204422
vn 0.304168 0.937074 -0.171391
vn 0.281968 0.948406 -0.144986
vn 0.281968 0.948406 -0.144986
vn 0.304168 0.937074 -0.171391
vn 0.248778 0.958629 -0.138347
vn 0.218786 0.969170 -0.113322
vn 0.264992 0.955736 -0.127862
vn 0.281968 0.948406 -0.144986
vn 0.218786 0.969170 -0.113322
vn 0.199752 0.975040 -0.096931
vn -0.024935 0.999017 -0.036665
vn -0.036728 0.998415 -0.042649
vn -0.041703 0.998924 -0.020286
vn -0.029349 0.999447 -0.015636
vn -0.036728 0.998415 -0.042649
vn -0.071728 0.994598 -0.075035
vn -0.078553 0.996082 -0.040618
vn -0.041703 0.998924 -0.020286
vn -0.041703 0.998924 -0.020286
vn -0.078553 0.996082 -0.040618
vn -0.085465 0.996108 -0.021534
vn -0.047553 0.998829 -0.008877
vn -0.029349 0.999447 -0.015636
vn -0.041703 0.998924 -0.020286
vn -0.047553 0.998829 -0.008877
vn -0.034895 0.999375 -0.005637
vn -0.242381 0.940330 -0.238810
vn -0.261934 0.953370 -0.149918
vn -0.148159 0.985681 -0.080513
vn -0.137377 0.981033 -0.136752
vn -0.261934 0.953370 -0.149918
vn -0.270497 0.958095 -0.094259
vn -0.156267 0.986567 -0.047606
vn -0.148159 0.985681 -0.080513
vn -0.148159 0.985681 -0.080513
vn -0.156267 0.986567 -0.047606
vn -0.085465 0.996108 -0.021534
vn -0.078553 0.996082 -0.040618
vn -0.137377 0.981033 -0.136752
vn -0.148159 0.985681 -0.080513
vn -0.078553 0.996082 -0.040618
vn -0.071728 0.994598 -0.075035
vn -0.260731 0.963748 -0.056650
vn -0.164328 0.985939 -0.030340
vn -0.161877 0.986305 -0.031610
vn -0.270228 0.960635 -0.064480
vn -0.164328 0.985939 -0.030340
vn -0.100044 0.994845 -0.016549
vn -0.092636 0.995604 -0.013831
vn -0.161877 0.986305 -0.031610
vn -0.161877 0.986305 -0.031610
vn -0.092636 0.995604 -0.013831
vn -0.085465 0.996108 -0.021534
vn -0.156267 0.986567 -0.047606
vn -0.270228 0.960635 -0.064480
vn -0.161877 0.986305 -0.031610
vn -0.156267 0.986567 -0.047606
vn -0.270497 0.958095 -0.094259
vn -0.051402 0.998621 -0.010711
vn -0.042013 0.999108 -0.004204
vn -0.054714 0.998483 -0.006173
vn -0.063648 0.997903 -0.011749
vn -0.042013 0.999108 -0.004204
vn -0.034895 0.999375 -0.005637
vn -0.047553 0.998829 -0.008877
vn -0.054714 0.998483 -0.006173
vn -0.054714 0.998483 -0.006173
vn -0.047553 0.998829 -0.008877
vn -0.085465 0.996108 -0.021534
vn -0.092636 0.995604 -0.013831
vn -0.063648 0.997903 -0.011749
vn -0.054714 0.998483 -0.006173
vn -0.092636 0.995604 -0.013831
vn -0.100044 0.994845 -0.016549
vn -0.242381 0.940330 -0.238810
vn -0.311348 0.893674 -0.323125
vn -0.346113 0.912866 -0.216520
vn -0.261934 0.953370 -0.149918
vn -0.311348 0.893674 -0.323125
vn -0.277779 0.909317 -0.309809
vn -0.319319 0.921592 -0.220689
vn -0.346113 0.912866 -0.216520
vn -0.346113 0.912866 -0.216520
vn -0.319319 0.921592 -0.220689
vn -0.337409 0.928444 -0.155396
vn -0.358662 0.922379 -0.143451
vn -0.261934 0.953370 -0.149918
vn -0.346113 0.912866 -0.216520
vn -0.358662 0.922379 -0.143451
vn -0.270497 0.958095 -0.094259
vn -0.102113 0.985659 -0.134350
vn -0.124542 0.986169 -0.109361
vn -0.229001 0.957907 -0.173127
vn -0.194913 0.953639 -0.229307
vn -0.124542 0.986169 -0.109361
vn -0.136714 0.986138 -0.094024
vn -0.246268 0.960202 -0.131777
vn -0.229001 0.957907 -0.173127
vn -0.229001 0.957907 -0.173127
vn -0.246268 0.960202 -0.131777
vn -0.337409 0.928444 -0.155396
vn -0.319319 0.921592 -0.220689
vn -0.194913 0.953639 -0.229307
vn -0.229001 0.957907 -0.173127
vn -0.319319 0.921592 -0.220689
vn -0.277779 0.909317 -0.309809
vn -0.129462 0.987313 -0.091936
vn -0.233515 0.967233 -0.099659
vn -0.247242 0.963027 -0.107011
vn -0.137801 0.986522 -0.088232
vn -0.233515 0.967233 -0.099659
vn -0.315983 0.943459 -0.100197
vn -0.335606 0.934903 -0.115435
vn -0.247242 0.963027 -0.107011
vn -0.247242 0.963027 -0.107011
vn -0.335606 0.934903 -0.115435
vn -0.337409 0.928444 -0.155396
vn -0.246268 0.960202 -0.131777
vn -0.137801 0.986522 -0.088232
vn -0.247242 0.963027 -0.107011
vn -0.246268 0.960202 -0.131777
vn -0.136714 0.986138 -0.094024
vn -0.260731 0.963748 -0.056650
vn -0.270228 0.960635 -0.064480
vn -0.354173 0.929706 -0.101039
vn -0.334037 0.938638 -0.085897
vn -0.270228 0.960635 -0.064480
vn -0.270497 0.958095 -0.094259
vn -0.358662 0.922379 -0.143451
vn -0.354173 0.929706 -0.101039
vn -0.354173 0.929706 -0.101039
vn -0.358662 0.922379 -0.143451
vn -0.337409 0.928444 -0.155396
vn -0.335606 0.934903 -0.115435
vn -0.334037 0.938638 -0.085897
vn -0.354173 0.929706 -0.101039
vn -0.335606 0.934903 -0.115435
vn -0.315983 0.943459 -0.100197
vn -0.102113 0.985659 -0.134350
vn -0.042037 0.996169 -0.076678
vn -0.053271 0.996165 -0.069412
vn -0.124542 0.986169 -0.109361
vn -0.042037 0.996169 -0.076678
vn -0.008671 0.998291 -0.057799
vn -0.008678 0.998192 -0.059470
vn -0.053271 0.996165 -0.069412
vn -0.053271 0.996165 -0.069412
vn -0.008678 0.998192 -0.059470
vn -0.004893 0.997645 -0.068412
vn -0.058093 0.995807 -0.070670
vn -0.124542 0.986169 -0.109361
vn -0.053271 0.996165 -0.069412
vn -0.058093 0.995807 -0.070670
vn -0.136714 0.986138 -0.094024
vn 0.089311 0.989729 -0.111625
vn 0.104265 0.987916 -0.114678
vn 0.035661 0.996535 -0.075146
vn 0.026005 0.997245 -0.069474
vn 0.104265 0.987916 -0.114678
vn 0.120278 0.985698 -0.118035
vn 0.047194 0.995301 -0.084551
vn 0.035661 0.996535 -0.075146
vn 0.035661 0.996535 -0.075146
vn 0.047194 0.995301 -0.084551
vn -0.004893 0.997645 -0.068412
vn -0.008678 0.998192 -0.059470
vn 0.026005 0.997245 -0.069474
vn 0.035661 0.996535 -0.075146
vn -0.008678 0.998192 -0.059470
vn -0.008671 0.998291 -0.057799
vn 0.141969 0.981962 -0.124885
vn 0.065079 0.992336 -0.105040
vn 0.057713 0.993771 -0.095328
vn 0.133754 0.983548 -0.121420
vn 0.065079 0.992336 -0.105040
vn 0.007834 0.995551 -0.093897
vn 0.001303 0.996705 -0.081102
vn 0.057713 0.993771 -0.095328
vn 0.057713 0.993771 -0.095328
vn 0.001303 0.996705 -0.081102
vn -0.004893 0.997645 -0.068412
vn 0.047194 0.995301 -0.084551
vn 0.133754 0.983548 -0.121420
vn 0.057713 0.993771 -0.095328
vn 0.047194 0.995301 -0.084551
vn 0.120278 0.985698 -0.118035
vn -0.129462 0.987313 -0.091936
vn -0.137801 0.986522 -0.088232
vn -0.056256 0.995364 -0.078009
vn -0.049776 0.994782 -0.089057
vn -0.137801 0.986522 -0.088232
vn -0.136714 0.986138 -0.094024
vn -0.058093 0.995807 -0.070670
vn -0.056256 0.995364 -0.078009
vn -0.056256 0.995364 -0.078009
vn -0.058093 0.995807 -0.070670
vn -0.004893 0.997645 -0.068412
vn 0.001303 0.996705 -0.081102
vn -0.049776 0.994782 -0.089057
vn -0.056256 0.995364 -0.078009
vn 0.001303 0.996705 -0.081102
vn 0.007834 0.995551 -0.093897
vn 0.089311 0.989729 -0.111625
vn 0.187376 0.965450 -0.181100
vn 0.202614 0.964063 -0.171844
vn 0.104265 0.987916 -0.114678
vn 0.187376 0.965450 -0.181100
vn 0.286673 0.924733 -0.250376
vn 0.298585 0.927838 -0.223524
vn 0.202614 0.964063 -0.171844
vn 0.202614 0.964063 -0.171844
vn 0.298585 0.927838 -0.223524
vn 0.309011 0.929748 -0.200201
vn 0.218177 0.962228 -0.162838
vn 0.104265 0.987916 -0.114678
vn 0.202614 0.964063 -0.171844
vn 0.218177 0.962228 -0.162838
vn 0.120278 0.985698 -0.118035
vn 0.379840 0.876014 -0.297190
vn 0.373932 0.894655 -0.244473
vn 0.368543 0.894513 -0.253028
vn 0.363511 0.882920 -0.297172
vn 0.373932 0.894655 -0.244473
vn 0.362657 0.909226 -0.204422
vn 0.369501 0.903400 -0.217572
vn 0.368543 0.894513 -0.253028
vn 0.368543 0.894513 -0.253028
vn 0.369501 0.903400 -0.217572
vn 0.309011 0.929748 -0.200201
vn 0.298585 0.927838 -0.223524
vn 0.363511 0.882920 -0.297172
vn 0.368543 0.894513 -0.253028
vn 0.298585 0.927838 -0.223524
vn 0.286673 0.924733 -0.250376
vn 0.334161 0.928609 -0.161312
vn 0.357912 0.916469 -0.178842
vn 0.366231 0.910338 -0.192768
vn 0.348869 0.920247 -0.177303
vn 0.357912 0.916469 -0.178842
vn 0.315655 0.933105 -0.172269
vn 0.315542 0.931181 -0.182579
vn 0.366231 0.910338 -0.192768
vn 0.366231 0.910338 -0.192768
vn 0.315542 0.931181 -0.182579
vn 0.309011 0.929748 -0.200201
vn 0.369501 0.903400 -0.217572
vn 0.348869 0.920247 -0.177303
vn 0.366231 0.910338 -0.192768
vn 0.369501 0.903400 -0.217572
vn 0.362657 0.909226 -0.204422
vn 0.141969 0.981962 -0.124885
vn 0.133754 0.983548 -0.121420
vn 0.230619 0.960551 -0.155424
vn 0.236753 0.959724 -0.151255
vn 0.133754 0.983548 -0.121420
vn 0.120278 0.985698 -0.118035
vn 0.218177 0.962228 -0.162838
vn 0.230619 0.960551 -0.155424
vn 0.230619 0.960551 -0.155424
vn 0.218177 0.962228 -0.162838
vn 0.309011 0.929748 -0.200201
vn 0.315542 0.931181 -0.182579
vn 0.236753 0.959724 -0.151255
vn 0.230619 0.960551 -0.155424
vn 0.315542 0.931181 -0.182579
vn 0.315655 0.933105 -0.172269
vn 0.334161 0.928609 -0.161312
vn 0.264992 0.955736 -0.127862
vn 0.250670 0.959805 -0.126247
vn 0.314779 0.935270 -0.161818
vn 0.264992 0.955736 -0.127862
vn 0.199752 0.975040 -0.096931
vn 0.190964 0.976931 -0.095594
vn 0.250670 0.959805 -0.126247
vn 0.250670 0.959805 -0.126247
vn 0.190964 0.976931 -0.095594
vn 0.182287 0.976444 -0.115449
vn 0.230847 0.961954 -0.146131
vn 0.314779 0.935270 -0.161818
vn 0.250670 0.959805 -0.126247
vn 0.230847 0.961954 -0.146131
vn 0.284427 0.940916 -0.183791
vn 0.135370 0.988645 -0.065232
vn 0.132350 0.988725 -0.070050
vn 0.147600 0.986166 -0.075437
vn 0.152870 0.985470 -0.074029
vn 0.132350 0.988725 -0.070050
vn 0.134169 0.986543 -0.093440
vn 0.146810 0.984418 -0.096790
vn 0.147600 0.986166 -0.075437
vn 0.147600 0.986166 -0.075437
vn 0.146810 0.984418 -0.096790
vn 0.182287 0.976444 -0.115449
vn 0.190964 0.976931 -0.095594
vn 0.152870 0.985470 -0.074029
vn 0.147600 0.986166 -0.075437
vn 0.190964 0.976931 -0.095594
vn 0.199752 0.975040 -0.096931
vn 0.105227 0.980117 -0.168219
vn 0.112459 0.978608 -0.172279
vn 0.137575 0.981450 -0.133525
vn 0.127481 0.983242 -0.130323
vn 0.112459 0.978608 -0.172279
vn 0.128643 0.973179 -0.190721
vn 0.163644 0.974787 -0.151694
vn 0.137575 0.981450 -0.133525
vn 0.137575 0.981450 -0.133525
vn 0.163644 0.974787 -0.151694
vn 0.182287 0.976444 -0.115449
vn 0.146810 0.984418 -0.096790
vn 0.127481 0.983242 -0.130323
vn 0.137575 0.981450 -0.133525
vn 0.146810 0.984418 -0.096790
vn 0.134169 0.986543 -0.093440
vn 0.175593 0.948986 -0.261903
vn 0.239184 0.945293 -0.221837
vn 0.199033 0.962866 -0.182416
vn 0.150502 0.963493 -0.221430
vn 0.239184 0.945293 -0.221837
vn 0.284427 0.940916 -0.183791
vn 0.230847 0.961954 -0.146131
vn 0.199033 0.962866 -0.182416
vn 0.199033 0.962866 -0.182416
vn 0.230847 0.961954 -0.146131
vn 0.182287 0.976444 -0.115449
vn 0.163644 0.974787 -0.151694
vn 0.150502 0.963493 -0.221430
vn 0.199033 0.962866 -0.182416
vn 0.163644 0.974787 -0.151694
vn 0.128643 0.973179 -0.190721
vn -0.051402 0.998621 -0.010711
vn -0.063648 0.997903 -0.011749
vn -0.072893 0.997002 -0.025942
vn -0.061983 0.997761 -0.025112
vn -0.063648 0.997903 -0.011749
vn -0.100044 0.994845 -0.016549
vn -0.105515 0.993956 -0.030304
vn -0.072893 0.997002 -0.025942
vn -0.072893 0.997002 -0.025942
vn -0.105515 0.993956 -0.030304
vn -0.103995 0.992864 -0.058371
vn -0.077660 0.995618 -0.052087
vn -0.061983 0.997761 -0.025112
vn -0.072893 0.997002 -0.025942
vn -0.077660 0.995618 -0.052087
vn -0.068905 0.996373 -0.049923
vn -0.260731 0.963748 -0.056650
vn -0.238687 0.968616 -0.069360
vn -0.160546 0.986048 -0.043983
vn -0.164328 0.985939 -0.030340
vn -0.238687 0.968616 -0.069360
vn -0.201033 0.974225 -0.102333
vn -0.145681 0.986499 -0.074806
vn -0.160546 0.986048 -0.043983
vn -0.160546 0.986048 -0.043983
vn -0.145681 0.986499 -0.074806
vn -0.103995 0.992864 -0.058371
vn -0.105515 0.993956 -0.030304
vn -0.164328 0.985939 -0.030340
vn -0.160546 0.986048 -0.043983
vn -0.105515 0.993956 -0.030304
vn -0.100044 0.994845 -0.016549
vn -0.071219 0.975677 -0.207321
vn -0.056060 0.982435 -0.177987
vn -0.112108 0.986121 -0.122463
vn -0.144691 0.977781 -0.151686
vn -0.056060 0.982435 -0.177987
vn -0.043658 0.986767 -0.156156
vn -0.085877 0.990993 -0.102757
vn -0.112108 0.986121 -0.122463
vn -0.112108 0.986121 -0.122463
vn -0.085877 0.990993 -0.102757
vn -0.103995 0.992864 -0.058371
vn -0.145681 0.986499 -0.074806
vn -0.144691 0.977781 -0.151686
vn -0.112108 0.986121 -0.122463
vn -0.145681 0.986499 -0.074806
vn -0.201033 0.974225 -0.102333
vn -0.036766 0.990292 -0.134054
vn -0.063157 0.994144 -0.087692
vn -0.067957 0.993313 -0.093331
vn -0.034572 0.989000 -0.143816
vn -0.063157 0.994144 -0.087692
vn -0.068905 0.996373 -0.049923
vn -0.077660 0.995618 -0.052087
vn -0.067957 0.993313 -0.093331
vn -0.067957 0.993313 -0.093331
vn -0.077660 0.995618 -0.052087
vn -0.103995 0.992864 -0.058371
vn -0.085877 0.990993 -0.102757
vn -0.034572 0.989000 -0.143816
vn -0.067957 0.993313 -0.093331
vn -0.085877 0.990993 -0.102757
vn -0.043658 0.986767 -0.156156
vn -0.260731 0.963748 -0.056650
vn -0.334037 0.938638 -0.085897
vn -0.297177 0.950061 -0.095235
vn -0.238687 0.968616 -0.069360
vn -0.334037 0.938638 -0.085897
vn -0.315983 0.943459 -0.100197
vn -0.280897 0.953744 -0.107091
vn -0.297177 0.950061 -0.095235
vn -0.297177 0.950061 -0.095235
vn -0.280897 0.953744 -0.107091
vn -0.230548 0.963802 -0.133917
vn -0.242109 0.961926 -0.126812
vn -0.238687 0.968616 -0.069360
vn -0.297177 0.950061 -0.095235
vn -0.242109 0.961926 -0.126812
vn -0.201033 0.974225 -0.102333
vn -0.129462 0.987313 -0.091936
vn -0.115605 0.987829 -0.104061
vn -0.209161 0.971918 -0.107829
vn -0.233515 0.967233 -0.099659
vn -0.115605 0.987829 -0.104061
vn -0.097749 0.987491 -0.123719
vn -0.175785 0.975832 -0.129815
vn -0.209161 0.971918 -0.107829
vn -0.209161 0.971918 -0.107829
vn -0.175785 0.975832 -0.129815
vn -0.230548 0.963802 -0.133917
vn -0.280897 0.953744 -0.107091
vn -0.233515 0.967233 -0.099659
vn -0.209161 0.971918 -0.107829
vn -0.280897 0.953744 -0.107091
vn -0.315983 0.943459 -0.100197
vn -0.051916 0.981596 -0.183779
vn -0.071569 0.975567 -0.207720
vn -0.132911 0.977401 -0.164382
vn -0.076566 0.985590 -0.150834
vn -0.071569 0.975567 -0.207720
vn -0.083235 0.970692 -0.225454
vn -0.163542 0.970609 -0.176556
vn -0.132911 0.977401 -0.164382
vn -0.132911 0.977401 -0.164382
vn -0.163542 0.970609 -0.176556
vn -0.230548 0.963802 -0.133917
vn -0.175785 0.975832 -0.129815
vn -0.076566 0.985590 -0.150834
vn -0.132911 0.977401 -0.164382
vn -0.175785 0.975832 -0.129815
vn -0.097749 0.987491 -0.123719
vn -0.071219 0.975677 -0.207321
vn -0.144691 0.977781 -0.151686
vn -0.169011 0.970015 -0.174661
vn -0.083353 0.970032 -0.228233
vn -0.144691 0.977781 -0.151686
vn -0.201033 0.974225 -0.102333
vn -0.242109 0.961926 -0.126812
vn -0.169011 0.970015 -0.174661
vn -0.169011 0.970015 -0.174661
vn -0.242109 0.961926 -0.126812
vn -0.230548 0.963802 -0.133917
vn -0.163542 0.970609 -0.176556
vn -0.083353 0.970032 -0.228233
vn -0.169011 0.970015 -0.174661
vn -0.163542 0.970609 -0.176556
vn -0.083235 0.970692 -0.225454
vn -0.129462 0.987313 -0.091936
vn -0.049776 0.994782 -0.089057
vn -0.041675 0.993727 -0.103774
vn -0.115605 0.987829 -0.104061
vn -0.049776 0.994782 -0.089057
vn 0.007834 0.995551 -0.093897
vn 0.012679 0.994051 -0.108172
vn -0.041675 0.993727 -0.103774
vn -0.041675 0.993727 -0.103774
vn 0.012679 0.994051 -0.108172
vn 0.016059 0.991754 -0.127147
vn -0.032695 0.991837 -0.123249
vn -0.115605 0.987829 -0.104061
vn -0.041675 0.993727 -0.103774
vn -0.032695 0.991837 -0.123249
vn -0.097749 0.987491 -0.123719
vn 0.141969 0.981962 -0.124885
vn 0.142809 0.980878 -0.132226
vn 0.067759 0.990898 -0.116320
vn 0.065079 0.992336 -0.105040
vn 0.142809 0.980878 -0.132226
vn 0.136349 0.979401 -0.148940
vn 0.066390 0.988772 -0.133875
vn 0.067759 0.990898 -0.116320
vn 0.067759 0.990898 -0.116320
vn 0.066390 0.988772 -0.133875
vn 0.016059 0.991754 -0.127147
vn 0.012679 0.994051 -0.108172
vn 0.065079 0.992336 -0.105040
vn 0.067759 0.990898 -0.116320
vn 0.012679 0.994051 -0.108172
vn 0.007834 0.995551 -0.093897
vn 0.107518 0.972404 -0.207052
vn 0.064680 0.976898 -0.203684
vn 0.062221 0.985099 -0.160340
vn 0.123517 0.976826 -0.174799
vn 0.064680 0.976898 -0.203684
vn 0.025618 0.979675 -0.198951
vn 0.019579 0.987668 -0.155334
vn 0.062221 0.985099 -0.160340
vn 0.062221 0.985099 -0.160340
vn 0.019579 0.987668 -0.155334
vn 0.016059 0.991754 -0.127147
vn 0.066390 0.988772 -0.133875
vn 0.123517 0.976826 -0.174799
vn 0.062221 0.985099 -0.160340
vn 0.066390 0.988772 -0.133875
vn 0.136349 0.979401 -0.148940
vn -0.051916 0.981596 -0.183779
vn -0.076566 0.985590 -0.150834
vn -0.021791 0.988384 -0.150409
vn -0.012342 0.981289 -0.192144
vn -0.076566 0.985590 -0.150834
vn -0.097749 0.987491 -0.123719
vn -0.032695 0.991837 -0.123249
vn -0.021791 0.988384 -0.150409
vn -0.021791 0.988384 -0.150409
vn -0.032695 0.991837 -0.123249
vn 0.016059 0.991754 -0.127147
vn 0.019579 0.987668 -0.155334
vn -0.012342 0.981289 -0.192144
vn -0.021791 0.988384 -0.150409
vn 0.019579 0.987668 -0.155334
vn 0.025618 0.979675 -0.198951
vn 0.141969 0.981962 -0.124885
vn 0.236753 0.959724 -0.151255
vn 0.233733 0.959805 -0.155380
vn 0.142809 0.980878 -0.132226
vn 0.236753 0.959724 -0.151255
vn 0.315655 0.933105 -0.172269
vn 0.305846 0.935862 -0.174987
vn 0.233733 0.959805 -0.155380
vn 0.233733 0.959805 -0.155380
vn 0.305846 0.935862 -0.174987
vn 0.282568 0.938870 -0.196668
vn 0.220053 0.959877 -0.173817
vn 0.142809 0.980878 -0.132226
vn 0.233733 0.959805 -0.155380
vn 0.220053 0.959877 -0.173817
vn 0.136349 0.979401 -0.148940
vn 0.334161 0.928609 -0.161312
vn 0.314779 0.935270 -0.161818
vn 0.340589 0.922591 -0.181175
vn 0.357912 0.916469 -0.178842
vn 0.314779 0.935270 -0.161818
vn 0.284427 0.940916 -0.183791
vn 0.309244 0.928669 -0.204799
vn 0.340589 0.922591 -0.181175
vn 0.340589 0.922591 -0.181175
vn 0.309244 0.928669 -0.204799
vn 0.282568 0.938870 -0.196668
vn 0.305846 0.935862 -0.174987
vn 0.357912 0.916469 -0.178842
vn 0.340589 0.922591 -0.181175
vn 0.305846 0.935862 -0.174987
vn 0.315655 0.933105 -0.172269
vn 0.175593 0.948986 -0.261903
vn 0.188088 0.939207 -0.287252
vn 0.259796 0.934055 -0.245047
vn 0.239184 0.945293 -0.221837
vn 0.188088 0.939207 -0.287252
vn 0.173643 0.945588 -0.275158
vn 0.240521 0.941832 -0.234739
vn 0.259796 0.934055 -0.245047
vn 0.259796 0.934055 -0.245047
vn 0.240521 0.941832 -0.234739
vn 0.282568 0.938870 -0.196668
vn 0.309244 0.928669 -0.204799
vn 0.239184 0.945293 -0.221837
vn 0.259796 0.934055 -0.245047
vn 0.309244 0.928669 -0.204799
vn 0.284427 0.940916 -0.183791
vn 0.107518 0.972404 -0.207052
vn 0.123517 0.976826 -0.174799
vn 0.193876 0.959127 -0.206127
vn 0.143610 0.959189 -0.243584
vn 0.123517 0.976826 -0.174799
vn 0.136349 0.979401 -0.148940
vn 0.220053 0.959877 -0.173817
vn 0.193876 0.959127 -0.206127
vn 0.193876 0.959127 -0.206127
vn 0.220053 0.959877 -0.173817
vn 0.282568 0.938870 -0.196668
vn 0.240521 0.941832 -0.234739
vn 0.143610 0.959189 -0.243584
vn 0.193876 0.959127 -0.206127
vn 0.240521 0.941832 -0.234739
vn 0.173643 0.945588 -0.275158
s off
g polySurface10 BaslandV12_Ile2_BaslandV11_2_Mesh_Ile2_BaslandV11_Mesh_Ile2_Ile2
f 1/1/1 90/2/2 343/3/3 344/4/4
f 90/2/5 2/5/6 345/6/7 343/3/8
f 3/7/9 346/8/10 347/9/11 91/10/12
f 91/10/13 347/9/14 345/6/15 2/5/16
f 3/7/17 92/11/18 348/12/19 346/8/20
f 92/11/21 4/13/22 349/14/23 348/12/24
f 5/15/25 350/16/26 351/17/27 93/18/28
f 93/18/29 351/17/30 349/14/31 4/13/32
f 354/19/33 94/20/34 352/21/35 353/22/36
f 94/20/37 6/23/38 355/24/39 352/21/40
f 1/1/41 344/4/42 356/25/43 95/26/44
f 95/26/45 356/25/46 355/24/47 6/23/48
f 357/27/49 358/28/50 359/29/51 96/30/52
f 96/30/53 359/29/54 360/31/55 7/32/56
f 5/15/57 97/33/58 361/34/59 350/16/60
f 97/33/61 7/32/62 360/31/63 361/34/64
f 8/35/65 98/36/66 261/37/67 99/38/68
f 98/36/69 9/39/70 100/40/71 261/37/72
f 261/37/73 100/40/74 10/41/75 101/42/76
f 99/38/77 261/37/78 101/42/79 11/43/80
f 12/44/81 102/45/82 262/46/83 103/47/84
f 102/45/85 13/48/86 104/49/87 262/46/88
f 262/46/89 104/49/90 10/41/91 100/40/92
f 103/47/93 262/46/94 100/40/95 9/39/96
f 14/50/97 105/51/98 263/52/99 106/53/100
f 105/51/101 15/54/102 107/55/103 263/52/104
f 263/52/105 107/55/106 10/41/107 104/49/108
f 106/53/109 263/52/110 104/49/111 13/48/112
f 16/56/113 108/57/114 264/58/115 109/59/116
f 108/57/117 11/43/118 101/42/119 264/58/120
f 264/58/121 101/42/122 10/41/123 107/55/124
f 109/59/125 264/58/126 107/55/127 15/54/128
f 17/60/129 110/61/130 265/62/131 111/63/132
f 110/61/133 18/64/134 112/65/135 265/62/136
f 265/62/137 112/65/138 362/66/139 363/67/140
f 111/63/141 265/62/142 363/67/143 364/68/144
f 365/69/145 366/70/146 266/71/147 113/72/148
f 366/70/149 367/73/150 368/74/151 266/71/152
f 266/71/153 368/74/154 362/66/155 112/65/156
f 113/72/157 266/71/158 112/65/159 18/64/160
f 371/75/161 19/76/162 369/77/163 370/78/164
f 20/79/165 114/80/166 267/81/167 115/82/168
f 114/80/169 21/83/170 116/84/171 267/81/172
f 267/81/173 116/84/174 372/85/175 369/77/176
f 115/82/177 267/81/178 369/77/179 19/76/180
f 17/60/181 111/63/182 268/86/183 117/87/184
f 111/63/185 364/68/186 373/88/187 268/86/188
f 268/86/189 373/88/190 372/85/191 116/84/192
f 117/87/193 268/86/194 116/84/195 21/83/196
f 376/89/197 118/90/198 374/91/199 375/92/200
f 118/90/201 22/93/202 377/94/203 374/91/204
f 23/95/205 119/96/206 380/97/207 120/98/208
f 119/96/209 378/99/210 379/100/211 380/97/212
f 120/98/213 380/97/214 377/94/215 22/93/216
f 365/69/217 113/72/218 269/101/219 381/102/220
f 113/72/221 18/64/222 121/103/223 269/101/224
f 269/101/225 121/103/226 24/104/227 122/105/228
f 381/102/229 269/101/230 122/105/231 382/106/232
f 17/60/233 123/107/234 270/108/235 110/61/236
f 123/107/237 25/109/238 124/110/239 270/108/240
f 270/108/241 124/110/242 24/104/243 121/103/244
f 110/61/245 270/108/246 121/103/247 18/64/248
f 1/111/249 95/112/250 271/113/251 125/114/252
f 95/112/253 6/115/254 126/116/255 271/113/256
f 271/113/257 126/116/258 24/104/259 124/110/260
f 125/114/261 271/113/262 124/110/263 25/109/264
f 354/117/265 383/118/266 272/119/267 94/120/268
f 383/118/269 382/106/270 122/105/271 272/119/272
f 272/119/273 122/105/274 24/104/275 126/116/276
f 94/120/277 272/119/278 126/116/279 6/115/280
f 17/60/281 117/87/282 273/121/283 123/107/284
f 117/87/285 21/83/286 127/122/287 273/121/288
f 273/121/289 127/122/290 26/123/291 128/124/292
f 123/107/293 273/121/294 128/124/295 25/109/296
f 20/79/297 129/125/298 274/126/299 114/80/300
f 129/125/301 27/127/302 130/128/303 274/126/304
f 274/126/305 130/128/306 26/123/307 127/122/308
f 114/80/309 274/126/310 127/122/311 21/83/312
f 3/129/313 91/130/314 275/131/315 131/132/316
f 91/130/317 2/133/318 132/134/319 275/131/320
f 275/131/321 132/134/322 26/123/323 130/128/324
f 131/132/325 275/131/326 130/128/327 27/127/328
f 1/111/329 125/114/330 276/135/331 90/136/332
f 125/114/333 25/109/334 128/124/335 276/135/336
f 276/135/337 128/124/338 26/123/339 132/134/340
f 90/136/341 276/135/342 132/134/343 2/133/344
f 20/79/345 133/137/346 277/138/347 129/125/348
f 133/137/349 28/139/350 134/140/351 277/138/352
f 277/138/353 134/140/354 29/141/355 135/142/356
f 129/125/357 277/138/358 135/142/359 27/127/360
f 23/95/361 136/143/362 278/144/363 137/145/364
f 136/143/365 30/146/366 138/147/367 278/144/368
f 278/144/369 138/147/370 29/141/371 134/140/372
f 137/145/373 278/144/374 134/140/375 28/139/376
f 5/148/377 93/149/378 279/150/379 139/151/380
f 93/149/381 4/152/382 140/153/383 279/150/384
f 279/150/385 140/153/386 29/141/387 138/147/388
f 139/151/389 279/150/390 138/147/391 30/146/392
f 3/129/393 131/132/394 280/154/395 92/155/396
f 131/132/397 27/127/398 135/142/399 280/154/400
f 280/154/401 135/142/402 29/141/403 140/153/404
f 92/155/405 280/154/406 140/153/407 4/152/408
f 23/95/409 120/98/410 281/156/411 136/143/412
f 120/98/413 22/93/414 141/157/415 281/156/416
f 281/156/417 141/157/418 31/158/419 142/159/420
f 136/143/421 281/156/422 142/159/423 30/146/424
f 376/89/425 384/160/426 282/161/427 118/90/428
f 384/160/429 385/162/430 143/163/431 282/161/432
f 282/161/433 143/163/434 31/158/435 141/157/436
f 118/90/437 282/161/438 141/157/439 22/93/440
f 357/164/441 96/165/442 283/166/443 386/167/444
f 96/165/445 7/168/446 144/169/447 283/166/448
f 283/166/449 144/169/450 31/158/451 143/163/452
f 386/167/453 283/166/454 143/163/455 385/162/456
f 5/148/457 139/151/458 284/170/459 97/171/460
f 139/151/461 30/146/462 142/159/463 284/170/464
f 284/170/465 142/159/466 31/158/467 144/169/468
f 97/171/469 284/170/470 144/169/471 7/168/472
f 32/172/473 145/173/474 285/174/475 146/175/476
f 145/173/477 33/176/478 147/177/479 285/174/480
f 285/174/481 147/177/482 34/178/483 148/179/484
f 146/175/485 285/174/486 148/179/487 35/180/488
f 36/181/489 149/182/490 286/183/491 150/184/492
f 149/182/493 37/185/494 151/186/495 286/183/496
f 286/183/497 151/186/498 34/178/499 147/177/500
f 150/184/501 286/183/502 147/177/503 33/176/504
f 8/35/505 99/38/506 287/187/507 152/188/508
f 99/38/509 11/43/510 153/189/511 287/187/512
f 287/187/513 153/189/514 34/178/515 151/186/516
f 152/188/517 287/187/518 151/186/519 37/185/520
f 16/56/521 154/190/522 288/191/523 108/57/524
f 154/190/525 35/180/526 148/179/527 288/191/528
f 288/191/529 148/179/530 34/178/531 153/189/532
f 108/57/533 288/191/534 153/189/535 11/43/536
f 387/192/537 388/193/538 389/194/539 155/195/540
f 389/194/541 390/196/542 38/197/543 156/198/544
f 155/195/545 389/194/546 156/198/547 39/199/548
f 392/200/549 40/201/550 157/202/551 391/203/552
f 391/203/553 157/202/554 38/197/555 390/196/556
f 41/204/557 158/205/558 289/206/559 159/207/560
f 158/205/561 42/208/562 160/209/563 289/206/564
f 289/206/565 160/209/566 38/197/567 157/202/568
f 159/207/569 289/206/570 157/202/571 40/201/572
f 43/210/573 161/211/574 290/212/575 162/213/576
f 161/211/577 39/199/578 156/198/579 290/212/580
f 290/212/581 156/198/582 38/197/583 160/209/584
f 162/213/585 290/212/586 160/209/587 42/208/588
f 44/214/589 163/215/590 291/216/591 164/217/592
f 163/215/593 45/218/594 393/219/595 291/216/596
f 291/216/597 393/219/598 394/220/599 395/221/600
f 164/217/601 291/216/602 395/221/603 396/222/604
f 46/223/605 397/224/606 398/225/607 165/226/608
f 165/226/609 398/225/610 393/219/611 45/218/612
f 399/227/613 400/228/614 47/229/615 166/230/616
f 401/231/617 399/227/618 166/230/619 396/222/620
f 23/95/621 167/232/622 292/233/623 119/96/624
f 167/232/625 48/234/626 168/235/627 292/233/628
f 292/233/629 168/235/630 47/229/631 400/228/632
f 119/96/633 292/233/634 400/228/635 378/99/636
f 49/236/637 169/237/638 293/238/639 170/239/640
f 169/237/641 50/240/642 171/241/643 293/238/644
f 293/238/645 171/241/646 47/229/647 168/235/648
f 170/239/649 293/238/650 168/235/651 48/234/652
f 44/214/653 164/217/654 294/242/655 172/243/656
f 164/217/657 396/222/658 166/230/659 294/242/660
f 294/242/661 166/230/662 47/229/663 171/241/664
f 172/243/665 294/242/666 171/241/667 50/240/668
f 23/95/669 137/145/670 295/244/671 167/232/672
f 137/145/673 28/139/674 173/245/675 295/244/676
f 295/244/677 173/245/678 51/246/679 174/247/680
f 167/232/681 295/244/682 174/247/683 48/234/684
f 20/79/685 175/248/686 296/249/687 133/137/688
f 175/248/689 52/250/690 176/251/691 296/249/692
f 296/249/693 176/251/694 51/246/695 173/245/696
f 133/137/697 296/249/698 173/245/699 28/139/700
f 53/252/701 177/253/702 297/254/703 178/255/704
f 177/253/705 54/256/706 179/257/707 297/254/708
f 297/254/709 179/257/710 51/246/711 176/251/712
f 178/255/713 297/254/714 176/251/715 52/250/716
f 49/236/717 170/239/718 298/258/719 180/259/720
f 170/239/721 48/234/722 174/247/723 298/258/724
f 298/258/725 174/247/726 51/246/727 179/257/728
f 180/259/729 298/258/730 179/257/731 54/256/732
f 20/79/733 115/82/734 299/260/735 175/248/736
f 115/82/737 19/76/738 181/261/739 299/260/740
f 299/260/741 181/261/742 55/262/743 182/263/744
f 175/248/745 299/260/746 182/263/747 52/250/748
f 387/192/749 155/195/750 300/264/751 371/75/752
f 155/195/753 39/199/754 183/265/755 300/264/756
f 300/264/757 183/265/758 55/262/759 181/261/760
f 371/75/761 300/264/762 181/261/763 19/76/764
f 43/210/765 184/266/766 301/267/767 161/211/768
f 184/266/769 56/268/770 185/269/771 301/267/772
f 301/267/773 185/269/774 55/262/775 183/265/776
f 161/211/777 301/267/778 183/265/779 39/199/780
f 53/252/781 178/255/782 302/270/783 186/271/784
f 178/255/785 52/250/786 182/263/787 302/270/788
f 302/270/789 182/263/790 55/262/791 185/269/792
f 186/271/793 302/270/794 185/269/795 56/268/796
f 43/210/797 162/213/798 303/272/799 187/273/800
f 162/213/801 42/208/802 188/274/803 303/272/804
f 303/272/805 188/274/806 57/275/807 189/276/808
f 187/273/809 303/272/810 189/276/811 58/277/812
f 41/204/813 190/278/814 304/279/815 158/205/816
f 190/278/817 59/280/818 191/281/819 304/279/820
f 304/279/821 191/281/822 57/275/823 188/274/824
f 158/205/825 304/279/826 188/274/827 42/208/828
f 60/282/829 192/283/830 305/284/831 193/285/832
f 192/283/833 61/286/834 194/287/835 305/284/836
f 305/284/837 194/287/838 57/275/839 191/281/840
f 193/285/841 305/284/842 191/281/843 59/280/844
f 62/288/845 195/289/846 306/290/847 196/291/848
f 195/289/849 58/277/850 189/276/851 306/290/852
f 306/290/853 189/276/854 57/275/855 194/287/856
f 196/291/857 306/290/858 194/287/859 61/286/860
f 46/223/861 165/226/862 307/292/863 197/293/864
f 165/226/865 45/218/866 198/294/867 307/292/868
f 307/292/869 198/294/870 63/295/871 199/296/872
f 197/293/873 307/292/874 199/296/875 64/297/876
f 44/214/877 200/298/878 308/299/879 163/215/880
f 200/298/881 65/300/882 201/301/883 308/299/884
f 308/299/885 201/301/886 63/295/887 198/294/888
f 163/215/889 308/299/890 198/294/891 45/218/892
f 66/302/893 202/303/894 309/304/895 203/305/896
f 202/303/897 67/306/898 204/307/899 309/304/900
f 309/304/901 204/307/902 63/295/903 201/301/904
f 203/305/905 309/304/906 201/301/907 65/300/908
f 68/308/909 205/309/910 310/310/911 206/311/912
f 205/309/913 64/297/914 199/296/915 310/310/916
f 310/310/917 199/296/918 63/295/919 204/307/920
f 206/311/921 310/310/922 204/307/923 67/306/924
f 44/214/925 172/243/926 311/312/927 200/298/928
f 172/243/929 50/240/930 207/313/931 311/312/932
f 311/312/933 207/313/934 69/314/935 208/315/936
f 200/298/937 311/312/938 208/315/939 65/300/940
f 49/236/941 209/316/942 312/317/943 169/237/944
f 209/316/945 70/318/946 210/319/947 312/317/948
f 312/317/949 210/319/950 69/314/951 207/313/952
f 169/237/953 312/317/954 207/313/955 50/240/956
f 71/320/957 211/321/958 313/322/959 212/323/960
f 211/321/961 72/324/962 213/325/963 313/322/964
f 313/322/965 213/325/966 69/314/967 210/319/968
f 212/323/969 313/322/970 210/319/971 70/318/972
f 66/302/973 203/305/974 314/326/975 214/327/976
f 203/305/977 65/300/978 208/315/979 314/326/980
f 314/326/981 208/315/982 69/314/983 213/325/984
f 214/327/985 314/326/986 213/325/987 72/324/988
f 49/236/989 180/259/990 315/328/991 209/316/992
f 180/259/993 54/256/994 215/329/995 315/328/996
f 315/328/997 215/329/998 73/330/999 216/331/1000
f 209/316/1001 315/328/1002 216/331/1003 70/318/1004
f 53/252/1005 217/332/1006 316/333/1007 177/253/1008
f 217/332/1009 74/334/1010 218/335/1011 316/333/1012
f 316/333/1013 218/335/1014 73/330/1015 215/329/1016
f 177/253/1017 316/333/1018 215/329/1019 54/256/1020
f 75/336/1021 219/337/1022 317/338/1023 220/339/1024
f 219/337/1025 76/340/1026 221/341/1027 317/338/1028
f 317/338/1029 221/341/1030 73/330/1031 218/335/1032
f 220/339/1033 317/338/1034 218/335/1035 74/334/1036
f 71/320/1037 212/323/1038 318/342/1039 222/343/1040
f 212/323/1041 70/318/1042 216/331/1043 318/342/1044
f 318/342/1045 216/331/1046 73/330/1047 221/341/1048
f 222/343/1049 318/342/1050 221/341/1051 76/340/1052
f 53/252/1053 186/271/1054 319/344/1055 217/332/1056
f 186/271/1057 56/268/1058 223/345/1059 319/344/1060
f 319/344/1061 223/345/1062 77/346/1063 224/347/1064
f 217/332/1065 319/344/1066 224/347/1067 74/334/1068
f 43/210/1069 187/273/1070 320/348/1071 184/266/1072
f 187/273/1073 58/277/1074 225/349/1075 320/348/1076
f 320/348/1077 225/349/1078 77/346/1079 223/345/1080
f 184/266/1081 320/348/1082 223/345/1083 56/268/1084
f 62/288/1085 226/350/1086 321/351/1087 195/289/1088
f 226/350/1089 78/352/1090 227/353/1091 321/351/1092
f 321/351/1093 227/353/1094 77/346/1095 225/349/1096
f 195/289/1097 321/351/1098 225/349/1099 58/277/1100
f 75/336/1101 220/339/1102 322/354/1103 228/355/1104
f 220/339/1105 74/334/1106 224/347/1107 322/354/1108
f 322/354/1109 224/347/1110 77/346/1111 227/353/1112
f 228/355/1113 322/354/1114 227/353/1115 78/352/1116
f 62/288/1117 196/291/1118 323/356/1119 229/357/1120
f 196/291/1121 61/286/1122 230/358/1123 323/356/1124
f 323/356/1125 230/358/1126 79/359/1127 231/360/1128
f 229/357/1129 323/356/1130 231/360/1131 80/361/1132
f 60/282/1133 232/362/1134 324/363/1135 192/283/1136
f 232/362/1137 81/364/1138 233/365/1139 324/363/1140
f 324/363/1141 233/365/1142 79/359/1143 230/358/1144
f 192/283/1145 324/363/1146 230/358/1147 61/286/1148
f 12/44/1149 103/47/1150 325/366/1151 234/367/1152
f 103/47/1153 9/39/1154 235/368/1155 325/366/1156
f 325/366/1157 235/368/1158 79/359/1159 233/365/1160
f 234/367/1161 325/366/1162 233/365/1163 81/364/1164
f 8/35/1165 236/369/1166 326/370/1167 98/36/1168
f 236/369/1169 80/361/1170 231/360/1171 326/370/1172
f 326/370/1173 231/360/1174 79/359/1175 235/368/1176
f 98/36/1177 326/370/1178 235/368/1179 9/39/1180
f 68/308/1181 206/311/1182 327/371/1183 237/372/1184
f 206/311/1185 67/306/1186 238/373/1187 327/371/1188
f 327/371/1189 238/373/1190 82/374/1191 239/375/1192
f 237/372/1193 327/371/1194 239/375/1195 83/376/1196
f 66/302/1197 240/377/1198 328/378/1199 202/303/1200
f 240/377/1201 84/379/1202 241/380/1203 328/378/1204
f 328/378/1205 241/380/1206 82/374/1207 238/373/1208
f 202/303/1209 328/378/1210 238/373/1211 67/306/1212
f 16/56/1213 109/59/1214 329/381/1215 242/382/1216
f 109/59/1217 15/54/1218 243/383/1219 329/381/1220
f 329/381/1221 243/383/1222 82/374/1223 241/380/1224
f 242/382/1225 329/381/1226 241/380/1227 84/379/1228
f 14/50/1229 244/384/1230 330/385/1231 105/51/1232
f 244/384/1233 83/376/1234 239/375/1235 330/385/1236
f 330/385/1237 239/375/1238 82/374/1239 243/383/1240
f 105/51/1241 330/385/1242 243/383/1243 15/54/1244
f 66/302/1245 214/327/1246 331/386/1247 240/377/1248
f 214/327/1249 72/324/1250 245/387/1251 331/386/1252
f 331/386/1253 245/387/1254 85/388/1255 246/389/1256
f 240/377/1257 331/386/1258 246/389/1259 84/379/1260
f 71/320/1261 247/390/1262 332/391/1263 211/321/1264
f 247/390/1265 86/392/1266 248/393/1267 332/391/1268
f 332/391/1269 248/393/1270 85/388/1271 245/387/1272
f 211/321/1273 332/391/1274 245/387/1275 72/324/1276
f 32/172/1277 146/175/1278 333/394/1279 249/395/1280
f 146/175/1281 35/180/1282 250/396/1283 333/394/1284
f 333/394/1285 250/396/1286 85/388/1287 248/393/1288
f 249/395/1289 333/394/1290 248/393/1291 86/392/1292
f 16/56/1293 242/382/1294 334/397/1295 154/190/1296
f 242/382/1297 84/379/1298 246/389/1299 334/397/1300
f 334/397/1301 246/389/1302 85/388/1303 250/396/1304
f 154/190/1305 334/397/1306 250/396/1307 35/180/1308
f 71/320/1309 222/343/1310 335/398/1311 247/390/1312
f 222/343/1313 76/340/1314 251/399/1315 335/398/1316
f 335/398/1317 251/399/1318 87/400/1319 252/401/1320
f 247/390/1321 335/398/1322 252/401/1323 86/392/1324
f 75/336/1325 253/402/1326 336/403/1327 219/337/1328
f 253/402/1329 88/404/1330 254/405/1331 336/403/1332
f 336/403/1333 254/405/1334 87/400/1335 251/399/1336
f 219/337/1337 336/403/1338 251/399/1339 76/340/1340
f 36/181/1341 150/184/1342 337/406/1343 255/407/1344
f 150/184/1345 33/176/1346 256/408/1347 337/406/1348
f 337/406/1349 256/408/1350 87/400/1351 254/405/1352
f 255/407/1353 337/406/1354 254/405/1355 88/404/1356
f 32/172/1357 249/395/1358 338/409/1359 145/173/1360
f 249/395/1361 86/392/1362 252/401/1363 338/409/1364
f 338/409/1365 252/401/1366 87/400/1367 256/408/1368
f 145/173/1369 338/409/1370 256/408/1371 33/176/1372
f 75/336/1373 228/355/1374 339/410/1375 253/402/1376
f 228/355/1377 78/352/1378 257/411/1379 339/410/1380
f 339/410/1381 257/411/1382 89/412/1383 258/413/1384
f 253/402/1385 339/410/1386 258/413/1387 88/404/1388
f 62/288/1389 229/357/1390 340/414/1391 226/350/1392
f 229/357/1393 80/361/1394 259/415/1395 340/414/1396
f 340/414/1397 259/415/1398 89/412/1399 257/411/1400
f 226/350/1401 340/414/1402 257/411/1403 78/352/1404
f 8/35/1405 152/188/1406 341/416/1407 236/369/1408
f 152/188/1409 37/185/1410 260/417/1411 341/416/1412
f 341/416/1413 260/417/1414 89/412/1415 259/415/1416
f 236/369/1417 341/416/1418 259/415/1419 80/361/1420
f 36/181/1421 255/407/1422 342/418/1423 149/182/1424
f 255/407/1425 88/404/1426 258/413/1427 342/418/1428
f 342/418/1429 258/413/1430 89/412/1431 260/417/1432
f 149/182/1433 342/418/1434 260/417/1435 37/185/1436
