# This file uses centimeters as units for non-parametric coordinates.

mtllib telecommande.mtl
g default
v 25.822039 49.203589 -0.536376
v 25.221525 48.589127 -1.053524
v 24.717936 47.748487 -1.266461
v 24.387940 46.809645 -1.142769
v 24.281775 45.915532 -0.701280
v 24.415604 45.202266 -0.009204
v 24.769053 44.778442 0.828094
v 25.288313 44.708580 1.683143
v 25.894331 45.003315 2.425772
v 26.494844 45.617774 2.942920
v 26.998434 46.458419 3.155856
v 27.328429 47.397257 3.032166
v 27.434593 48.291369 2.590676
v 27.300764 49.004631 1.898601
v 26.947315 49.428458 1.061302
v 26.428055 49.498320 0.206253
v 23.458487 50.234565 0.983213
v 22.857973 49.620103 0.466065
v 22.354384 48.779463 0.253127
v 22.024388 47.840621 0.376819
v 21.918223 46.946508 0.818309
v 22.052052 46.233241 1.510385
v 22.405501 45.809418 2.347683
v 22.924761 45.739556 3.202732
v 23.530779 46.034291 3.945361
v 24.131292 46.648750 4.462509
v 24.634882 47.489395 4.675445
v 24.964877 48.428233 4.551754
v 25.071041 49.322345 4.110264
v 24.937212 50.035607 3.418190
v 24.583763 50.459434 2.580891
v 24.064503 50.529295 1.725841
v 23.333150 50.193860 1.132628
v 22.760113 49.607518 0.639142
v 22.279567 48.805341 0.435948
v 21.964670 47.909457 0.553979
v 21.863363 47.056255 0.975268
v 21.991068 46.375628 1.635677
v 22.328345 45.971194 2.434664
v 22.823845 45.904528 3.250590
v 23.402134 46.185779 3.959237
v 23.975170 46.772121 4.452724
v 24.455717 47.574302 4.655916
v 24.770613 48.470182 4.537885
v 24.871921 49.323387 4.116596
v 24.744214 50.004011 3.456188
v 24.406937 50.408440 2.657202
v 23.911437 50.475110 1.841275
v 23.291965 49.994539 1.315926
v 22.781530 49.472251 0.876350
v 22.353480 48.757704 0.695355
v 22.072985 47.959694 0.800492
v 21.982745 47.199699 1.175757
v 22.096500 46.593430 1.764019
v 22.396930 46.233178 2.475720
v 22.838299 46.173793 3.202511
v 23.353412 46.424317 3.833743
v 23.863848 46.946608 4.273317
v 24.291896 47.661148 4.454314
v 24.572393 48.459162 4.349176
v 24.662632 49.219157 3.973910
v 24.548878 49.825429 3.385648
v 24.248447 50.185677 2.673947
v 23.807077 50.245061 1.947157
v 25.858184 47.103450 0.944698
v 23.322689 48.209427 2.574834
vt 0.862837 0.675260
vt 0.908757 0.734169
vt 0.738461 0.867032
vt 0.694477 0.811796
vt 0.953127 0.793660
vt 0.781091 0.923889
vt 0.996687 0.853162
vt 0.820821 0.983420
vt 0.155328 0.013343
vt 0.214960 0.056737
vt 0.084920 0.229327
vt 0.025312 0.189725
vt 0.274636 0.100887
vt 0.141764 0.271945
vt 0.333170 0.147243
vt 0.197550 0.315262
vt 0.391399 0.194285
vt 0.251801 0.360215
vt 0.447979 0.243435
vt 0.305497 0.405711
vt 0.504128 0.293171
vt 0.357531 0.453012
vt 0.558439 0.344779
vt 0.409128 0.500907
vt 0.612270 0.396908
vt 0.459258 0.550311
vt 0.665028 0.450138
vt 0.508433 0.600648
vt 0.715981 0.505186
vt 0.557020 0.651487
vt 0.766408 0.560699
vt 0.603746 0.704057
vt 0.815566 0.617242
vt 0.649355 0.757671
vt 0.727185 0.875622
vt 0.683354 0.820814
vt 0.769207 0.931891
vt 0.807553 0.989711
vt 0.077020 0.241133
vt 0.019057 0.203007
vt 0.133163 0.283352
vt 0.188504 0.326573
vt 0.242718 0.371074
vt 0.296032 0.416488
vt 0.347849 0.463543
vt 0.399189 0.511250
vt 0.449008 0.560532
vt 0.498124 0.610568
vt 0.546561 0.661087
vt 0.592952 0.713473
vt 0.638290 0.766985
vt 0.386211 0.625831
vt 0.424192 0.685267
vt 0.405433 0.692596
vt 0.371671 0.639784
vt 0.436556 0.754709
vt 0.416409 0.754309
vt 0.421404 0.823606
vt 0.402942 0.815528
vt 0.381036 0.881466
vt 0.367071 0.866936
vt 0.321590 0.919479
vt 0.314251 0.900696
vt 0.252121 0.931829
vt 0.252533 0.911681
vt 0.183224 0.916658
vt 0.191307 0.898210
vt 0.125369 0.876288
vt 0.139902 0.862327
vt 0.087359 0.816842
vt 0.106143 0.809505
vt 0.075011 0.747369
vt 0.095159 0.747787
vt 0.090187 0.678467
vt 0.108641 0.686565
vt 0.130572 0.620622
vt 0.144523 0.635163
vt 0.190014 0.582638
vt 0.197340 0.601400
vt 0.259470 0.570274
vt 0.259057 0.590434
vt 0.328369 0.585451
vt 0.320273 0.603906
vt 0.255785 0.751057
vt 0.895604 0.082012
vt 0.936678 0.143484
vt 0.951102 0.215995
vt 0.761621 0.215995
vt 0.761621 0.026514
vt 0.834132 0.040937
vt 0.627638 0.082012
vt 0.689110 0.040938
vt 0.572140 0.215995
vt 0.586564 0.143484
vt 0.627638 0.349978
vt 0.586563 0.288506
vt 0.761621 0.405476
vt 0.689110 0.391052
vt 0.895604 0.349978
vt 0.834132 0.391052
vt 0.936678 0.288506
vn -0.014064 0.817139 -0.576269
vn -0.247717 0.578060 -0.777485
vn -0.274345 0.589405 -0.759827
vn -0.040826 0.828347 -0.558726
vn -0.247717 0.578060 -0.777485
vn -0.443657 0.250976 -0.860337
vn -0.470173 0.262509 -0.842631
vn -0.274345 0.589405 -0.759827
vn -0.443657 0.250976 -0.860337
vn -0.572055 -0.114317 -0.812209
vn -0.598497 -0.102574 -0.794531
vn -0.470173 0.262509 -0.842631
vn -0.572055 -0.114317 -0.812209
vn -0.613363 -0.462205 -0.640432
vn -0.639781 -0.450262 -0.622852
vn -0.598497 -0.102574 -0.794531
vn -0.613363 -0.462205 -0.640432
vn -0.561292 -0.739728 -0.371153
vn -0.587740 -0.727625 -0.353728
vn -0.639781 -0.450262 -0.622852
vn -0.561292 -0.739728 -0.371153
vn -0.423768 -0.904634 -0.045369
vn -0.450295 -0.892437 -0.028131
vn -0.587740 -0.727625 -0.353728
vn -0.423768 -0.904634 -0.045369
vn -0.221730 -0.931817 0.287322
vn -0.248373 -0.919604 0.304368
vn -0.450295 -0.892437 -0.028131
vn -0.221730 -0.931817 0.287322
vn 0.014064 -0.817139 0.576269
vn -0.012715 -0.804992 0.593149
vn -0.248373 -0.919604 0.304368
vn 0.014064 -0.817139 0.576269
vn 0.247717 -0.578059 0.777485
vn 0.220804 -0.566050 0.794250
vn -0.012715 -0.804992 0.593149
vn 0.247717 -0.578059 0.777485
vn 0.443657 -0.250976 0.860337
vn 0.416632 -0.239154 0.877054
vn 0.220804 -0.566050 0.794250
vn 0.443657 -0.250976 0.860337
vn 0.572055 0.114317 0.812209
vn 0.544956 0.125929 0.828954
vn 0.416632 -0.239154 0.877054
vn 0.572055 0.114317 0.812209
vn 0.613363 0.462206 0.640431
vn 0.586239 0.473617 0.657275
vn 0.544956 0.125929 0.828954
vn 0.613363 0.462206 0.640431
vn 0.561291 0.739728 0.371153
vn 0.534198 0.750980 0.388151
vn 0.586239 0.473617 0.657275
vn 0.561291 0.739728 0.371153
vn 0.423768 0.904634 0.045369
vn 0.396754 0.915791 0.062555
vn 0.534198 0.750980 0.388151
vn 0.423768 0.904634 0.045369
vn 0.221731 0.931817 -0.287320
vn 0.194833 0.942959 -0.269943
vn 0.396754 0.915791 0.062555
vn 0.221731 0.931817 -0.287320
vn -0.014064 0.817139 -0.576269
vn -0.040826 0.828347 -0.558726
vn 0.194833 0.942959 -0.269943
vn -0.040826 0.828347 -0.558726
vn -0.274345 0.589405 -0.759827
vn -0.799097 0.601112 0.010419
vn -0.673549 0.729575 0.118538
vn -0.274345 0.589405 -0.759827
vn -0.470173 0.262509 -0.842631
vn -0.904381 0.425361 -0.034098
vn -0.799097 0.601112 0.010419
vn -0.470173 0.262509 -0.842631
vn -0.598497 -0.102574 -0.794531
vn -0.973373 0.229079 -0.008238
vn -0.904381 0.425361 -0.034098
vn -0.598497 -0.102574 -0.794531
vn -0.639781 -0.450262 -0.622852
vn -0.995569 0.042148 0.084062
vn -0.973373 0.229079 -0.008238
vn -0.639781 -0.450262 -0.622852
vn -0.587740 -0.727625 -0.353728
vn -0.967590 -0.106970 0.228753
vn -0.995569 0.042148 0.084062
vn -0.587740 -0.727625 -0.353728
vn -0.450295 -0.892437 -0.028131
vn -0.893694 -0.195579 0.403806
vn -0.967590 -0.106970 0.228753
vn -0.450295 -0.892437 -0.028131
vn -0.248373 -0.919604 0.304368
vn -0.785133 -0.210187 0.582570
vn -0.893694 -0.195579 0.403806
vn -0.248373 -0.919604 0.304368
vn -0.012715 -0.804992 0.593149
vn -0.658435 -0.148568 0.737828
vn -0.785133 -0.210187 0.582570
vn -0.012715 -0.804992 0.593149
vn 0.220804 -0.566050 0.794250
vn -0.532887 -0.020104 0.845948
vn -0.658435 -0.148568 0.737828
vn 0.220804 -0.566050 0.794250
vn 0.416632 -0.239154 0.877054
vn -0.427602 0.155648 0.890466
vn -0.532887 -0.020104 0.845948
vn 0.416632 -0.239154 0.877054
vn 0.544956 0.125929 0.828954
vn -0.358612 0.351930 0.864606
vn -0.427602 0.155648 0.890466
vn 0.544956 0.125929 0.828954
vn 0.586239 0.473617 0.657275
vn -0.336415 0.538862 0.772304
vn -0.358612 0.351930 0.864606
vn 0.586239 0.473617 0.657275
vn 0.534198 0.750980 0.388151
vn -0.364394 0.687981 0.627613
vn -0.336415 0.538862 0.772304
vn 0.534198 0.750980 0.388151
vn 0.396754 0.915791 0.062555
vn -0.438290 0.776588 0.452563
vn -0.364394 0.687981 0.627613
vn 0.396754 0.915791 0.062555
vn 0.194833 0.942959 -0.269943
vn -0.546851 0.791195 0.273798
vn -0.438290 0.776588 0.452563
vn 0.194833 0.942959 -0.269943
vn -0.040826 0.828347 -0.558726
vn -0.673549 0.729575 0.118538
vn -0.546851 0.791195 0.273798
vn -0.673549 0.729575 0.118538
vn -0.799097 0.601112 0.010419
vn -0.796838 0.361859 0.483847
vn -0.789738 0.369123 0.489961
vn -0.799097 0.601112 0.010419
vn -0.904381 0.425361 -0.034098
vn -0.802791 0.351921 0.481329
vn -0.796838 0.361859 0.483847
vn -0.904381 0.425361 -0.034098
vn -0.973373 0.229079 -0.008238
vn -0.806692 0.340823 0.482792
vn -0.802791 0.351921 0.481329
vn -0.973373 0.229079 -0.008238
vn -0.995569 0.042148 0.084062
vn -0.807947 0.330253 0.488012
vn -0.806692 0.340823 0.482792
vn -0.995569 0.042148 0.084062
vn -0.967590 -0.106970 0.228753
vn -0.806364 0.321822 0.496193
vn -0.807947 0.330253 0.488012
vn -0.967590 -0.106970 0.228753
vn -0.893694 -0.195579 0.403806
vn -0.802187 0.316811 0.506090
vn -0.806364 0.321822 0.496193
vn -0.893694 -0.195579 0.403806
vn -0.785133 -0.210187 0.582570
vn -0.818516 0.143271 0.556332
vn -0.802187 0.316811 0.506090
vn -0.785133 -0.210187 0.582570
vn -0.658435 -0.148568 0.737828
vn -0.788884 0.319469 0.524977
vn -0.818516 0.143271 0.556332
vn -0.658435 -0.148568 0.737828
vn -0.532887 -0.020104 0.845948
vn -0.775406 0.313268 0.548278
vn -0.788884 0.319469 0.524977
vn -0.532887 -0.020104 0.845948
vn -0.427602 0.155648 0.890466
vn -0.775833 0.336670 0.533607
vn -0.775406 0.313268 0.548278
vn -0.427602 0.155648 0.890466
vn -0.358612 0.351930 0.864606
vn -0.771931 0.347769 0.532145
vn -0.775833 0.336670 0.533607
vn -0.358612 0.351930 0.864606
vn -0.336415 0.538862 0.772304
vn -0.770676 0.358339 0.526927
vn -0.771931 0.347769 0.532145
vn -0.336415 0.538862 0.772304
vn -0.364394 0.687981 0.627613
vn -0.772258 0.366771 0.518746
vn -0.770676 0.358339 0.526927
vn -0.364394 0.687981 0.627613
vn -0.438290 0.776588 0.452563
vn -0.776436 0.371781 0.508847
vn -0.772258 0.366771 0.518746
vn -0.438290 0.776588 0.452563
vn -0.546851 0.791195 0.273798
vn -0.782575 0.372606 0.498739
vn -0.776436 0.371781 0.508847
vn -0.546851 0.791195 0.273798
vn -0.673549 0.729575 0.118538
vn -0.789738 0.369123 0.489961
vn -0.782575 0.372606 0.498739
vn -0.775833 0.336670 0.533607
vn -0.771931 0.347769 0.532145
vn -0.789676 0.344455 0.507703
vn -0.789676 0.344455 0.507703
vn -0.788884 0.319469 0.524977
vn -0.775406 0.313268 0.548278
vn -0.789676 0.344455 0.507703
vn -0.789676 0.344455 0.507703
vn -0.806364 0.321822 0.496193
vn -0.802187 0.316811 0.506090
vn -0.789676 0.344455 0.507703
vn -0.789676 0.344455 0.507703
vn -0.806692 0.340823 0.482792
vn -0.807947 0.330253 0.488012
vn -0.806364 0.321822 0.496193
vn -0.789676 0.344455 0.507703
vn -0.796838 0.361859 0.483847
vn -0.802791 0.351921 0.481329
vn -0.806692 0.340823 0.482792
vn -0.789676 0.344455 0.507703
vn -0.782575 0.372606 0.498739
vn -0.789738 0.369123 0.489961
vn -0.796838 0.361859 0.483847
vn -0.789676 0.344455 0.507703
vn -0.772258 0.366771 0.518746
vn -0.776436 0.371781 0.508847
vn -0.782575 0.372606 0.498739
vn -0.789676 0.344455 0.507703
vn -0.771931 0.347769 0.532145
vn -0.770676 0.358339 0.526927
vn -0.772258 0.366771 0.518746
vn -0.789676 0.344455 0.507703
vn 0.789676 -0.344455 -0.507703
vn 0.789676 -0.344455 -0.507703
vn 0.789676 -0.344455 -0.507703
vn 0.789676 -0.344455 -0.507703
vn 0.789676 -0.344455 -0.507703
vn 0.789676 -0.344455 -0.507703
vn 0.789676 -0.344455 -0.507703
vn 0.789676 -0.344455 -0.507703
vn 0.789676 -0.344455 -0.507703
vn 0.789676 -0.344455 -0.507703
vn 0.789676 -0.344455 -0.507703
vn 0.789676 -0.344455 -0.507703
vn 0.789676 -0.344455 -0.507703
vn 0.789676 -0.344455 -0.507703
vn 0.789676 -0.344455 -0.507703
vn 0.789676 -0.344455 -0.507703
vn 0.789676 -0.344455 -0.507703
vn 0.789676 -0.344455 -0.507703
vn 0.789676 -0.344455 -0.507703
vn 0.789676 -0.344455 -0.507703
vn 0.789676 -0.344455 -0.507703
vn 0.789676 -0.344455 -0.507703
vn 0.789676 -0.344455 -0.507703
vn 0.789676 -0.344455 -0.507703
vn 0.789676 -0.344455 -0.507703
vn 0.789676 -0.344455 -0.507703
vn 0.789676 -0.344455 -0.507703
vn 0.789676 -0.344455 -0.507703
vn 0.789676 -0.344455 -0.507703
vn 0.789676 -0.344455 -0.507703
vn 0.789676 -0.344455 -0.507703
vn 0.789676 -0.344455 -0.507703
s off
g Telecommande Geometrie_tel Telecommande Enfant
usemtl Oeil_DroitSG
f 1/1/1 2/2/2 18/3/3 17/4/4
f 2/2/5 3/5/6 19/6/7 18/3/8
f 3/5/9 4/7/10 20/8/11 19/6/12
f 4/9/13 5/10/14 21/11/15 20/12/16
f 5/10/17 6/13/18 22/14/19 21/11/20
f 6/13/21 7/15/22 23/16/23 22/14/24
f 7/15/25 8/17/26 24/18/27 23/16/28
f 8/17/29 9/19/30 25/20/31 24/18/32
f 9/19/33 10/21/34 26/22/35 25/20/36
f 10/21/37 11/23/38 27/24/39 26/22/40
f 11/23/41 12/25/42 28/26/43 27/24/44
f 12/25/45 13/27/46 29/28/47 28/26/48
f 13/27/49 14/29/50 30/30/51 29/28/52
f 14/29/53 15/31/54 31/32/55 30/30/56
f 15/31/57 16/33/58 32/34/59 31/32/60
f 16/33/61 1/1/62 17/4/63 32/34/64
f 17/4/65 18/3/66 34/35/67 33/36/68
f 18/3/69 19/6/70 35/37/71 34/35/72
f 19/6/73 20/8/74 36/38/75 35/37/76
f 20/12/77 21/11/78 37/39/79 36/40/80
f 21/11/81 22/14/82 38/41/83 37/39/84
f 22/14/85 23/16/86 39/42/87 38/41/88
f 23/16/89 24/18/90 40/43/91 39/42/92
f 24/18/93 25/20/94 41/44/95 40/43/96
f 25/20/97 26/22/98 42/45/99 41/44/100
f 26/22/101 27/24/102 43/46/103 42/45/104
f 27/24/105 28/26/106 44/47/107 43/46/108
f 28/26/109 29/28/110 45/48/111 44/47/112
f 29/28/113 30/30/114 46/49/115 45/48/116
f 30/30/117 31/32/118 47/50/119 46/49/120
f 31/32/121 32/34/122 48/51/123 47/50/124
f 32/34/125 17/4/126 33/36/127 48/51/128
f 33/52/129 34/53/130 50/54/131 49/55/132
f 34/53/133 35/56/134 51/57/135 50/54/136
f 35/56/137 36/58/138 52/59/139 51/57/140
f 36/58/141 37/60/142 53/61/143 52/59/144
f 37/60/145 38/62/146 54/63/147 53/61/148
f 38/62/149 39/64/150 55/65/151 54/63/152
f 39/64/153 40/66/154 56/67/155 55/65/156
f 40/66/157 41/68/158 57/69/159 56/67/160
f 41/68/161 42/70/162 58/71/163 57/69/164
f 42/70/165 43/72/166 59/73/167 58/71/168
f 43/72/169 44/74/170 60/75/171 59/73/172
f 44/74/173 45/76/174 61/77/175 60/75/176
f 45/76/177 46/78/178 62/79/179 61/77/180
f 46/78/181 47/80/182 63/81/183 62/79/184
f 47/80/185 48/82/186 64/83/187 63/81/188
f 48/82/189 33/52/190 49/55/191 64/83/192
f 59/73/193 60/75/194 66/84/195 58/71/196
f 57/69/197 58/71/198 66/84/199 56/67/200
f 54/63/201 55/65/202 56/67/203 66/84/204
f 52/59/205 53/61/206 54/63/207 66/84/208
f 50/54/209 51/57/210 52/59/211 66/84/212
f 64/83/213 49/55/214 50/54/215 66/84/216
f 62/79/217 63/81/218 64/83/219 66/84/220
f 60/75/221 61/77/222 62/79/223 66/84/224
f 16/85/225 15/86/226 14/87/227 65/88/228
f 2/89/229 1/90/230 16/85/231 65/88/232
f 4/91/233 3/92/234 2/89/235 65/88/236
f 6/93/237 5/94/238 4/91/239 65/88/240
f 8/95/241 7/96/242 6/93/243 65/88/244
f 10/97/245 9/98/246 8/95/247 65/88/248
f 12/99/249 11/100/250 10/97/251 65/88/252
f 14/87/253 13/101/254 12/99/255 65/88/256
g default
v 27.145809 43.947323 6.707516
v 27.907811 45.238865 7.016470
v 28.322279 46.665170 6.693442
v 28.657927 48.075723 6.258505
v 28.993574 49.486276 5.823568
v 29.250403 50.881079 5.276723
v 29.057657 51.981826 4.230118
v 26.401020 43.580368 5.798042
v 26.388162 44.320114 5.276156
v 27.466254 46.193945 5.681695
v 28.112317 47.966690 5.483844
v 28.287531 49.645344 4.617474
v 28.038086 51.253887 3.138163
v 28.421856 52.072891 3.179416
v 26.178523 43.524332 5.489991
v 25.983400 45.574408 3.795609
v 26.597289 46.601297 4.053747
v 26.999015 47.744213 3.903169
v 27.128256 48.832676 3.365713
v 26.966174 49.704500 2.522118
v 28.205142 52.041157 2.863872
v 25.176783 43.282450 4.096002
v 25.249153 44.812934 3.170197
v 26.539097 50.233900 1.498672
v 27.224237 51.886834 1.442885
v 24.185461 43.084348 2.688514
v 24.509135 44.444588 2.269091
v 25.909240 50.328498 0.454818
v 26.232915 51.688732 0.035396
v 22.671501 42.847052 0.494712
v 23.880833 44.545720 1.223222
v 25.167669 49.953615 -0.444272
v 24.686353 51.314426 -2.116160
v 21.388411 42.642082 -1.361930
v 23.453038 45.072105 0.200705
v 23.290119 45.940407 -0.641804
v 23.419360 47.028870 -1.179259
v 23.821087 48.171787 -1.329837
v 24.434139 49.195158 -1.070615
v 23.377561 51.001445 -3.939497
v 20.480355 42.850824 -2.915933
v 20.260405 43.989258 -4.030419
v 20.487582 45.238824 -4.524849
v 20.788425 46.503112 -4.914685
v 21.089268 47.767400 -5.304522
v 21.463779 49.046410 -5.589766
v 22.274532 50.390817 -5.240851
v 23.391825 41.580848 -4.787792
v 23.171875 42.719282 -5.902278
v 23.399051 43.968848 -6.396708
v 23.699894 45.233136 -6.786544
v 24.000738 46.497424 -7.176381
v 24.375248 47.776434 -7.461625
v 25.186002 49.120841 -7.112710
v 24.299880 41.372106 -3.233789
v 25.466716 42.899253 -2.455009
v 25.802365 44.309807 -2.889945
v 26.138013 45.720362 -3.324883
v 26.473661 47.130914 -3.759818
v 26.809310 48.541467 -4.194754
v 26.289030 49.731469 -5.811356
v 25.582971 41.577076 -1.377147
v 26.456606 43.091332 -1.045662
v 26.793688 44.507909 -1.482456
v 27.129336 45.918462 -1.917392
v 27.464983 47.329016 -2.352329
v 27.802065 48.745593 -2.789123
v 27.597822 50.044450 -3.988019
v 27.096931 41.814372 0.816655
v 27.443848 43.272287 0.367113
v 27.784991 44.705930 -0.074942
v 28.120658 46.116564 -0.509904
v 28.456325 47.527199 -0.944866
v 28.797467 48.960842 -1.386922
v 29.144385 50.418756 -1.836463
v 28.088253 42.012474 2.224143
v 28.435170 43.470389 1.774602
v 28.776313 44.904032 1.332546
v 29.111980 46.314666 0.897584
v 29.447647 47.725301 0.462622
v 29.788789 49.158944 0.020566
v 30.135707 50.616858 -0.428974
v 29.089993 42.254355 3.618132
v 29.430573 43.685638 3.176803
v 29.767654 45.102215 2.740009
v 30.103302 46.512768 2.305072
v 30.438950 47.923322 1.870136
v 30.776031 49.339898 1.433341
v 31.116612 50.771181 0.992013
v 29.312420 42.310099 3.926273
v 29.651134 43.733538 3.487364
v 29.987260 45.146100 3.051807
v 30.322907 46.556653 2.616870
v 30.658555 47.967207 2.181933
v 30.994682 49.379769 1.746378
v 31.333395 50.803208 1.307467
v 30.057278 42.677346 4.835657
v 30.819281 43.968889 5.144611
v 31.233748 45.395193 4.821583
v 31.569396 46.805747 4.386646
v 31.905044 48.216300 3.951709
v 32.161872 49.611103 3.404864
v 31.969126 50.711850 2.358259
v 25.344556 45.896664 4.126646
v 25.941055 46.892403 4.378868
v 24.632288 45.164792 3.515337
v 26.331932 48.004452 4.232357
v 26.457684 49.063523 3.709415
v 26.299163 49.908380 2.889655
v 25.881468 50.414443 1.896635
v 23.913542 44.811804 2.636894
v 25.267332 50.501076 0.882637
v 23.299982 44.900857 1.622150
v 24.548009 50.145660 0.004944
v 22.723191 46.249358 -0.189884
v 22.881711 45.404503 0.629874
v 22.848942 47.308427 -0.712825
v 23.239821 48.420481 -0.859338
v 23.836319 49.416214 -0.607114
v 25.242525 46.134759 3.806412
v 25.758319 46.995775 4.024509
v 24.627309 45.504777 3.276926
v 26.096311 47.957366 3.897820
v 26.205047 48.873144 3.445632
v 26.067976 49.603698 2.736783
v 25.706110 50.038416 1.879002
v 24.006320 45.201702 2.516670
v 25.174553 50.111174 1.002861
v 23.474902 45.275042 1.640350
v 24.553426 49.807512 0.242787
v 22.975826 46.439733 0.073901
v 23.112899 45.709185 0.782747
v 23.084563 47.355512 -0.378288
v 23.422557 48.317105 -0.504977
v 23.938350 49.178122 -0.286880
v 25.773114 45.903317 3.465282
v 26.288908 46.764334 3.683379
v 25.672679 46.404902 2.968763
v 25.158047 45.273965 2.935602
v 26.626900 47.725925 3.556690
v 25.955076 47.591670 2.602829
v 26.735636 48.641702 3.104502
v 26.237474 48.778442 2.236894
v 26.598565 49.372257 2.395653
v 26.236549 49.806345 1.538067
v 24.838629 46.238228 1.784571
v 24.537345 44.972091 2.174977
v 25.121026 47.424997 1.418637
v 25.403424 48.611769 1.052702
v 25.704706 49.877903 0.662296
v 24.004578 46.071555 0.600378
v 24.005501 45.043646 1.299206
v 24.286975 47.258323 0.234444
v 24.569373 48.445095 -0.131491
v 25.084004 49.576025 -0.098328
v 23.506415 46.208291 -0.267229
v 23.643488 45.477744 0.441618
v 23.615152 47.124071 -0.719417
v 23.953146 48.085664 -0.846106
v 24.468939 48.946680 -0.628009
v 26.634027 44.220839 5.116961
v 27.710401 46.087448 5.524727
v 26.841437 46.494801 3.896778
v 26.228081 45.470154 3.637949
v 28.356465 47.860194 5.326875
v 27.243163 47.637716 3.746199
v 28.531678 49.538848 4.460505
v 27.372404 48.726179 3.208744
v 28.280466 51.139964 2.983485
v 27.209703 49.595399 2.365952
v 25.260471 50.267991 -5.239731
v 26.593242 50.586529 -3.382867
v 28.164101 50.967725 -1.198195
v 29.179212 51.170581 0.243069
v 30.183294 51.327089 1.698623
v 30.405268 51.359837 2.021661
v 31.056628 51.267852 3.097187
v 31.253999 50.140693 4.168905
v 30.991007 48.712420 4.728872
v 30.647304 47.268016 5.174247
v 30.303602 45.823615 5.619621
v 29.879189 44.363081 5.950402
v 29.098902 43.040551 5.634033
v 28.336541 42.666055 4.702344
v 28.108766 42.608926 4.386824
v 27.082627 42.359723 2.959852
v 26.067515 42.156867 1.518588
v 24.530275 41.916953 -0.709648
v 23.223588 41.708032 -2.600311
v 22.273500 41.917739 -4.220346
v 22.048271 43.083489 -5.361577
v 22.280899 44.363041 -5.867870
v 22.588962 45.657668 -6.267062
v 22.897024 46.952294 -6.666253
v 23.280522 48.261999 -6.958344
v 24.110730 49.638661 -6.601052
v 24.127369 50.762247 -4.511230
v 25.460140 51.080786 -2.654367
v 27.030999 51.461982 -0.469695
v 28.046110 51.664838 0.971569
v 29.050192 51.821346 2.427124
v 29.272166 51.854094 2.750162
v 29.923525 51.762108 3.825687
v 30.120897 50.634949 4.897406
v 29.857906 49.206677 5.457374
v 29.514203 47.762272 5.902749
v 29.170501 46.317872 6.348122
v 28.746086 44.857337 6.678903
v 27.965800 43.534807 6.362533
v 27.203439 43.160311 5.430845
v 26.975664 43.103183 5.115324
v 25.949524 42.853979 3.688352
v 24.934413 42.651123 2.247088
v 23.397173 42.411209 0.018853
v 22.090486 42.202288 -1.871811
v 21.140398 42.411995 -3.491845
v 20.915169 43.577746 -4.633076
v 21.147797 44.857297 -5.139369
v 21.455859 46.151924 -5.538561
v 21.763922 47.446550 -5.937752
v 22.147420 48.756256 -6.229843
v 22.977628 50.132918 -5.872552
vt 0.112014 0.050977
vt 0.250073 -0.000000
vt 0.157256 0.165639
vt 0.075702 0.135375
vt 0.404893 0.000219
vt 0.357710 0.095312
vt 0.558413 0.010260
vt 0.549413 0.078257
vt 0.711933 0.020302
vt 0.733349 0.119883
vt 0.864153 0.040167
vt 0.911904 0.215000
vt 0.986462 0.108175
vt 1.000000 0.195834
vt 0.297648 0.267634
vt 0.070757 0.162657
vt 0.967253 0.000000
vt 0.968189 0.322645
vt 0.544113 0.295270
vt 0.534952 0.116166
vt 0.824489 0.595741
vt 0.445779 0.470027
vt 0.520619 0.815668
vt 0.254753 0.614016
vt 0.069996 0.988379
vt 0.000000 0.705446
vt 0.997700 0.223289
vt 0.747153 0.297036
vt 0.217822 0.335404
vt 0.049640 0.285889
vt 0.416667 0.343750
vt 0.458333 0.343750
vt 0.458333 0.375000
vt 0.416667 0.375000
vt 0.500000 0.343750
vt 0.500000 0.375000
vt 0.541667 0.343750
vt 0.541667 0.375000
vt 0.583333 0.343750
vt 0.583333 0.375000
vt 0.986112 0.347144
vt 0.807822 0.373996
vt 0.181331 0.419117
vt 0.033287 0.409433
vt 0.312516 0.385109
vt 0.385742 0.385109
vt 0.250016 0.385109
vt 0.250016 0.385109
vt 0.500000 0.406250
vt 0.458333 0.406250
vt 0.541667 0.406250
vt 0.583333 0.406250
vt 0.969759 0.470688
vt 0.821716 0.461004
vt 0.195936 0.506172
vt 0.015500 0.600630
vt 0.416667 0.406250
vt 0.458333 0.437500
vt 0.416667 0.437500
vt 0.500000 0.437500
vt 0.541667 0.437500
vt 0.583333 0.437500
vt 0.937061 0.660909
vt 0.784513 0.544670
vt 0.256277 0.583110
vt 0.000000 0.762522
vt 0.458333 0.468750
vt 0.416667 0.468750
vt 0.500000 0.468750
vt 0.541667 0.468750
vt 0.583333 0.468750
vt 0.909805 0.822032
vt 0.705016 0.612462
vt 0.154612 0.963818
vt 0.028002 0.890754
vt 0.352818 0.638196
vt 0.290998 0.981999
vt 0.471999 0.663118
vt 0.428599 0.990999
vt 0.595674 0.654082
vt 0.566200 1.000000
vt 0.705016 0.999820
vt 0.848629 0.944431
vt 0.096333 0.349141
vt 0.060856 0.349141
vt 0.060856 0.000000
vt 0.096333 0.000000
vt 0.031013 0.349141
vt 0.031013 0.000000
vt 0.000016 0.349141
vt 0.000016 0.000000
vt 1.000016 0.349141
vt 0.969019 0.349141
vt 0.969019 0.000000
vt 1.000016 0.000000
vt 0.939176 0.349141
vt 0.939176 0.000000
vt 0.903699 0.349141
vt 0.903699 0.000000
vt 0.040028 0.088631
vt 0.178722 0.020104
vt 0.161457 0.319104
vt 0.000000 0.216602
vt 0.323071 0.007210
vt 0.323071 0.315082
vt 0.467927 0.003605
vt 0.484686 0.311061
vt 0.612783 0.000000
vt 0.646300 0.307039
vt 0.758146 0.005685
vt 0.807914 0.303017
vt 0.903924 0.067133
vt 0.957775 0.192768
vt 0.167581 0.444131
vt 0.002720 0.380179
vt 0.329885 0.440092
vt 0.491500 0.436070
vt 0.653114 0.432048
vt 0.815418 0.428009
vt 0.972870 0.356037
vt 0.172430 0.569189
vt 0.005389 0.573346
vt 0.336690 0.565102
vt 0.498313 0.561080
vt 0.659937 0.557057
vt 0.824197 0.552970
vt 0.991238 0.548813
vt 0.179244 0.694199
vt 0.012203 0.698355
vt 0.343504 0.690111
vt 0.505127 0.686089
vt 0.666751 0.682067
vt 0.831011 0.677979
vt 0.998051 0.673822
vt 0.188022 0.819159
vt 0.024033 0.823240
vt 0.350327 0.815120
vt 0.511941 0.811098
vt 0.673555 0.807077
vt 0.835860 0.803038
vt 0.999849 0.798957
vt 0.189992 0.846841
vt 0.026901 0.850899
vt 0.351836 0.842813
vt 0.513451 0.838791
vt 0.675065 0.834770
vt 0.836909 0.830742
vt 1.000000 0.826684
vt 0.198248 0.994082
vt 0.057918 0.937294
vt 0.360404 1.000000
vt 0.522018 0.995978
vt 0.683633 0.991956
vt 0.844705 0.977995
vt 0.978472 0.914386
vt 0.867697 0.000000
vt 0.867025 0.349141
vt 0.810818 0.000000
vt 0.810157 0.349141
vt 0.721053 0.000000
vt 0.721053 0.349141
vt 0.668848 0.000000
vt 0.668848 0.349141
vt 0.629575 0.000000
vt 0.629547 0.349141
vt 0.622574 0.000000
vt 0.622546 0.349141
vt 0.600372 0.000000
vt 0.600372 0.349141
vt 0.132335 0.000000
vt 0.133007 0.349141
vt 0.189214 0.000000
vt 0.189875 0.349141
vt 0.278979 0.000000
vt 0.278979 0.349141
vt 0.331184 0.000000
vt 0.331184 0.349141
vt 0.370457 0.000000
vt 0.370485 0.349141
vt 0.377458 0.000000
vt 0.377486 0.349141
vt 0.399659 0.000000
vt 0.399659 0.349141
vt 0.374880 0.282939
vt 0.437516 0.282939
vt 0.437516 1.000000
vt 0.375016 1.000000
vt 0.312163 0.282939
vt 0.312429 1.000000
vt 0.500016 0.282939
vt 0.500016 1.000000
vt 0.562516 0.282939
vt 0.562516 1.000000
vt 0.625152 0.282939
vt 0.625016 1.000000
vt 0.687869 0.282939
vt 0.687603 1.000000
vt 0.250016 0.282939
vt 0.250016 1.000000
vt 0.750016 0.282939
vt 0.750016 1.000000
vt 0.187733 0.282939
vt 0.187551 1.000000
vt 0.812299 0.282939
vt 0.812481 1.000000
vt 0.062516 0.282939
vt 0.125016 0.282939
vt 0.125016 1.000000
vt 0.062516 1.000000
vt 0.000016 0.282939
vt 0.000016 1.000000
vt 0.937516 0.282939
vt 1.000016 0.282939
vt 1.000016 1.000000
vt 0.937516 1.000000
vt 0.875016 0.282939
vt 0.875016 1.000000
vt 0.437516 1.000000
vt 0.375016 1.000000
vt 0.312500 1.000000
vt 0.500016 1.000000
vt 0.562516 1.000000
vt 0.625016 1.000000
vt 0.687531 1.000000
vt 0.250016 1.000000
vt 0.750016 1.000000
vt 0.187517 1.000000
vt 0.812515 1.000000
vt 0.125016 1.000000
vt 0.062516 1.000000
vt 0.000016 1.000000
vt 1.000016 1.000000
vt 0.937516 1.000000
vt 0.875016 1.000000
vt 0.416667 0.343750
vt 0.458333 0.343750
vt 0.416667 0.375000
vt 0.500000 0.343750
vt 0.541667 0.343750
vt 0.583333 0.343750
vt 0.583333 0.375000
vt 0.416667 0.406250
vt 0.583333 0.406250
vt 0.416667 0.437500
vt 0.583333 0.437500
vt 0.458333 0.468750
vt 0.416667 0.468750
vt 0.500000 0.468750
vt 0.541667 0.468750
vt 0.583333 0.468750
vt 1.000000 0.009528
vt 1.000000 0.333204
vt 0.374967 0.000000
vt 0.437516 0.000001
vt 0.567054 0.126405
vt 0.856300 0.606300
vt 0.500016 0.000001
vt 0.552430 0.826228
vt 0.562516 0.000001
vt 0.100844 1.000000
vt 0.031473 0.716378
vt 0.625051 0.000001
vt 0.432828 0.349141
vt 0.432828 0.000000
vt 0.465539 0.349141
vt 0.465539 0.000000
vt 0.500016 0.349141
vt 0.500016 0.000000
vt 0.534493 0.349141
vt 0.534493 0.000000
vt 0.567204 0.349141
vt 0.567204 0.000000
vt 0.867025 0.738326
vt 0.810157 0.738326
vt 0.721053 0.738326
vt 0.668848 0.738326
vt 0.629547 0.738326
vt 0.622546 0.738326
vt 0.600372 0.738326
vt 0.567204 0.738326
vt 0.534493 0.738326
vt 0.500016 0.738326
vt 0.465539 0.738326
vt 0.432828 0.738326
vt 0.399659 0.738326
vt 0.377486 0.738326
vt 0.370485 0.738326
vt 0.331184 0.738326
vt 0.278979 0.738326
vt 0.189875 0.738326
vt 0.133007 0.738326
vt 0.096333 0.738326
vt 0.060856 0.738326
vt 0.031013 0.738326
vt 0.000016 0.738326
vt 1.000016 0.738326
vt 0.969019 0.738326
vt 0.939176 0.738326
vt 0.903699 0.738326
vt 0.867697 1.000000
vt 0.810818 1.000000
vt 0.721053 1.000000
vt 0.668848 1.000000
vt 0.629575 1.000000
vt 0.622569 1.000000
vt 0.600372 1.000000
vt 0.567204 1.000000
vt 0.534493 1.000000
vt 0.500016 1.000000
vt 0.465539 1.000000
vt 0.432828 1.000000
vt 0.399659 1.000000
vt 0.377463 1.000000
vt 0.370457 1.000000
vt 0.331184 1.000000
vt 0.278979 1.000000
vt 0.189214 1.000000
vt 0.132335 1.000000
vt 0.096333 1.000000
vt 0.060856 1.000000
vt 0.031013 1.000000
vt 0.000016 1.000000
vt 1.000016 1.000000
vt 0.969019 1.000000
vt 0.939176 1.000000
vt 0.903699 1.000000
vn -0.789676 0.344455 0.507703
vn -0.789676 0.344455 0.507703
vn -0.789676 0.344455 0.507703
vn -0.789676 0.344455 0.507703
vn -0.789676 0.344455 0.507703
vn -0.789676 0.344455 0.507703
vn -0.789676 0.344455 0.507703
vn -0.789676 0.344455 0.507703
vn -0.789676 0.344455 0.507703
vn -0.789676 0.344455 0.507703
vn -0.789676 0.344455 0.507703
vn -0.789676 0.344455 0.507703
vn -0.789676 0.344455 0.507703
vn -0.789676 0.344455 0.507703
vn -0.789676 0.344455 0.507703
vn -0.789676 0.344455 0.507703
vn -0.789676 0.344455 0.507703
vn -0.789676 0.344455 0.507703
vn -0.789676 0.344455 0.507703
vn -0.789676 0.344455 0.507703
vn -0.789676 0.344455 0.507703
vn -0.789676 0.344455 0.507703
vn -0.789676 0.344455 0.507703
vn -0.789676 0.344455 0.507703
vn -0.789676 0.344455 0.507703
vn -0.789676 0.344455 0.507703
vn -0.789676 0.344455 0.507703
vn -0.789676 0.344455 0.507703
vn -0.789676 0.344455 0.507703
vn -0.789676 0.344455 0.507703
vn -0.789676 0.344455 0.507703
vn -0.789676 0.344455 0.507703
vn -0.789676 0.344455 0.507703
vn -0.789676 0.344455 0.507703
vn -0.789676 0.344455 0.507703
vn -0.789676 0.344455 0.507703
vn -0.789676 0.344455 0.507703
vn -0.789676 0.344455 0.507703
vn -0.789676 0.344455 0.507703
vn -0.789676 0.344455 0.507703
vn -0.789676 0.344455 0.507703
vn -0.789676 0.344455 0.507703
vn -0.789676 0.344455 0.507703
vn -0.789676 0.344455 0.507703
vn -0.789676 0.344455 0.507703
vn -0.789676 0.344455 0.507703
vn -0.789676 0.344455 0.507703
vn -0.789676 0.344455 0.507703
vn -0.789676 0.344455 0.507703
vn -0.789676 0.344455 0.507703
vn -0.789676 0.344455 0.507703
vn -0.789676 0.344455 0.507703
vn -0.789676 0.344455 0.507703
vn -0.789676 0.344455 0.507703
vn -0.789676 0.344455 0.507703
vn -0.789676 0.344455 0.507703
vn -0.789676 0.344455 0.507703
vn -0.789676 0.344455 0.507703
vn -0.789676 0.344455 0.507703
vn -0.789676 0.344455 0.507703
vn -0.789676 0.344455 0.507703
vn -0.789676 0.344455 0.507703
vn -0.789676 0.344455 0.507703
vn -0.789676 0.344455 0.507703
vn -0.789676 0.344455 0.507703
vn -0.789676 0.344455 0.507703
vn -0.789676 0.344455 0.507703
vn -0.789676 0.344455 0.507703
vn -0.789676 0.344455 0.507703
vn -0.789676 0.344455 0.507703
vn -0.789676 0.344455 0.507703
vn -0.789676 0.344455 0.507703
vn -0.789676 0.344455 0.507703
vn -0.789676 0.344455 0.507703
vn -0.789676 0.344455 0.507703
vn -0.789676 0.344455 0.507703
vn -0.789676 0.344455 0.507703
vn -0.789676 0.344455 0.507703
vn -0.789676 0.344455 0.507703
vn -0.789676 0.344455 0.507703
vn -0.789676 0.344455 0.507703
vn -0.789676 0.344455 0.507703
vn -0.789676 0.344455 0.507703
vn -0.789676 0.344455 0.507703
vn -0.789676 0.344455 0.507703
vn -0.789676 0.344455 0.507703
vn -0.789676 0.344455 0.507703
vn -0.789676 0.344455 0.507703
vn -0.789676 0.344455 0.507703
vn -0.789676 0.344455 0.507703
vn -0.789676 0.344455 0.507703
vn -0.789676 0.344455 0.507703
vn -0.789676 0.344455 0.507703
vn -0.789676 0.344455 0.507703
vn -0.789676 0.344455 0.507703
vn -0.789676 0.344455 0.507703
vn -0.789676 0.344455 0.507703
vn -0.789676 0.344455 0.507703
vn -0.789676 0.344455 0.507703
vn -0.789676 0.344455 0.507703
vn -0.789676 0.344455 0.507703
vn -0.789676 0.344455 0.507703
vn -0.789676 0.344455 0.507703
vn -0.789676 0.344455 0.507703
vn -0.789676 0.344455 0.507703
vn -0.789676 0.344455 0.507703
vn -0.789676 0.344455 0.507703
vn -0.789676 0.344455 0.507703
vn -0.789676 0.344455 0.507703
vn -0.789676 0.344455 0.507703
vn -0.789676 0.344455 0.507703
vn -0.789676 0.344455 0.507703
vn -0.789676 0.344455 0.507703
vn -0.789676 0.344455 0.507703
vn -0.789676 0.344455 0.507703
vn -0.789676 0.344455 0.507703
vn -0.789676 0.344455 0.507703
vn -0.789676 0.344455 0.507703
vn -0.789676 0.344455 0.507703
vn -0.789676 0.344455 0.507703
vn -0.789676 0.344455 0.507703
vn -0.789676 0.344455 0.507703
vn -0.789676 0.344455 0.507703
vn -0.789676 0.344455 0.507703
vn -0.789676 0.344455 0.507703
vn -0.789676 0.344455 0.507703
vn -0.789676 0.344455 0.507703
vn -0.789676 0.344455 0.507703
vn -0.789676 0.344455 0.507703
vn -0.789676 0.344455 0.507703
vn -0.789676 0.344455 0.507703
vn -0.789676 0.344455 0.507703
vn -0.789676 0.344455 0.507703
vn -0.789676 0.344455 0.507703
vn -0.789676 0.344455 0.507703
vn -0.789676 0.344455 0.507703
vn -0.789676 0.344455 0.507703
vn -0.789676 0.344455 0.507703
vn -0.789676 0.344455 0.507703
vn -0.789676 0.344455 0.507703
vn -0.789676 0.344455 0.507703
vn -0.789676 0.344455 0.507703
vn -0.789676 0.344455 0.507703
vn -0.789676 0.344455 0.507703
vn -0.789676 0.344455 0.507703
vn -0.789676 0.344455 0.507703
vn -0.789676 0.344455 0.507703
vn -0.789676 0.344455 0.507703
vn -0.789676 0.344455 0.507703
vn -0.789676 0.344455 0.507703
vn -0.789676 0.344455 0.507703
vn -0.789676 0.344455 0.507703
vn -0.789676 0.344455 0.507703
vn -0.789676 0.344455 0.507703
vn -0.789676 0.344455 0.507703
vn -0.789676 0.344455 0.507703
vn -0.789676 0.344455 0.507703
vn -0.789676 0.344455 0.507703
vn -0.789676 0.344455 0.507703
vn -0.789676 0.344455 0.507703
vn -0.789676 0.344455 0.507703
vn -0.789676 0.344455 0.507703
vn -0.789676 0.344455 0.507703
vn -0.789676 0.344455 0.507703
vn -0.789676 0.344455 0.507703
vn -0.789676 0.344455 0.507703
vn -0.789676 0.344455 0.507703
vn -0.789676 0.344455 0.507703
vn -0.456817 -0.856627 -0.239809
vn -0.562647 -0.461066 -0.686183
vn -0.501852 -0.481620 -0.718462
vn -0.398908 -0.879428 -0.259766
vn -0.562647 -0.461066 -0.686183
vn -0.533114 -0.179166 -0.826855
vn -0.475774 -0.200688 -0.856366
vn -0.501852 -0.481620 -0.718462
vn -0.533114 -0.179166 -0.826855
vn -0.523521 -0.134829 -0.841277
vn -0.466977 -0.157197 -0.870184
vn -0.475774 -0.200688 -0.856366
vn -0.523521 -0.134829 -0.841277
vn -0.512012 -0.090485 -0.854199
vn -0.455178 -0.114130 -0.883056
vn -0.466977 -0.157197 -0.870184
vn -0.512012 -0.090485 -0.854199
vn -0.404229 0.204680 -0.891462
vn -0.345032 0.177412 -0.921671
vn -0.455178 -0.114130 -0.883056
vn -0.404229 0.204680 -0.891462
vn -0.088474 0.691321 -0.717111
vn -0.029382 0.673500 -0.738603
vn -0.345032 0.177412 -0.921671
vn 0.789676 -0.344455 -0.507703
vn 0.789676 -0.344455 -0.507703
vn 0.789676 -0.344455 -0.507703
vn 0.789676 -0.344455 -0.507703
vn 0.789676 -0.344455 -0.507703
vn 0.789676 -0.344455 -0.507703
vn 0.789676 -0.344455 -0.507703
vn 0.789676 -0.344455 -0.507703
vn 0.789676 -0.344455 -0.507703
vn 0.789676 -0.344455 -0.507703
vn 0.789676 -0.344455 -0.507703
vn 0.789676 -0.344455 -0.507703
vn 0.789676 -0.344455 -0.507703
vn 0.789676 -0.344455 -0.507703
vn 0.789676 -0.344455 -0.507703
vn 0.789676 -0.344455 -0.507703
vn 0.789676 -0.344455 -0.507703
vn 0.789676 -0.344455 -0.507703
vn 0.789676 -0.344455 -0.507703
vn 0.789676 -0.344455 -0.507703
vn 0.789676 -0.344455 -0.507703
vn 0.789676 -0.344455 -0.507703
vn 0.789676 -0.344455 -0.507703
vn 0.789676 -0.344455 -0.507703
vn 0.789676 -0.344455 -0.507703
vn 0.789676 -0.344455 -0.507703
vn 0.789676 -0.344455 -0.507703
vn 0.789676 -0.344455 -0.507703
vn 0.789676 -0.344455 -0.507703
vn 0.789676 -0.344455 -0.507703
vn 0.789676 -0.344455 -0.507703
vn 0.789676 -0.344455 -0.507703
vn 0.789676 -0.344455 -0.507703
vn 0.789676 -0.344455 -0.507703
vn 0.789676 -0.344455 -0.507703
vn 0.789676 -0.344455 -0.507703
vn 0.789676 -0.344455 -0.507703
vn 0.789676 -0.344455 -0.507703
vn 0.789676 -0.344455 -0.507703
vn 0.789676 -0.344455 -0.507703
vn 0.789676 -0.344455 -0.507703
vn 0.789676 -0.344455 -0.507703
vn 0.789676 -0.344455 -0.507703
vn 0.789676 -0.344455 -0.507703
vn 0.789676 -0.344455 -0.507703
vn 0.789676 -0.344455 -0.507703
vn 0.789676 -0.344455 -0.507703
vn 0.789676 -0.344455 -0.507703
vn 0.789676 -0.344455 -0.507703
vn 0.789676 -0.344455 -0.507703
vn 0.789676 -0.344455 -0.507703
vn 0.789676 -0.344455 -0.507703
vn 0.789676 -0.344455 -0.507703
vn 0.789676 -0.344455 -0.507703
vn 0.789676 -0.344455 -0.507703
vn 0.789676 -0.344455 -0.507703
vn 0.789676 -0.344455 -0.507703
vn 0.789676 -0.344455 -0.507703
vn 0.789676 -0.344455 -0.507703
vn 0.789676 -0.344455 -0.507703
vn 0.789676 -0.344455 -0.507703
vn 0.789676 -0.344455 -0.507703
vn 0.789676 -0.344455 -0.507703
vn 0.789676 -0.344455 -0.507703
vn 0.789676 -0.344455 -0.507703
vn 0.789676 -0.344455 -0.507703
vn 0.789676 -0.344455 -0.507703
vn 0.789676 -0.344455 -0.507703
vn 0.789676 -0.344455 -0.507703
vn 0.789676 -0.344455 -0.507703
vn 0.789676 -0.344455 -0.507703
vn 0.789676 -0.344455 -0.507703
vn 0.789676 -0.344455 -0.507703
vn 0.789676 -0.344455 -0.507703
vn 0.789676 -0.344455 -0.507703
vn 0.789676 -0.344455 -0.507703
vn 0.789676 -0.344455 -0.507703
vn 0.789676 -0.344455 -0.507703
vn 0.789676 -0.344455 -0.507703
vn 0.789676 -0.344455 -0.507703
vn 0.789676 -0.344455 -0.507703
vn 0.789676 -0.344455 -0.507703
vn 0.789676 -0.344455 -0.507703
vn 0.789676 -0.344455 -0.507703
vn 0.789676 -0.344455 -0.507703
vn 0.789676 -0.344455 -0.507703
vn 0.789676 -0.344455 -0.507703
vn 0.789676 -0.344455 -0.507703
vn 0.789676 -0.344455 -0.507703
vn 0.789676 -0.344455 -0.507703
vn 0.789676 -0.344455 -0.507703
vn 0.789676 -0.344455 -0.507703
vn 0.789676 -0.344455 -0.507703
vn 0.789676 -0.344455 -0.507703
vn 0.789676 -0.344455 -0.507703
vn 0.789676 -0.344455 -0.507703
vn 0.789676 -0.344455 -0.507703
vn 0.789676 -0.344455 -0.507703
vn 0.789676 -0.344455 -0.507703
vn 0.789676 -0.344455 -0.507703
vn 0.789676 -0.344455 -0.507703
vn 0.789676 -0.344455 -0.507703
vn 0.789676 -0.344455 -0.507703
vn 0.789676 -0.344455 -0.507703
vn 0.789676 -0.344455 -0.507703
vn 0.789676 -0.344455 -0.507703
vn 0.789676 -0.344455 -0.507703
vn 0.789676 -0.344455 -0.507703
vn 0.789676 -0.344455 -0.507703
vn 0.789676 -0.344455 -0.507703
vn 0.789676 -0.344455 -0.507703
vn 0.789676 -0.344455 -0.507703
vn 0.789676 -0.344455 -0.507703
vn 0.789676 -0.344455 -0.507703
vn 0.789676 -0.344455 -0.507703
vn 0.789676 -0.344455 -0.507703
vn 0.789676 -0.344455 -0.507703
vn 0.789676 -0.344455 -0.507703
vn 0.789676 -0.344455 -0.507703
vn 0.789676 -0.344455 -0.507703
vn 0.789676 -0.344455 -0.507703
vn 0.789676 -0.344455 -0.507703
vn 0.789676 -0.344455 -0.507703
vn 0.789676 -0.344455 -0.507703
vn 0.789676 -0.344455 -0.507703
vn 0.789676 -0.344455 -0.507703
vn 0.789676 -0.344455 -0.507703
vn 0.789676 -0.344455 -0.507703
vn 0.789676 -0.344455 -0.507703
vn 0.789676 -0.344455 -0.507703
vn 0.789676 -0.344455 -0.507703
vn 0.789676 -0.344455 -0.507703
vn 0.789676 -0.344455 -0.507703
vn 0.789676 -0.344455 -0.507703
vn 0.789676 -0.344455 -0.507703
vn 0.789676 -0.344455 -0.507703
vn 0.789676 -0.344455 -0.507703
vn 0.789676 -0.344455 -0.507703
vn 0.789676 -0.344455 -0.507703
vn 0.789676 -0.344455 -0.507703
vn 0.789676 -0.344455 -0.507703
vn 0.789676 -0.344455 -0.507703
vn 0.789676 -0.344455 -0.507703
vn 0.789676 -0.344455 -0.507703
vn 0.789676 -0.344455 -0.507703
vn 0.789676 -0.344455 -0.507703
vn 0.789676 -0.344455 -0.507703
vn 0.789676 -0.344455 -0.507703
vn 0.789676 -0.344455 -0.507703
vn 0.789676 -0.344455 -0.507703
vn 0.789676 -0.344455 -0.507703
vn 0.789676 -0.344455 -0.507703
vn 0.789676 -0.344455 -0.507703
vn 0.789676 -0.344455 -0.507703
vn 0.789676 -0.344455 -0.507703
vn 0.789676 -0.344455 -0.507703
vn 0.789676 -0.344455 -0.507703
vn 0.789676 -0.344455 -0.507703
vn 0.789676 -0.344455 -0.507703
vn 0.789676 -0.344455 -0.507703
vn 0.789676 -0.344455 -0.507703
vn 0.789676 -0.344455 -0.507703
vn 0.789676 -0.344455 -0.507703
vn 0.789676 -0.344455 -0.507703
vn 0.789676 -0.344455 -0.507703
vn 0.789676 -0.344455 -0.507703
vn 0.789676 -0.344455 -0.507703
vn 0.789676 -0.344455 -0.507703
vn 0.221919 0.876743 -0.426700
vn -0.029382 0.673500 -0.738603
vn -0.088474 0.691321 -0.717111
vn 0.182713 0.895239 -0.406404
vn 0.272494 0.895932 -0.350788
vn 0.221919 0.876743 -0.426700
vn 0.182713 0.895239 -0.406404
vn 0.237743 0.913921 -0.328978
vn 0.278534 0.897018 -0.343188
vn 0.272494 0.895932 -0.350788
vn 0.237743 0.913921 -0.328978
vn 0.243643 0.915190 -0.321037
vn 0.296487 0.900147 -0.319108
vn 0.278534 0.897018 -0.343188
vn 0.243643 0.915190 -0.321037
vn 0.261617 0.918595 -0.296208
vn 0.305271 0.901449 -0.306919
vn 0.296487 0.900147 -0.319108
vn 0.261617 0.918595 -0.296208
vn 0.269544 0.920191 -0.283891
vn 0.383554 0.900628 -0.204340
vn 0.305271 0.901449 -0.306919
vn 0.269544 0.920191 -0.283891
vn 0.347193 0.921150 -0.175898
vn 0.614093 0.768239 0.180827
vn 0.383554 0.900628 -0.204340
vn 0.347193 0.921150 -0.175898
vn 0.568739 0.789682 0.230083
vn -0.398908 -0.879428 -0.259766
vn -0.216563 -0.965962 0.141488
vn -0.256970 -0.952516 0.163341
vn -0.456817 -0.856627 -0.239809
vn -0.216563 -0.965962 0.141488
vn -0.169218 -0.960346 0.221587
vn -0.205205 -0.947558 0.245000
vn -0.256970 -0.952516 0.163341
vn -0.169218 -0.960346 0.221587
vn -0.163251 -0.959572 0.229283
vn -0.199398 -0.946679 0.253061
vn -0.205205 -0.947558 0.245000
vn -0.163251 -0.959572 0.229283
vn -0.145288 -0.956402 0.253350
vn -0.181435 -0.943319 0.277904
vn -0.199398 -0.946679 0.253061
vn -0.145288 -0.956402 0.253350
vn -0.136353 -0.954464 0.265343
vn -0.173378 -0.941175 0.290053
vn -0.181435 -0.943319 0.277904
vn -0.136353 -0.954464 0.265343
vn -0.052359 -0.931281 0.360520
vn -0.090000 -0.916142 0.390621
vn -0.173378 -0.941175 0.290053
vn -0.052359 -0.931281 0.360520
vn 0.259295 -0.722790 0.640579
vn 0.215816 -0.693468 0.687405
vn -0.090000 -0.916142 0.390621
vn 0.192806 -0.516535 0.834277
vn 0.381956 -0.223537 0.896739
vn 0.356016 -0.212080 0.910096
vn 0.159439 -0.532855 0.831050
vn -0.079403 -0.766282 0.637579
vn 0.192806 -0.516535 0.834277
vn 0.159439 -0.532855 0.831050
vn -0.078227 -0.765443 0.638731
vn 0.381956 -0.223537 0.896739
vn 0.509968 0.140333 0.848669
vn 0.484100 0.150586 0.861958
vn 0.356016 -0.212080 0.910096
vn 0.509968 0.140333 0.848669
vn 0.551070 0.486976 0.677626
vn 0.524607 0.496417 0.691634
vn 0.484100 0.150586 0.861958
vn 0.551070 0.486976 0.677626
vn 0.493622 0.747522 0.444465
vn 0.469839 0.771593 0.428830
vn 0.524607 0.496417 0.691634
vn 0.493622 0.747522 0.444465
vn 0.326287 0.938627 0.111879
vn 0.327148 0.938139 0.113441
vn 0.469839 0.771593 0.428830
vn -0.321448 -0.880690 0.347932
vn -0.079403 -0.766282 0.637579
vn -0.078227 -0.765443 0.638731
vn -0.321485 -0.880698 0.347878
vn 0.326287 0.938627 0.111879
vn 0.118412 0.967820 -0.222045
vn 0.118374 0.967812 -0.222098
vn 0.327148 0.938139 0.113441
vn -0.517462 -0.855650 0.009758
vn -0.321448 -0.880690 0.347932
vn -0.321485 -0.880698 0.347878
vn -0.518011 -0.855331 0.008600
vn 0.118412 0.967820 -0.222045
vn -0.111764 0.849296 -0.515951
vn -0.112539 0.848667 -0.516817
vn 0.118374 0.967812 -0.222098
vn -0.694487 -0.422614 -0.582310
vn -0.644971 -0.696408 -0.314689
vn -0.644985 -0.696374 -0.314735
vn -0.694487 -0.422614 -0.582310
vn -0.644971 -0.696408 -0.314689
vn -0.517462 -0.855650 0.009758
vn -0.518011 -0.855331 0.008600
vn -0.644985 -0.696374 -0.314735
vn -0.653417 -0.076730 -0.753099
vn -0.694487 -0.422614 -0.582310
vn -0.694487 -0.422614 -0.582310
vn -0.653417 -0.076730 -0.753099
vn -0.525760 0.286457 -0.800949
vn -0.653417 -0.076730 -0.753099
vn -0.653417 -0.076730 -0.753099
vn -0.525760 0.286457 -0.800949
vn -0.111764 0.849296 -0.515951
vn -0.333876 0.610964 -0.717809
vn -0.333908 0.610921 -0.717831
vn -0.112539 0.848667 -0.516817
vn -0.333876 0.610964 -0.717809
vn -0.525760 0.286457 -0.800949
vn -0.525760 0.286457 -0.800949
vn -0.333908 0.610921 -0.717831
vn -0.789676 0.344455 0.507703
vn -0.789676 0.344455 0.507703
vn -0.789676 0.344455 0.507703
vn -0.789676 0.344455 0.507703
vn -0.789676 0.344455 0.507703
vn -0.789676 0.344455 0.507703
vn -0.789676 0.344455 0.507703
vn -0.789676 0.344455 0.507703
vn -0.789676 0.344455 0.507703
vn -0.789676 0.344455 0.507703
vn -0.789676 0.344455 0.507703
vn -0.789676 0.344455 0.507703
vn -0.789676 0.344455 0.507703
vn -0.789676 0.344455 0.507703
vn -0.789676 0.344455 0.507703
vn -0.789676 0.344455 0.507703
vn -0.789676 0.344455 0.507703
vn -0.789676 0.344455 0.507703
vn -0.789676 0.344455 0.507703
vn -0.789676 0.344455 0.507703
vn -0.789676 0.344455 0.507703
vn -0.789676 0.344455 0.507703
vn -0.789676 0.344455 0.507703
vn -0.789676 0.344455 0.507703
vn -0.789676 0.344455 0.507703
vn -0.789676 0.344455 0.507703
vn -0.789676 0.344455 0.507703
vn -0.789676 0.344455 0.507703
vn -0.789676 0.344455 0.507703
vn -0.789676 0.344455 0.507703
vn -0.789676 0.344455 0.507703
vn -0.789676 0.344455 0.507703
vn -0.789676 0.344455 0.507703
vn -0.789676 0.344455 0.507703
vn -0.789676 0.344455 0.507703
vn -0.789676 0.344455 0.507703
vn -0.789676 0.344455 0.507703
vn -0.789676 0.344455 0.507703
vn -0.789676 0.344455 0.507703
vn -0.789676 0.344455 0.507703
vn -0.789676 0.344455 0.507703
vn -0.789676 0.344455 0.507703
vn -0.789676 0.344455 0.507703
vn -0.789676 0.344455 0.507703
vn -0.789676 0.344455 0.507703
vn -0.789676 0.344455 0.507703
vn -0.789676 0.344455 0.507703
vn -0.789676 0.344455 0.507703
vn -0.789676 0.344455 0.507703
vn -0.789676 0.344455 0.507703
vn -0.789676 0.344455 0.507703
vn -0.789676 0.344455 0.507703
vn -0.789676 0.344455 0.507704
vn -0.789676 0.344455 0.507703
vn -0.789676 0.344455 0.507703
vn -0.789676 0.344455 0.507704
vn -0.789676 0.344455 0.507703
vn -0.789676 0.344455 0.507704
vn -0.789676 0.344455 0.507704
vn -0.789676 0.344455 0.507703
vn -0.789676 0.344455 0.507704
vn -0.789676 0.344455 0.507704
vn -0.789676 0.344455 0.507704
vn -0.789676 0.344455 0.507704
vn -0.247953 0.578044 -0.777422
vn -0.443658 0.250976 -0.860337
vn -0.443658 0.250976 -0.860337
vn -0.247953 0.578044 -0.777422
vn -0.015254 0.817365 -0.575919
vn -0.247953 0.578044 -0.777422
vn -0.247953 0.578044 -0.777422
vn -0.015312 0.817320 -0.575980
vn -0.443658 0.250976 -0.860337
vn -0.572055 -0.114317 -0.812209
vn -0.572055 -0.114317 -0.812209
vn -0.443658 0.250976 -0.860337
vn -0.572055 -0.114317 -0.812209
vn -0.613363 -0.462205 -0.640432
vn -0.613363 -0.462205 -0.640432
vn -0.572055 -0.114317 -0.812209
vn -0.613363 -0.462205 -0.640432
vn -0.561489 -0.739586 -0.371136
vn -0.561489 -0.739586 -0.371136
vn -0.613363 -0.462205 -0.640432
vn -0.561489 -0.739586 -0.371136
vn -0.424889 -0.904121 -0.045106
vn -0.424931 -0.904097 -0.045189
vn -0.561489 -0.739586 -0.371136
vn 0.220452 0.932429 -0.286315
vn -0.015254 0.817365 -0.575919
vn -0.015312 0.817320 -0.575980
vn 0.220452 0.932429 -0.286315
vn -0.424889 -0.904121 -0.045106
vn -0.223008 -0.931201 0.288325
vn -0.223008 -0.931201 0.288325
vn -0.424931 -0.904097 -0.045189
vn 0.423362 0.904785 0.046143
vn 0.220452 0.932429 -0.286315
vn 0.220452 0.932429 -0.286315
vn 0.423366 0.904783 0.046149
vn -0.223008 -0.931201 0.288325
vn 0.013733 -0.816670 0.576942
vn 0.013737 -0.816667 0.576946
vn -0.223008 -0.931201 0.288325
vn 0.613363 0.462206 0.640431
vn 0.561281 0.739728 0.371168
vn 0.561281 0.739728 0.371168
vn 0.613363 0.462206 0.640431
vn 0.561281 0.739728 0.371168
vn 0.423362 0.904785 0.046143
vn 0.423366 0.904783 0.046149
vn 0.561281 0.739728 0.371168
vn 0.572055 0.114317 0.812209
vn 0.613363 0.462206 0.640431
vn 0.613363 0.462206 0.640431
vn 0.572055 0.114317 0.812209
vn 0.443657 -0.250976 0.860337
vn 0.572055 0.114317 0.812209
vn 0.572055 0.114317 0.812209
vn 0.443657 -0.250976 0.860337
vn 0.013733 -0.816670 0.576942
vn 0.247709 -0.578049 0.777496
vn 0.247709 -0.578049 0.777496
vn 0.013737 -0.816667 0.576946
vn 0.247709 -0.578049 0.777496
vn 0.443657 -0.250976 0.860337
vn 0.443657 -0.250976 0.860337
vn 0.247709 -0.578049 0.777496
vn -0.373777 0.397508 -0.838020
vn -0.443349 0.258911 -0.858142
vn -0.443349 0.258911 -0.858142
vn -0.373777 0.397508 -0.838020
vn 0.381956 -0.223537 0.896739
vn 0.192806 -0.516535 0.834277
vn 0.354750 -0.422400 0.834105
vn 0.444701 -0.250983 0.859796
vn 0.569879 0.697702 0.434108
vn 0.569879 0.697702 0.434108
vn 0.569879 0.697702 0.434108
vn 0.569879 0.697702 0.434108
vn -0.443349 0.258911 -0.858142
vn -0.572055 -0.114317 -0.812209
vn -0.572055 -0.114317 -0.812209
vn -0.443349 0.258911 -0.858142
vn 0.509968 0.140333 0.848669
vn 0.381956 -0.223537 0.896739
vn 0.444701 -0.250983 0.859796
vn 0.572055 0.114317 0.812209
vn -0.572055 -0.114317 -0.812209
vn -0.616165 -0.466976 -0.634251
vn -0.616165 -0.466976 -0.634251
vn -0.572055 -0.114317 -0.812209
vn 0.551070 0.486976 0.677626
vn 0.509968 0.140333 0.848669
vn 0.572055 0.114317 0.812209
vn 0.614378 0.461455 0.640000
vn -0.616165 -0.466976 -0.634251
vn -0.608206 -0.587017 -0.534318
vn -0.608206 -0.587017 -0.534318
vn -0.616165 -0.466976 -0.634251
vn 0.280354 -0.516696 0.808966
vn 0.280355 -0.516696 0.808966
vn 0.280354 -0.516696 0.808966
vn 0.280354 -0.516696 0.808966
vn 0.493622 0.747522 0.444465
vn 0.551070 0.486976 0.677626
vn 0.614378 0.461455 0.640000
vn 0.600955 0.611106 0.515172
vn 0.516523 -0.220256 0.827461
vn 0.215816 -0.693468 0.687405
vn 0.259295 -0.722790 0.640579
vn 0.571264 -0.241265 0.784505
vn 0.608113 0.050557 0.792239
vn 0.516523 -0.220256 0.827461
vn 0.571264 -0.241265 0.784505
vn 0.658209 0.027645 0.752328
vn 0.618518 0.093392 0.780201
vn 0.608113 0.050557 0.792239
vn 0.658209 0.027645 0.752328
vn 0.667843 0.069581 0.741043
vn 0.628370 0.135688 0.765990
vn 0.618518 0.093392 0.780201
vn 0.667843 0.069581 0.741043
vn 0.677923 0.110493 0.726782
vn 0.662180 0.391866 0.638717
vn 0.628370 0.135688 0.765990
vn 0.677923 0.110493 0.726782
vn 0.714747 0.361719 0.598578
vn 0.568739 0.789682 0.230083
vn 0.662180 0.391866 0.638717
vn 0.714747 0.361719 0.598578
vn 0.614093 0.768239 0.180827
vn 0.237743 0.913921 -0.328978
vn 0.182713 0.895239 -0.406404
vn 0.111510 0.925991 -0.360701
vn 0.170379 0.943071 -0.285635
vn 0.243643 0.915190 -0.321037
vn 0.237743 0.913921 -0.328978
vn 0.170379 0.943071 -0.285635
vn 0.175987 0.944470 -0.277499
vn 0.261617 0.918595 -0.296208
vn 0.243643 0.915190 -0.321037
vn 0.175987 0.944470 -0.277499
vn 0.193263 0.948184 -0.252182
vn 0.269544 0.920191 -0.283891
vn 0.261617 0.918595 -0.296208
vn 0.193263 0.948184 -0.252182
vn 0.202417 0.949275 -0.240633
vn 0.347193 0.921150 -0.175898
vn 0.269544 0.920191 -0.283891
vn 0.202417 0.949275 -0.240633
vn 0.269073 0.954904 -0.125528
vn 0.568739 0.789682 0.230083
vn 0.347193 0.921150 -0.175898
vn 0.269073 0.954904 -0.125528
vn 0.467464 0.833139 0.295561
vn 0.467464 0.833139 0.295561
vn 0.554967 0.438355 0.707005
vn 0.662180 0.391866 0.638717
vn 0.568739 0.789682 0.230083
vn 0.554967 0.438355 0.707005
vn 0.526105 0.180123 0.831126
vn 0.628370 0.135688 0.765990
vn 0.662180 0.391866 0.638717
vn 0.526105 0.180123 0.831126
vn 0.516917 0.137523 0.844917
vn 0.618518 0.093392 0.780201
vn 0.628370 0.135688 0.765990
vn 0.516917 0.137523 0.844917
vn 0.505841 0.094964 0.857384
vn 0.608113 0.050557 0.792239
vn 0.618518 0.093392 0.780201
vn 0.505841 0.094964 0.857384
vn 0.409343 -0.173628 0.895707
vn 0.516523 -0.220256 0.827461
vn 0.608113 0.050557 0.792239
vn 0.409343 -0.173628 0.895707
vn 0.114886 -0.648567 0.752437
vn 0.215816 -0.693468 0.687405
vn 0.516523 -0.220256 0.827461
vn -0.090000 -0.916142 0.390621
vn 0.215816 -0.693468 0.687405
vn 0.114886 -0.648567 0.752437
vn -0.167968 -0.881752 0.440795
vn -0.173378 -0.941175 0.290053
vn -0.090000 -0.916142 0.390621
vn -0.167968 -0.881752 0.440795
vn -0.240409 -0.911696 0.333187
vn -0.181435 -0.943319 0.277904
vn -0.173378 -0.941175 0.290053
vn -0.240409 -0.911696 0.333187
vn -0.249684 -0.913294 0.321794
vn -0.199398 -0.946679 0.253061
vn -0.181435 -0.943319 0.277904
vn -0.249684 -0.913294 0.321794
vn -0.266952 -0.916976 0.296467
vn -0.205205 -0.947558 0.245000
vn -0.199398 -0.946679 0.253061
vn -0.266952 -0.916976 0.296467
vn -0.272467 -0.917985 0.288211
vn -0.256970 -0.952516 0.163341
vn -0.205205 -0.947558 0.245000
vn -0.272467 -0.917985 0.288211
vn -0.328055 -0.921273 0.208893
vn -0.456817 -0.856627 -0.239809
vn -0.256970 -0.952516 0.163341
vn -0.328055 -0.921273 0.208893
vn -0.550867 -0.815046 -0.179571
vn -0.550867 -0.815046 -0.179571
vn -0.667914 -0.414811 -0.617918
vn -0.562647 -0.461066 -0.686183
vn -0.456817 -0.856627 -0.239809
vn -0.667914 -0.414811 -0.617918
vn -0.634705 -0.134674 -0.760929
vn -0.533114 -0.179166 -0.826855
vn -0.562647 -0.461066 -0.686183
vn -0.634705 -0.134674 -0.760929
vn -0.624534 -0.090580 -0.775727
vn -0.523521 -0.134829 -0.841277
vn -0.533114 -0.179166 -0.826855
vn -0.624534 -0.090580 -0.775727
vn -0.613599 -0.045976 -0.788278
vn -0.512012 -0.090485 -0.854199
vn -0.523521 -0.134829 -0.841277
vn -0.613599 -0.045976 -0.788278
vn -0.509561 0.250662 -0.823113
vn -0.404229 0.204680 -0.891462
vn -0.512012 -0.090485 -0.854199
vn -0.509561 0.250662 -0.823113
vn -0.182784 0.731814 -0.656535
vn -0.088474 0.691321 -0.717111
vn -0.404229 0.204680 -0.891462
vn 0.182713 0.895239 -0.406404
vn -0.088474 0.691321 -0.717111
vn -0.182784 0.731814 -0.656535
vn 0.111510 0.925991 -0.360701
vn 0.170379 0.943071 -0.285635
vn 0.111510 0.925991 -0.360701
vn 0.056587 0.946204 -0.318583
vn 0.116095 0.961326 -0.249750
vn 0.175987 0.944470 -0.277499
vn 0.170379 0.943071 -0.285635
vn 0.116095 0.961326 -0.249750
vn 0.121103 0.962799 -0.241563
vn 0.193263 0.948184 -0.252182
vn 0.175987 0.944470 -0.277499
vn 0.121103 0.962799 -0.241563
vn 0.137344 0.966556 -0.216579
vn 0.202417 0.949275 -0.240633
vn 0.193263 0.948184 -0.252182
vn 0.137344 0.966556 -0.216579
vn 0.145617 0.968101 -0.203904
vn 0.269073 0.954904 -0.125528
vn 0.202417 0.949275 -0.240633
vn 0.145617 0.968101 -0.203904
vn 0.204542 0.974658 -0.090581
vn 0.467464 0.833139 0.295561
vn 0.269073 0.954904 -0.125528
vn 0.204542 0.974658 -0.090581
vn 0.373788 0.867525 0.328152
vn 0.373788 0.867525 0.328152
vn 0.460884 0.467172 0.754544
vn 0.554967 0.438355 0.707005
vn 0.467464 0.833139 0.295561
vn 0.460884 0.467172 0.754544
vn 0.438602 0.212094 0.873295
vn 0.526105 0.180123 0.831126
vn 0.554967 0.438355 0.707005
vn 0.438602 0.212094 0.873295
vn 0.430698 0.170767 0.886193
vn 0.516917 0.137523 0.844917
vn 0.526105 0.180123 0.831126
vn 0.430698 0.170767 0.886193
vn 0.419104 0.130154 0.898561
vn 0.505841 0.094964 0.857384
vn 0.516917 0.137523 0.844917
vn 0.419104 0.130154 0.898561
vn 0.318660 -0.130521 0.938840
vn 0.409343 -0.173628 0.895707
vn 0.505841 0.094964 0.857384
vn 0.318660 -0.130521 0.938840
vn 0.020364 -0.617734 0.786124
vn 0.114886 -0.648567 0.752437
vn 0.409343 -0.173628 0.895707
vn -0.167968 -0.881752 0.440795
vn 0.114886 -0.648567 0.752437
vn 0.020364 -0.617734 0.786124
vn -0.229863 -0.850924 0.472326
vn -0.240409 -0.911696 0.333187
vn -0.167968 -0.881752 0.440795
vn -0.229863 -0.850924 0.472326
vn -0.294723 -0.882425 0.366695
vn -0.249684 -0.913294 0.321794
vn -0.240409 -0.911696 0.333187
vn -0.294723 -0.882425 0.366695
vn -0.303159 -0.884655 0.354231
vn -0.266952 -0.916976 0.296467
vn -0.249684 -0.913294 0.321794
vn -0.303159 -0.884655 0.354231
vn -0.319434 -0.888555 0.329291
vn -0.272467 -0.917985 0.288211
vn -0.266952 -0.916976 0.296467
vn -0.319434 -0.888555 0.329291
vn -0.324383 -0.889784 0.321029
vn -0.328055 -0.921273 0.208893
vn -0.272467 -0.917985 0.288211
vn -0.324383 -0.889784 0.321029
vn -0.380563 -0.890913 0.247882
vn -0.550867 -0.815046 -0.179571
vn -0.328055 -0.921273 0.208893
vn -0.380563 -0.890913 0.247882
vn -0.615006 -0.780145 -0.114636
vn -0.615006 -0.780145 -0.114636
vn -0.744296 -0.370783 -0.555467
vn -0.667914 -0.414811 -0.617918
vn -0.550867 -0.815046 -0.179571
vn -0.744296 -0.370783 -0.555467
vn -0.707526 -0.096821 -0.700023
vn -0.634705 -0.134674 -0.760929
vn -0.667914 -0.414811 -0.617918
vn -0.707526 -0.096821 -0.700023
vn -0.697028 -0.054594 -0.714962
vn -0.624534 -0.090580 -0.775727
vn -0.634705 -0.134674 -0.760929
vn -0.697028 -0.054594 -0.714962
vn -0.687141 -0.011153 -0.726438
vn -0.613599 -0.045976 -0.788278
vn -0.624534 -0.090580 -0.775727
vn -0.687141 -0.011153 -0.726438
vn -0.588670 0.283236 -0.757130
vn -0.509561 0.250662 -0.823113
vn -0.613599 -0.045976 -0.788278
vn -0.588670 0.283236 -0.757130
vn -0.246766 0.767380 -0.591806
vn -0.182784 0.731814 -0.656535
vn -0.509561 0.250662 -0.823113
vn 0.111510 0.925991 -0.360701
vn -0.182784 0.731814 -0.656535
vn -0.246766 0.767380 -0.591806
vn 0.056587 0.946204 -0.318583
s off
g Geometrie_tel Telecommande Enfant Telecommande_Boite
usemtl Oeil_DroitSG
f 67/102/257 68/103/258 75/104/259 74/105/260
f 68/103/261 69/106/262 76/107/263 75/104/264
f 69/106/265 70/108/266 77/109/267 76/107/268
f 70/108/269 71/110/270 78/111/271 77/109/272
f 71/110/273 72/112/274 79/113/275 78/111/276
f 72/112/277 73/114/278 80/115/279 79/113/280
f 74/105/281 75/104/282 82/116/283 81/117/284
f 227/118/285 228/119/286 229/120/287 230/121/288
f 228/119/289 231/122/290 232/123/291 229/120/292
f 231/122/293 233/124/294 234/125/295 232/123/296
f 233/124/297 235/126/298 236/127/299 234/125/300
f 79/113/301 80/115/302 87/128/303 86/129/304
f 81/117/305 82/116/306 89/130/307 88/131/308
f 202/132/309 203/133/310 204/134/311 205/135/312
f 203/133/313 206/136/314 207/137/315 204/134/316
f 206/136/317 208/138/318 209/139/319 207/137/320
f 208/138/321 210/140/322 211/141/323 209/139/324
f 86/129/325 87/128/326 91/142/327 90/143/328
f 88/131/329 89/130/330 93/144/331 92/145/332
f 205/146/333 204/147/334 212/148/335 213/149/336
f 204/134/337 207/137/338 214/150/339 212/151/340
f 207/137/341 209/139/342 215/152/343 214/150/344
f 209/139/345 211/141/346 216/153/347 215/152/348
f 90/143/349 91/142/350 95/154/351 94/155/352
f 92/145/353 93/144/354 97/156/355 96/157/356
f 213/158/357 212/151/358 217/159/359 218/160/360
f 212/151/361 214/150/362 219/161/363 217/159/364
f 214/150/365 215/152/366 220/162/367 219/161/368
f 215/152/369 216/153/370 221/163/371 220/162/372
f 94/155/373 95/154/374 99/164/375 98/165/376
f 96/157/377 97/156/378 101/166/379 100/167/380
f 218/160/381 217/159/382 222/168/383 223/169/384
f 217/159/385 219/161/386 224/170/387 222/168/388
f 219/161/389 220/162/390 225/171/391 224/170/392
f 220/162/393 221/163/394 226/172/395 225/171/396
f 98/165/397 99/164/398 106/173/399 105/174/400
f 100/167/401 101/166/402 108/175/403 107/176/404
f 101/166/405 102/177/406 109/178/407 108/175/408
f 102/177/409 103/179/410 110/180/411 109/178/412
f 103/179/413 104/181/414 111/182/415 110/180/416
f 104/181/417 105/174/418 112/183/419 111/182/420
f 105/174/421 106/173/422 113/184/423 112/183/424
f 256/185/425 257/186/426 115/187/427 114/188/428
f 257/186/429 258/189/430 116/190/431 115/187/432
f 258/189/433 259/191/434 117/192/435 116/190/436
f 259/193/437 260/194/438 118/195/439 117/196/440
f 260/194/441 261/197/442 119/198/443 118/195/444
f 261/197/445 262/199/446 120/200/447 119/198/448
f 114/201/449 115/202/450 122/203/451 121/204/452
f 115/202/453 116/205/454 123/206/455 122/203/456
f 116/205/457 117/207/458 124/208/459 123/206/460
f 117/207/461 118/209/462 125/210/463 124/208/464
f 118/209/465 119/211/466 126/212/467 125/210/468
f 119/211/469 120/213/470 127/214/471 126/212/472
f 121/204/473 122/203/474 129/215/475 128/216/476
f 122/203/477 123/206/478 130/217/479 129/215/480
f 123/206/481 124/208/482 131/218/483 130/217/484
f 124/208/485 125/210/486 132/219/487 131/218/488
f 125/210/489 126/212/490 133/220/491 132/219/492
f 126/212/493 127/214/494 134/221/495 133/220/496
f 128/216/497 129/215/498 136/222/499 135/223/500
f 129/215/501 130/217/502 137/224/503 136/222/504
f 130/217/505 131/218/506 138/225/507 137/224/508
f 131/218/509 132/219/510 139/226/511 138/225/512
f 132/219/513 133/220/514 140/227/515 139/226/516
f 133/220/517 134/221/518 141/228/519 140/227/520
f 135/223/521 136/222/522 143/229/523 142/230/524
f 136/222/525 137/224/526 144/231/527 143/229/528
f 137/224/529 138/225/530 145/232/531 144/231/532
f 138/225/533 139/226/534 146/233/535 145/232/536
f 139/226/537 140/227/538 147/234/539 146/233/540
f 140/227/541 141/228/542 148/235/543 147/234/544
f 142/230/545 143/229/546 150/236/547 149/237/548
f 143/229/549 144/231/550 151/238/551 150/236/552
f 144/231/553 145/232/554 152/239/555 151/238/556
f 145/232/557 146/233/558 153/240/559 152/239/560
f 146/233/561 147/234/562 154/241/563 153/240/564
f 147/234/565 148/235/566 155/242/567 154/241/568
f 149/237/569 150/236/570 157/243/571 156/244/572
f 150/236/573 151/238/574 158/245/575 157/243/576
f 151/238/577 152/239/578 159/246/579 158/245/580
f 152/239/581 153/240/582 160/247/583 159/246/584
f 153/240/585 154/241/586 161/248/587 160/247/588
f 154/241/589 155/242/590 162/249/591 161/248/592
f 156/244/593 157/243/594 164/250/595 163/251/596
f 157/243/597 158/245/598 165/252/599 164/250/600
f 158/245/601 159/246/602 166/253/603 165/252/604
f 159/246/605 160/247/606 167/254/607 166/253/608
f 160/247/609 161/248/610 168/255/611 167/254/612
f 161/248/613 162/249/614 169/256/615 168/255/616
f 127/257/617 120/200/618 262/199/619 237/258/620
f 134/259/621 127/257/622 237/258/623 238/260/624
f 141/261/625 134/259/626 238/260/627 239/262/628
f 148/263/629 141/261/630 239/262/631 240/264/632
f 155/265/633 148/263/634 240/264/635 241/266/636
f 162/267/637 155/265/638 241/266/639 242/268/640
f 169/269/641 162/267/642 242/268/643 243/270/644
f 114/188/645 121/271/646 255/272/647 256/185/648
f 121/271/649 128/273/650 254/274/651 255/272/652
f 128/273/653 135/275/654 253/276/655 254/274/656
f 135/275/657 142/277/658 252/278/659 253/276/660
f 142/277/661 149/279/662 251/280/663 252/278/664
f 149/279/665 156/281/666 250/282/667 251/280/668
f 156/281/669 163/283/670 249/284/671 250/282/672
f 82/285/673 83/286/674 171/287/675 170/288/676
f 89/289/677 82/285/678 170/288/679 172/290/680
f 83/286/681 84/291/682 173/292/683 171/287/684
f 84/291/685 85/293/686 174/294/687 173/292/688
f 85/293/689 86/295/690 175/296/691 174/294/692
f 86/295/693 90/297/694 176/298/695 175/296/696
f 93/299/697 89/289/698 172/290/699 177/300/700
f 90/297/701 94/301/702 178/302/703 176/298/704
f 97/303/705 93/299/706 177/300/707 179/304/708
f 94/301/709 98/305/710 180/306/711 178/302/712
f 102/307/713 101/308/714 182/309/715 181/310/716
f 101/308/717 97/303/718 179/304/719 182/309/720
f 103/311/721 102/307/722 181/310/723 183/312/724
f 104/313/725 103/314/726 183/315/727 184/316/728
f 98/305/729 105/317/730 185/318/731 180/306/732
f 105/317/733 104/313/734 184/316/735 185/318/736
f 170/288/737 171/287/738 187/319/739 186/320/740
f 172/290/741 170/288/742 186/320/743 188/321/744
f 171/287/745 173/292/746 189/322/747 187/319/748
f 173/292/749 174/294/750 190/323/751 189/322/752
f 174/294/753 175/296/754 191/324/755 190/323/756
f 175/296/757 176/298/758 192/325/759 191/324/760
f 177/300/761 172/290/762 188/321/763 193/326/764
f 176/298/765 178/302/766 194/327/767 192/325/768
f 179/304/769 177/300/770 193/326/771 195/328/772
f 178/302/773 180/306/774 196/329/775 194/327/776
f 181/310/777 182/309/778 198/330/779 197/331/780
f 182/309/781 179/304/782 195/328/783 198/330/784
f 183/312/785 181/310/786 197/331/787 199/332/788
f 184/316/789 183/315/790 199/333/791 200/334/792
f 180/306/793 185/318/794 201/335/795 196/329/796
f 185/318/797 184/316/798 200/334/799 201/335/800
f 186/336/801 187/337/802 203/133/803 202/132/804
f 188/338/805 186/336/806 202/132/807 205/135/808
f 187/337/809 189/339/810 206/136/811 203/133/812
f 189/339/813 190/340/814 208/138/815 206/136/816
f 190/340/817 191/341/818 210/140/819 208/138/820
f 191/341/821 192/342/822 211/141/823 210/140/824
f 193/343/825 188/338/826 205/135/827 213/158/828
f 192/342/829 194/344/830 216/153/831 211/141/832
f 195/345/833 193/343/834 213/158/835 218/160/836
f 194/344/837 196/346/838 221/163/839 216/153/840
f 197/347/841 198/348/842 223/169/843 222/168/844
f 198/348/845 195/345/846 218/160/847 223/169/848
f 199/349/849 197/347/850 222/168/851 224/170/852
f 200/350/853 199/349/854 224/170/855 225/171/856
f 196/346/857 201/351/858 226/172/859 221/163/860
f 201/351/861 200/350/862 225/171/863 226/172/864
f 75/352/865 76/353/866 228/119/867 227/118/868
f 83/286/869 82/285/870 230/354/871 229/355/872
f 82/356/873 75/352/874 227/118/875 230/121/876
f 76/353/877 77/357/878 231/122/879 228/119/880
f 84/291/881 83/286/882 229/355/883 232/358/884
f 77/357/885 78/359/886 233/124/887 231/122/888
f 85/293/889 84/291/890 232/358/891 234/360/892
f 78/359/893 79/361/894 235/126/895 233/124/896
f 79/361/897 86/362/898 236/127/899 235/126/900
f 86/295/901 85/293/902 234/360/903 236/363/904
f 248/364/905 249/284/906 163/283/907 164/365/908
f 247/366/909 248/364/910 164/365/911 165/367/912
f 246/368/913 247/366/914 165/367/915 166/369/916
f 245/370/917 246/368/918 166/369/919 167/371/920
f 244/372/921 245/370/922 167/371/923 168/373/924
f 243/270/925 244/372/926 168/373/927 169/269/928
f 238/260/929 237/258/930 263/374/931 264/375/932
f 239/262/933 238/260/934 264/375/935 265/376/936
f 240/264/937 239/262/938 265/376/939 266/377/940
f 241/266/941 240/264/942 266/377/943 267/378/944
f 242/268/945 241/266/946 267/378/947 268/379/948
f 243/270/949 242/268/950 268/379/951 269/380/952
f 269/380/953 270/381/954 244/372/955 243/270/956
f 270/381/957 271/382/958 245/370/959 244/372/960
f 271/382/961 272/383/962 246/368/963 245/370/964
f 272/383/965 273/384/966 247/366/967 246/368/968
f 273/384/969 274/385/970 248/364/971 247/366/972
f 274/385/973 275/386/974 249/284/975 248/364/976
f 250/282/977 249/284/978 275/386/979 276/387/980
f 251/280/981 250/282/982 276/387/983 277/388/984
f 252/278/985 251/280/986 277/388/987 278/389/988
f 253/276/989 252/278/990 278/389/991 279/390/992
f 254/274/993 253/276/994 279/390/995 280/391/996
f 255/272/997 254/274/998 280/391/999 281/392/1000
f 256/185/1001 255/272/1002 281/392/1003 282/393/1004
f 282/393/1005 283/394/1006 257/186/1007 256/185/1008
f 283/394/1009 284/395/1010 258/189/1011 257/186/1012
f 284/395/1013 285/396/1014 259/191/1015 258/189/1016
f 285/397/1017 286/398/1018 260/194/1019 259/193/1020
f 286/398/1021 287/399/1022 261/197/1023 260/194/1024
f 287/399/1025 288/400/1026 262/199/1027 261/197/1028
f 237/258/1029 262/199/1030 288/400/1031 263/374/1032
f 264/375/1033 263/374/1034 106/401/1035 99/402/1036
f 265/376/1037 264/375/1038 99/402/1039 95/403/1040
f 266/377/1041 265/376/1042 95/403/1043 91/404/1044
f 267/378/1045 266/377/1046 91/404/1047 87/405/1048
f 268/379/1049 267/378/1050 87/405/1051 80/406/1052
f 269/380/1053 268/379/1054 80/406/1055 73/407/1056
f 73/407/1057 72/408/1058 270/381/1059 269/380/1060
f 72/408/1061 71/409/1062 271/382/1063 270/381/1064
f 71/409/1065 70/410/1066 272/383/1067 271/382/1068
f 70/410/1069 69/411/1070 273/384/1071 272/383/1072
f 69/411/1073 68/412/1074 274/385/1075 273/384/1076
f 68/412/1077 67/413/1078 275/386/1079 274/385/1080
f 276/387/1081 275/386/1082 67/413/1083 74/414/1084
f 277/388/1085 276/387/1086 74/414/1087 81/415/1088
f 278/389/1089 277/388/1090 81/415/1091 88/416/1092
f 279/390/1093 278/389/1094 88/416/1095 92/417/1096
f 280/391/1097 279/390/1098 92/417/1099 96/418/1100
f 281/392/1101 280/391/1102 96/418/1103 100/419/1104
f 282/393/1105 281/392/1106 100/419/1107 107/420/1108
f 107/420/1109 108/421/1110 283/394/1111 282/393/1112
f 108/421/1113 109/422/1114 284/395/1115 283/394/1116
f 109/422/1117 110/423/1118 285/396/1119 284/395/1120
f 110/424/1121 111/425/1122 286/398/1123 285/397/1124
f 111/425/1125 112/426/1126 287/399/1127 286/398/1128
f 112/426/1129 113/427/1130 288/400/1131 287/399/1132
f 263/374/1133 288/400/1134 113/427/1135 106/401/1136
