# This file uses centimeters as units for non-parametric coordinates.

g default
v 2146.810868 -48.387622 1897.768507
v 2280.690779 -48.387622 1930.922388
v 2414.782812 -48.387622 1982.229699
v 2549.891492 -48.387622 2058.037450
v 2688.560473 -48.387622 2103.439920
v 2828.993088 -48.387622 2146.537682
v 2969.849574 -48.387622 2121.990064
v 3109.077152 -48.387622 2079.564516
v 3244.151782 -48.387622 1993.347415
v 3377.704830 -48.387622 1930.922388
v 3511.647522 -48.387622 1897.768507
v 2440.789902 69.482776 1487.777973
v 2519.399303 69.482776 1496.498972
v 2597.288886 69.482776 1513.575518
v 2674.500546 69.482776 1539.700731
v 2751.697306 69.482776 1569.163809
v 2830.064187 69.482776 1597.388037
v 2908.687615 69.482776 1578.630860
v 2986.014878 69.482776 1545.405826
v 3062.975036 69.482776 1515.622319
v 3140.753396 69.482776 1496.498972
v 3219.660017 69.482776 1487.777973
v 2449.744976 69.482776 1386.632920
v 2529.101207 69.482776 1393.737247
v 2607.379678 69.482776 1402.913644
v 2684.242261 69.482776 1418.195253
v 2761.718421 69.482776 1439.753580
v 2840.271866 69.482776 1463.646581
v 2919.191060 69.482776 1456.166590
v 2996.779694 69.482776 1429.977128
v 3073.338788 69.482776 1407.403288
v 3150.796528 69.482776 1393.817510
v 3230.587013 69.482776 1386.632920
v 2497.052343 69.482776 1285.487842
v 2569.823854 69.482776 1289.967872
v 2642.931171 69.482776 1293.798583
v 2715.879058 69.482776 1305.464595
v 2789.466333 69.482776 1322.022093
v 2864.178907 69.482776 1340.313683
v 2938.666689 69.482776 1329.633266
v 3012.051443 69.482776 1311.899081
v 3084.647034 69.482776 1297.977292
v 3157.218664 69.482776 1289.967872
v 3229.883932 69.482776 1285.487842
v 2549.978676 69.482776 1184.342884
v 2617.050816 69.482776 1186.878312
v 2684.096389 69.482776 1192.361605
v 2751.598807 69.482776 1200.387135
v 2819.645619 69.482776 1210.705553
v 2888.535738 69.482776 1219.365060
v 2956.625845 69.482776 1207.777298
v 3023.846269 69.482776 1197.347163
v 3090.611595 69.482776 1189.928472
v 3157.692000 69.482776 1186.878312
v 3224.595950 69.482776 1184.342884
v 2588.726116 69.482776 1083.197890
v 2650.267232 69.482776 1084.265198
v 2711.663023 69.482776 1087.308526
v 2773.500628 69.482776 1090.947210
v 2835.913262 69.482776 1095.595282
v 2898.996473 69.482776 1099.354493
v 2961.240748 69.482776 1094.095998
v 3022.784686 69.482776 1089.416508
v 3083.987558 69.482776 1085.990684
v 3145.318299 69.482776 1084.265198
v 3206.689114 69.482776 1083.197890
v 2614.210673 69.482776 982.052884
v 2670.722597 69.482776 982.052884
v 2727.124992 69.482776 982.052884
v 2783.878602 69.482776 982.052883
v 2841.085928 69.482776 982.052883
v 2898.937061 69.482776 982.052882
v 2956.040726 69.482776 982.052883
v 3012.589150 69.482776 982.052883
v 3068.846820 69.482776 982.052884
v 3124.836289 69.482776 982.052884
v 3181.204530 69.482776 982.052884
v 2634.899877 69.482776 880.907878
v 2687.313102 69.482776 880.133046
v 2739.659543 69.482776 877.891556
v 2792.269747 69.482776 875.077702
v 2845.269544 69.482776 871.259505
v 2898.828920 69.482776 866.851622
v 2951.685049 69.482776 871.259505
v 3004.075676 69.482776 875.077702
v 3056.236935 69.482776 877.891556
v 3108.225748 69.482776 880.133046
v 3160.515352 69.482776 880.907878
v 2643.535335 69.482776 779.762885
v 2694.237474 69.482776 778.312517
v 2744.873259 69.482776 774.107845
v 2795.748039 69.482776 768.463211
v 2847.006418 69.482776 760.941985
v 2898.802570 69.482776 752.310983
v 2949.910207 69.482776 760.941985
v 3000.568594 69.482776 768.463211
v 3050.993080 69.482776 774.107845
v 3101.293463 69.482776 778.312517
v 3151.879894 69.482776 779.762885
v 2636.765009 69.482776 678.617951
v 2688.806735 69.482776 676.293393
v 2740.778262 69.482776 669.693898
v 2793.013442 69.482776 661.301695
v 2845.637848 69.482776 649.916172
v 2898.820534 69.482776 636.764480
v 2951.303796 69.482776 649.916172
v 3003.322700 69.482776 661.301695
v 3055.111567 69.482776 669.693898
v 3106.732101 69.482776 676.293393
v 3158.650220 69.482776 678.617951
v 2632.488278 69.482776 577.472873
v 2678.932666 69.482776 575.035353
v 2731.136220 69.482776 566.727752
v 2786.547531 69.482776 555.093889
v 2842.383918 69.482776 539.017321
v 2898.846376 69.482776 520.372531
v 2954.565167 69.482776 539.017321
v 3009.760322 69.482776 555.093889
v 3064.707606 69.482776 566.727752
v 3115.364366 69.482776 574.906280
v 3162.926977 69.482776 577.472873
v 2618.728804 69.482776 476.327819
v 2669.881699 69.482776 472.634236
v 2723.221285 69.482776 461.246292
v 2779.937847 69.482776 446.363361
v 2839.078229 69.482776 425.958539
v 2898.895686 69.482776 401.861716
v 2957.944203 69.482776 425.958539
v 3016.433531 69.482776 446.363361
v 3072.079763 69.482776 461.136542
v 3124.937396 69.482776 472.634236
v 3176.686425 69.482776 476.327819
v 2363.045306 -48.387622 60.650218
v 2471.031383 -48.387622 39.122193
v 2578.383756 -48.387622 -18.359134
v 2687.352079 -48.387622 -83.897636
v 2798.555142 -48.387622 -110.423540
v 2910.715456 -48.387622 -149.987910
v 3022.058844 -48.387622 -110.423540
v 3132.714254 -48.387622 -83.897636
v 3240.329328 -48.387622 -18.359134
v 3346.494882 -48.387622 39.122193
v 3454.036433 -48.387622 60.650218
v 2373.924695 -48.387622 244.362229
v 2479.643793 -48.387622 227.849681
v 2584.962297 -48.387622 183.434197
v 2691.918664 -48.387622 137.014919
v 2800.619412 -48.387622 87.333388
v 2911.057351 -48.387622 49.357400
v 3020.515166 -48.387622 87.333388
v 3127.933657 -48.387622 137.014919
v 3233.691968 -48.387622 183.434197
v 3337.864091 -48.387622 227.849681
v 3443.157044 -48.387622 244.362229
v 2419.574306 -48.387622 428.073952
v 2516.580070 -48.387622 417.637177
v 2613.123396 -48.387622 389.109733
v 2710.904187 -48.387622 357.687164
v 2810.111482 -48.387622 321.342807
v 2910.913094 -48.387622 290.204371
v 3010.643169 -48.387622 321.342807
v 3108.599749 -48.387622 357.687164
v 3205.299168 -48.387622 389.109733
v 3300.860809 -48.387622 417.637177
v 3397.507485 -48.387622 428.073952
v 2446.882489 -48.387622 611.785820
v 2538.558764 -48.387622 605.567981
v 2629.847507 -48.387622 588.396284
v 2722.084823 -48.387622 566.750335
v 2815.725441 -48.387622 542.659889
v 2910.863020 -48.387622 521.813333
v 3004.924531 -48.387622 542.659889
v 3097.321617 -48.387622 566.750335
v 3188.441622 -48.387622 588.396284
v 3278.843919 -48.387622 605.567981
v 3370.199250 -48.387622 611.785820
v 2420.750358 -48.387622 795.497579
v 2516.598529 -48.387622 792.099996
v 2613.145636 -48.387622 782.650913
v 2710.917001 -48.387622 772.181894
v 2810.113633 -48.387622 760.041448
v 2910.909221 -48.387622 749.616276
v 3010.628517 -48.387622 760.041448
v 3108.571826 -48.387622 772.181894
v 3205.262381 -48.387622 782.650913
v 3300.834033 -48.387622 792.099996
v 3396.331485 -48.387622 795.497579
v 2381.653085 -48.387622 979.209347
v 2476.257183 -48.387622 979.209347
v 2583.257143 -48.387622 979.209349
v 2690.754345 -48.387622 979.209350
v 2799.992676 -48.387622 979.209351
v 2911.035929 -48.387622 979.209352
v 3021.051413 -48.387622 979.209351
v 3128.974109 -48.387622 979.209350
v 3235.272708 -48.387622 979.209349
v 3338.322800 -48.387622 979.209347
v 3435.428706 -48.387622 979.209347
v 2336.261481 -48.387622 1162.921098
v 2454.424570 -48.387622 1168.061884
v 2568.111295 -48.387622 1178.421680
v 2680.489628 -48.387622 1191.427601
v 2794.880483 -48.387622 1204.510897
v 2911.124814 -48.387622 1212.979287
v 3026.394537 -48.387622 1203.747799
v 3139.304971 -48.387622 1190.339400
v 3250.179528 -48.387622 1177.300683
v 3362.093651 -48.387622 1168.155751
v 3480.820153 -48.387622 1162.921098
v 2282.484161 -48.387622 1346.632953
v 2434.948909 -48.387622 1363.486235
v 2557.689103 -48.387622 1382.597883
v 2674.142840 -48.387622 1410.264898
v 2791.776493 -48.387622 1435.695074
v 2911.172805 -48.387622 1448.608110
v 3029.630047 -48.387622 1431.617005
v 3145.596826 -48.387622 1404.452162
v 3259.307120 -48.387622 1377.096993
v 3380.012193 -48.387622 1359.837075
v 3513.644734 -48.387622 1346.632953
v 2261.537836 -48.387622 1530.344629
v 2408.266087 -48.387622 1553.880138
v 2528.521342 -48.387622 1586.771845
v 2650.228958 -48.387622 1630.087766
v 2774.442541 -48.387622 1668.567051
v 2900.639508 -48.387622 1685.574218
v 3026.067569 -48.387622 1662.481785
v 3148.779945 -48.387622 1620.036675
v 3268.837262 -48.387622 1575.954756
v 3388.373505 -48.387622 1547.414606
v 3512.163172 -48.387622 1530.344629
v 2185.448858 -48.387622 1714.056736
v 2316.994030 -48.387622 1739.624759
v 2449.368602 -48.387622 1770.631772
v 2582.056036 -48.387622 1830.098194
v 2717.560683 -48.387622 1890.239227
v 2855.830080 -48.387622 1921.748628
v 2994.276889 -48.387622 1904.653958
v 3129.918068 -48.387622 1848.516388
v 3262.144004 -48.387622 1782.449464
v 3393.517284 -48.387622 1739.667911
v 3525.000717 -48.387622 1714.056736
vt 0.375000 0.000000
vt 0.400000 0.000000
vt 0.425000 0.000000
vt 0.450000 0.000000
vt 0.475000 0.000000
vt 0.500000 0.000000
vt 0.525000 0.000000
vt 0.550000 0.000000
vt 0.575000 0.000000
vt 0.600000 0.000000
vt 0.625000 0.000000
vt 0.375000 0.250000
vt 0.400000 0.250000
vt 0.425000 0.250000
vt 0.450000 0.250000
vt 0.475000 0.250000
vt 0.500000 0.250000
vt 0.525000 0.250000
vt 0.550000 0.250000
vt 0.575000 0.250000
vt 0.600000 0.250000
vt 0.625000 0.250000
vt 0.375000 0.275000
vt 0.400000 0.275000
vt 0.425000 0.275000
vt 0.450000 0.275000
vt 0.475000 0.275000
vt 0.500000 0.275000
vt 0.525000 0.275000
vt 0.550000 0.275000
vt 0.575000 0.275000
vt 0.600000 0.275000
vt 0.625000 0.275000
vt 0.375000 0.300000
vt 0.400000 0.300000
vt 0.425000 0.300000
vt 0.450000 0.300000
vt 0.475000 0.300000
vt 0.500000 0.300000
vt 0.525000 0.300000
vt 0.550000 0.300000
vt 0.575000 0.300000
vt 0.600000 0.300000
vt 0.625000 0.300000
vt 0.375000 0.325000
vt 0.400000 0.325000
vt 0.425000 0.325000
vt 0.450000 0.325000
vt 0.475000 0.325000
vt 0.500000 0.325000
vt 0.525000 0.325000
vt 0.550000 0.325000
vt 0.575000 0.325000
vt 0.600000 0.325000
vt 0.625000 0.325000
vt 0.375000 0.350000
vt 0.400000 0.350000
vt 0.425000 0.350000
vt 0.450000 0.350000
vt 0.475000 0.350000
vt 0.500000 0.350000
vt 0.525000 0.350000
vt 0.550000 0.350000
vt 0.575000 0.350000
vt 0.600000 0.350000
vt 0.625000 0.350000
vt 0.375000 0.375000
vt 0.400000 0.375000
vt 0.425000 0.375000
vt 0.450000 0.375000
vt 0.475000 0.375000
vt 0.500000 0.375000
vt 0.525000 0.375000
vt 0.550000 0.375000
vt 0.575000 0.375000
vt 0.600000 0.375000
vt 0.625000 0.375000
vt 0.375000 0.400000
vt 0.400000 0.400000
vt 0.425000 0.400000
vt 0.450000 0.400000
vt 0.475000 0.400000
vt 0.500000 0.400000
vt 0.525000 0.400000
vt 0.550000 0.400000
vt 0.575000 0.400000
vt 0.600000 0.400000
vt 0.625000 0.400000
vt 0.375000 0.425000
vt 0.400000 0.425000
vt 0.425000 0.425000
vt 0.450000 0.425000
vt 0.475000 0.425000
vt 0.500000 0.425000
vt 0.525000 0.425000
vt 0.550000 0.425000
vt 0.575000 0.425000
vt 0.600000 0.425000
vt 0.625000 0.425000
vt 0.375000 0.450000
vt 0.400000 0.450000
vt 0.425000 0.450000
vt 0.450000 0.450000
vt 0.475000 0.450000
vt 0.500000 0.450000
vt 0.525000 0.450000
vt 0.550000 0.450000
vt 0.575000 0.450000
vt 0.600000 0.450000
vt 0.625000 0.450000
vt 0.375000 0.475000
vt 0.400000 0.475000
vt 0.425000 0.475000
vt 0.450000 0.475000
vt 0.475000 0.475000
vt 0.500000 0.475000
vt 0.525000 0.475000
vt 0.550000 0.475000
vt 0.575000 0.475000
vt 0.600000 0.475000
vt 0.625000 0.475000
vt 0.375000 0.500000
vt 0.400000 0.500000
vt 0.425000 0.500000
vt 0.450000 0.500000
vt 0.475000 0.500000
vt 0.500000 0.500000
vt 0.525000 0.500000
vt 0.550000 0.500000
vt 0.575000 0.500000
vt 0.600000 0.500000
vt 0.625000 0.500000
vt 0.375000 0.750000
vt 0.400000 0.750000
vt 0.425000 0.750000
vt 0.450000 0.750000
vt 0.475000 0.750000
vt 0.500000 0.750000
vt 0.525000 0.750000
vt 0.550000 0.750000
vt 0.575000 0.750000
vt 0.600000 0.750000
vt 0.625000 0.750000
vt 0.375000 0.775000
vt 0.400000 0.775000
vt 0.425000 0.775000
vt 0.450000 0.775000
vt 0.475000 0.775000
vt 0.500000 0.775000
vt 0.525000 0.775000
vt 0.550000 0.775000
vt 0.575000 0.775000
vt 0.600000 0.775000
vt 0.625000 0.775000
vt 0.375000 0.800000
vt 0.400000 0.800000
vt 0.425000 0.800000
vt 0.450000 0.800000
vt 0.475000 0.800000
vt 0.500000 0.800000
vt 0.525000 0.800000
vt 0.550000 0.800000
vt 0.575000 0.800000
vt 0.600000 0.800000
vt 0.625000 0.800000
vt 0.375000 0.825000
vt 0.400000 0.825000
vt 0.425000 0.825000
vt 0.450000 0.825000
vt 0.475000 0.825000
vt 0.500000 0.825000
vt 0.525000 0.825000
vt 0.550000 0.825000
vt 0.575000 0.825000
vt 0.600000 0.825000
vt 0.625000 0.825000
vt 0.375000 0.850000
vt 0.400000 0.850000
vt 0.425000 0.850000
vt 0.450000 0.850000
vt 0.475000 0.850000
vt 0.500000 0.850000
vt 0.525000 0.850000
vt 0.550000 0.850000
vt 0.575000 0.850000
vt 0.600000 0.850000
vt 0.625000 0.850000
vt 0.375000 0.875000
vt 0.400000 0.875000
vt 0.425000 0.875000
vt 0.450000 0.875000
vt 0.475000 0.875000
vt 0.500000 0.875000
vt 0.525000 0.875000
vt 0.550000 0.875000
vt 0.575000 0.875000
vt 0.600000 0.875000
vt 0.625000 0.875000
vt 0.375000 0.900000
vt 0.400000 0.900000
vt 0.425000 0.900000
vt 0.450000 0.900000
vt 0.475000 0.900000
vt 0.500000 0.900000
vt 0.525000 0.900000
vt 0.550000 0.900000
vt 0.575000 0.900000
vt 0.600000 0.900000
vt 0.625000 0.900000
vt 0.375000 0.925000
vt 0.400000 0.925000
vt 0.425000 0.925000
vt 0.450000 0.925000
vt 0.475000 0.925000
vt 0.500000 0.925000
vt 0.525000 0.925000
vt 0.550000 0.925000
vt 0.575000 0.925000
vt 0.600000 0.925000
vt 0.625000 0.925000
vt 0.375000 0.950000
vt 0.400000 0.950000
vt 0.425000 0.950000
vt 0.450000 0.950000
vt 0.475000 0.950000
vt 0.500000 0.950000
vt 0.525000 0.950000
vt 0.550000 0.950000
vt 0.575000 0.950000
vt 0.600000 0.950000
vt 0.625000 0.950000
vt 0.375000 0.975000
vt 0.400000 0.975000
vt 0.425000 0.975000
vt 0.450000 0.975000
vt 0.475000 0.975000
vt 0.500000 0.975000
vt 0.525000 0.975000
vt 0.550000 0.975000
vt 0.575000 0.975000
vt 0.600000 0.975000
vt 0.625000 0.975000
vt 0.375000 1.000000
vt 0.400000 1.000000
vt 0.425000 1.000000
vt 0.450000 1.000000
vt 0.475000 1.000000
vt 0.500000 1.000000
vt 0.525000 1.000000
vt 0.550000 1.000000
vt 0.575000 1.000000
vt 0.600000 1.000000
vt 0.625000 1.000000
vt 0.875000 0.000000
vt 0.850000 0.000000
vt 0.825000 0.000000
vt 0.800000 0.000000
vt 0.775000 0.000000
vt 0.750000 0.000000
vt 0.725000 0.000000
vt 0.700000 0.000000
vt 0.675000 0.000000
vt 0.650000 0.000000
vt 0.875000 0.250000
vt 0.850000 0.250000
vt 0.825000 0.250000
vt 0.800000 0.250000
vt 0.775000 0.250000
vt 0.750000 0.250000
vt 0.725000 0.250000
vt 0.700000 0.250000
vt 0.675000 0.250000
vt 0.650000 0.250000
vt 0.125000 0.000000
vt 0.150000 0.000000
vt 0.175000 0.000000
vt 0.200000 0.000000
vt 0.225000 0.000000
vt 0.250000 0.000000
vt 0.275000 0.000000
vt 0.300000 0.000000
vt 0.325000 0.000000
vt 0.350000 0.000000
vt 0.125000 0.250000
vt 0.150000 0.250000
vt 0.175000 0.250000
vt 0.200000 0.250000
vt 0.225000 0.250000
vt 0.250000 0.250000
vt 0.275000 0.250000
vt 0.300000 0.250000
vt 0.325000 0.250000
vt 0.350000 0.250000
vn -0.047438 0.969435 0.240718
vn -0.055411 0.970647 0.234037
vn -0.064824 0.971942 0.226110
vn -0.047438 0.969435 0.240718
vn -0.081944 0.973561 0.213224
vn -0.088484 0.973981 0.208641
vn -0.085760 0.975208 0.203999
vn -0.082566 0.975397 0.204413
vn -0.069686 0.975849 0.207032
vn -0.069624 0.975845 0.207074
vn -0.012214 0.977894 0.208745
vn -0.014197 0.977868 0.208739
vn 0.056631 0.977130 0.204964
vn 0.055747 0.977137 0.205172
vn 0.090455 0.976006 0.198064
vn 0.086704 0.976207 0.198750
vn 0.092910 0.974186 0.205743
vn 0.098403 0.974533 0.201500
vn 0.059753 0.971014 0.231432
vn 0.073188 0.972520 0.221015
vn 0.047401 0.969382 0.240937
vn 0.047401 0.969382 0.240937
vn 0.000000 1.000000 0.000000
vn 0.000000 1.000000 0.000000
vn 0.000000 1.000000 -0.000000
vn 0.000000 1.000000 0.000000
vn 0.000000 1.000000 -0.000000
vn 0.000000 1.000000 -0.000000
vn 0.000000 1.000000 0.000000
vn 0.000000 1.000000 0.000000
vn 0.000000 1.000000 0.000000
vn 0.000000 1.000000 0.000000
vn 0.000000 1.000000 -0.000000
vn 0.000000 1.000000 0.000000
vn 0.000000 1.000000 0.000000
vn 0.000000 1.000000 0.000000
vn 0.000000 1.000000 0.000000
vn 0.000000 1.000000 -0.000000
vn 0.000000 1.000000 0.000000
vn 0.000000 1.000000 0.000000
vn 0.000000 1.000000 0.000000
vn 0.000000 1.000000 -0.000000
vn 0.000000 1.000000 0.000000
vn 0.000000 1.000000 -0.000000
vn 0.000000 1.000000 -0.000000
vn 0.000000 1.000000 -0.000000
vn 0.000000 1.000000 0.000000
vn 0.000000 1.000000 0.000000
vn 0.000000 1.000000 0.000000
vn 0.000000 1.000000 0.000000
vn 0.000000 1.000000 -0.000000
vn 0.000000 1.000000 0.000000
vn 0.000000 1.000000 -0.000000
vn 0.000000 1.000000 -0.000000
vn 0.000000 1.000000 -0.000000
vn 0.000000 1.000000 -0.000000
vn 0.000000 1.000000 -0.000000
vn 0.000000 1.000000 -0.000000
vn 0.000000 1.000000 0.000000
vn 0.000000 1.000000 -0.000000
vn 0.000000 1.000000 -0.000000
vn 0.000000 1.000000 0.000000
vn 0.000000 1.000000 -0.000000
vn 0.000000 1.000000 -0.000000
vn 0.000000 1.000000 0.000000
vn 0.000000 1.000000 -0.000000
vn 0.000000 1.000000 -0.000000
vn 0.000000 1.000000 -0.000000
vn 0.000000 1.000000 0.000000
vn 0.000000 1.000000 0.000000
vn 0.000000 1.000000 -0.000000
vn 0.000000 1.000000 0.000000
vn 0.000000 1.000000 0.000000
vn 0.000000 1.000000 -0.000000
vn 0.000000 1.000000 0.000000
vn 0.000000 1.000000 0.000000
vn 0.000000 1.000000 -0.000000
vn 0.000000 1.000000 -0.000000
vn 0.000000 1.000000 -0.000000
vn 0.000000 1.000000 0.000000
vn 0.000000 1.000000 0.000000
vn 0.000000 1.000000 -0.000000
vn 0.000000 1.000000 -0.000000
vn 0.000000 1.000000 -0.000000
vn 0.000000 1.000000 0.000000
vn 0.000000 1.000000 0.000000
vn 0.000000 1.000000 0.000000
vn 0.000000 1.000000 0.000000
vn 0.000000 1.000000 -0.000000
vn 0.000000 1.000000 0.000000
vn 0.000000 1.000000 -0.000000
vn 0.000000 1.000000 0.000000
vn 0.000000 1.000000 -0.000000
vn 0.000000 1.000000 -0.000000
vn 0.000000 1.000000 -0.000000
vn 0.000000 1.000000 -0.000000
vn 0.000000 1.000000 0.000000
vn 0.000000 1.000000 0.000000
vn 0.000000 1.000000 0.000000
vn 0.000000 1.000000 -0.000000
vn 0.000000 1.000000 0.000000
vn 0.000000 1.000000 0.000000
vn 0.000000 1.000000 0.000000
vn 0.000000 1.000000 0.000000
vn 0.000000 1.000000 0.000000
vn 0.000000 1.000000 0.000000
vn 0.000000 1.000000 -0.000000
vn 0.000000 1.000000 -0.000000
vn 0.000000 1.000000 0.000000
vn 0.000000 1.000000 0.000000
vn 0.000000 1.000000 -0.000000
vn 0.000000 1.000000 -0.000000
vn 0.000000 1.000000 0.000000
vn 0.000000 1.000000 -0.000000
vn 0.000000 1.000000 -0.000000
vn 0.000000 1.000000 0.000000
vn 0.000000 1.000000 -0.000000
vn 0.000000 1.000000 -0.000000
vn 0.000000 1.000000 -0.000000
vn 0.000000 1.000000 -0.000000
vn 0.000000 1.000000 -0.000000
vn 0.000000 1.000000 -0.000000
vn 0.000000 1.000000 0.000000
vn 0.000000 1.000000 -0.000000
vn 0.000000 1.000000 -0.000000
vn 0.000000 1.000000 -0.000000
vn 0.000000 1.000000 -0.000000
vn 0.000000 1.000000 0.000000
vn 0.000000 1.000000 -0.000000
vn 0.000000 1.000000 -0.000000
vn 0.000000 1.000000 -0.000000
vn 0.000000 1.000000 -0.000000
vn 0.000000 1.000000 0.000000
vn 0.000000 1.000000 0.000000
vn 0.000000 1.000000 -0.000000
vn 0.000000 1.000000 -0.000000
vn 0.000000 1.000000 -0.000000
vn 0.000000 1.000000 0.000000
vn 0.000000 1.000000 0.000000
vn 0.000000 1.000000 -0.000000
vn 0.000000 1.000000 0.000000
vn 0.000000 1.000000 0.000000
vn 0.000000 1.000000 -0.000000
vn -0.039260 0.968036 -0.247719
vn -0.077735 0.971252 -0.225006
vn -0.060124 0.970020 -0.235470
vn -0.039260 0.968036 -0.247719
vn -0.096698 0.973239 -0.208461
vn -0.095575 0.972899 -0.210555
vn -0.076359 0.975444 -0.206589
vn -0.079385 0.975272 -0.206259
vn -0.067105 0.975639 -0.208869
vn -0.067606 0.975601 -0.208882
vn -0.001558 0.978087 -0.208192
vn 0.002024 0.978102 -0.208118
vn 0.067209 0.976221 -0.206095
vn 0.066802 0.976248 -0.206100
vn 0.075015 0.976192 -0.203522
vn 0.079828 0.975965 -0.202782
vn 0.096117 0.974224 -0.204080
vn 0.094758 0.973816 -0.206649
vn 0.078028 0.972148 -0.220998
vn 0.058839 0.970614 -0.233336
vn 0.038947 0.968493 -0.245978
vn 0.038947 0.968493 -0.245978
vn 0.000000 -1.000000 -0.000000
vn 0.000000 -1.000000 -0.000000
vn 0.000000 -1.000000 0.000000
vn 0.000000 -1.000000 0.000000
vn 0.000000 -1.000000 0.000000
vn 0.000000 -1.000000 0.000000
vn 0.000000 -1.000000 0.000000
vn 0.000000 -1.000000 0.000000
vn 0.000000 -1.000000 0.000000
vn 0.000000 -1.000000 0.000000
vn 0.000000 -1.000000 -0.000000
vn 0.000000 -1.000000 0.000000
vn 0.000000 -1.000000 -0.000000
vn 0.000000 -1.000000 0.000000
vn 0.000000 -1.000000 0.000000
vn 0.000000 -1.000000 0.000000
vn 0.000000 -1.000000 0.000000
vn 0.000000 -1.000000 0.000000
vn 0.000000 -1.000000 -0.000000
vn 0.000000 -1.000000 -0.000000
vn 0.000000 -1.000000 -0.000000
vn 0.000000 -1.000000 -0.000000
vn 0.000000 -1.000000 -0.000000
vn 0.000000 -1.000000 0.000000
vn 0.000000 -1.000000 -0.000000
vn 0.000000 -1.000000 -0.000000
vn 0.000000 -1.000000 0.000000
vn 0.000000 -1.000000 0.000000
vn 0.000000 -1.000000 0.000000
vn 0.000000 -1.000000 0.000000
vn 0.000000 -1.000000 -0.000000
vn 0.000000 -1.000000 -0.000000
vn 0.000000 -1.000000 -0.000000
vn 0.000000 -1.000000 -0.000000
vn 0.000000 -1.000000 -0.000000
vn 0.000000 -1.000000 -0.000000
vn 0.000000 -1.000000 0.000000
vn 0.000000 -1.000000 -0.000000
vn 0.000000 -1.000000 -0.000000
vn 0.000000 -1.000000 -0.000000
vn 0.000000 -1.000000 0.000000
vn 0.000000 -1.000000 0.000000
vn 0.000000 -1.000000 -0.000000
vn 0.000000 -1.000000 -0.000000
vn 0.000000 -1.000000 0.000000
vn 0.000000 -1.000000 0.000000
vn 0.000000 -1.000000 -0.000000
vn 0.000000 -1.000000 -0.000000
vn 0.000000 -1.000000 0.000000
vn 0.000000 -1.000000 -0.000000
vn 0.000000 -1.000000 -0.000000
vn 0.000000 -1.000000 -0.000000
vn 0.000000 -1.000000 0.000000
vn 0.000000 -1.000000 0.000000
vn 0.000000 -1.000000 0.000000
vn 0.000000 -1.000000 0.000000
vn 0.000000 -1.000000 0.000000
vn 0.000000 -1.000000 -0.000000
vn 0.000000 -1.000000 -0.000000
vn 0.000000 -1.000000 0.000000
vn 0.000000 -1.000000 0.000000
vn 0.000000 -1.000000 -0.000000
vn 0.000000 -1.000000 -0.000000
vn 0.000000 -1.000000 -0.000000
vn 0.000000 -1.000000 -0.000000
vn 0.000000 -1.000000 -0.000000
vn 0.000000 -1.000000 -0.000000
vn 0.000000 -1.000000 -0.000000
vn 0.000000 -1.000000 -0.000000
vn 0.000000 -1.000000 0.000000
vn 0.000000 -1.000000 0.000000
vn 0.000000 -1.000000 -0.000000
vn 0.000000 -1.000000 0.000000
vn 0.000000 -1.000000 0.000000
vn 0.000000 -1.000000 0.000000
vn 0.000000 -1.000000 0.000000
vn 0.000000 -1.000000 0.000000
vn 0.000000 -1.000000 0.000000
vn 0.000000 -1.000000 0.000000
vn 0.000000 -1.000000 0.000000
vn 0.000000 -1.000000 -0.000000
vn 0.000000 -1.000000 -0.000000
vn 0.000000 -1.000000 -0.000000
vn 0.000000 -1.000000 -0.000000
vn 0.000000 -1.000000 0.000000
vn 0.000000 -1.000000 0.000000
vn 0.000000 -1.000000 0.000000
vn 0.000000 -1.000000 0.000000
vn 0.000000 -1.000000 -0.000000
vn 0.000000 -1.000000 0.000000
vn 0.000000 -1.000000 -0.000000
vn 0.000000 -1.000000 0.000000
vn 0.000000 -1.000000 -0.000000
vn 0.000000 -1.000000 0.000000
vn 0.000000 -1.000000 0.000000
vn 0.000000 -1.000000 -0.000000
vn 0.000000 -1.000000 -0.000000
vn 0.000000 -1.000000 0.000000
vn 0.000000 -1.000000 0.000000
vn 0.000000 -1.000000 -0.000000
vn 0.000000 -1.000000 -0.000000
vn 0.000000 -1.000000 -0.000000
vn 0.000000 -1.000000 -0.000000
vn 0.000000 -1.000000 0.000000
vn 0.000000 -1.000000 -0.000000
vn 0.000000 -1.000000 -0.000000
vn 0.000000 -1.000000 0.000000
vn 0.000000 -1.000000 0.000000
vn 0.000000 -1.000000 -0.000000
vn 0.000000 -1.000000 -0.000000
vn 0.000000 -1.000000 0.000000
vn 0.000000 -1.000000 0.000000
vn 0.000000 -1.000000 -0.000000
vn 0.000000 -1.000000 -0.000000
vn 0.000000 -1.000000 0.000000
vn 0.000000 -1.000000 0.000000
vn 0.000000 -1.000000 -0.000000
vn 0.000000 -1.000000 -0.000000
vn 0.000000 -1.000000 0.000000
vn 0.000000 -1.000000 -0.000000
vn 0.000000 -1.000000 -0.000000
vn 0.443465 0.895050 0.047169
vn 0.431226 0.901473 0.037299
vn 0.431226 0.901473 0.037299
vn 0.473404 0.877922 0.071702
vn 0.493015 0.866400 0.079293
vn 0.497099 0.864999 0.068335
vn 0.473682 0.880628 0.010906
vn 0.459703 0.887966 -0.013774
vn 0.427020 0.901360 -0.072137
vn 0.427956 0.901062 -0.070291
vn 0.418266 0.903047 -0.097774
vn 0.418519 0.903322 -0.094084
vn 0.413827 0.906507 -0.083616
vn 0.415733 0.904700 -0.093193
vn 0.393940 0.918706 -0.028097
vn 0.401796 0.914482 -0.047769
vn 0.390710 0.920411 -0.013805
vn 0.387932 0.921635 -0.009892
vn 0.356831 0.934046 0.015135
vn 0.372937 0.927856 0.000649
vn 0.341148 0.939560 0.029078
vn 0.341148 0.939560 0.029078
vn -0.464094 0.884876 0.040142
vn -0.477435 0.877220 0.050406
vn -0.512719 0.854997 0.078094
vn -0.464094 0.884876 0.040142
vn -0.534290 0.840898 0.086170
vn -0.539203 0.838933 0.073829
vn -0.513088 0.858241 0.012788
vn -0.495875 0.868246 -0.015998
vn -0.459341 0.884884 -0.077362
vn -0.460171 0.884586 -0.075831
vn -0.449193 0.887247 -0.104972
vn -0.449490 0.887548 -0.101081
vn -0.460222 0.876969 -0.138282
vn -0.453553 0.882730 -0.122795
vn -0.493753 0.858696 -0.137290
vn -0.473215 0.868498 -0.147575
vn -0.613110 0.753312 -0.237945
vn -0.526805 0.836435 -0.151173
vn -0.498965 0.860348 -0.104091
vn -0.607142 0.762333 -0.224113
vn -0.474903 0.876454 -0.079345
vn -0.474903 0.876454 -0.079345
s 1
g Ile1 Basland
f 1/1/1 2/2/2 13/13/3 12/12/4
f 2/2/2 3/3/5 14/14/6 13/13/3
f 3/3/5 4/4/7 15/15/8 14/14/6
f 4/4/7 5/5/9 16/16/10 15/15/8
f 5/5/9 6/6/11 17/17/12 16/16/10
f 6/6/11 7/7/13 18/18/14 17/17/12
f 7/7/13 8/8/15 19/19/16 18/18/14
f 8/8/15 9/9/17 20/20/18 19/19/16
f 9/9/17 10/10/19 21/21/20 20/20/18
f 10/10/19 11/11/21 22/22/22 21/21/20
s 2
f 12/12/23 13/13/24 24/24/25 23/23/26
f 13/13/24 14/14/27 25/25/28 24/24/25
f 14/14/27 15/15/29 26/26/30 25/25/28
f 15/15/29 16/16/31 27/27/32 26/26/30
f 16/16/31 17/17/33 28/28/34 27/27/32
f 17/17/33 18/18/35 29/29/36 28/28/34
f 18/18/35 19/19/37 30/30/38 29/29/36
f 19/19/37 20/20/39 31/31/40 30/30/38
f 20/20/39 21/21/41 32/32/42 31/31/40
f 21/21/41 22/22/43 33/33/44 32/32/42
f 23/23/26 24/24/25 35/35/45 34/34/46
f 24/24/25 25/25/28 36/36/47 35/35/45
f 25/25/28 26/26/30 37/37/48 36/36/47
f 26/26/30 27/27/32 38/38/49 37/37/48
f 27/27/32 28/28/34 39/39/50 38/38/49
f 28/28/34 29/29/36 40/40/51 39/39/50
f 29/29/36 30/30/38 41/41/52 40/40/51
f 30/30/38 31/31/40 42/42/53 41/41/52
f 31/31/40 32/32/42 43/43/54 42/42/53
f 32/32/42 33/33/44 44/44/55 43/43/54
f 34/34/46 35/35/45 46/46/56 45/45/57
f 35/35/45 36/36/47 47/47/58 46/46/56
f 36/36/47 37/37/48 48/48/59 47/47/58
f 37/37/48 38/38/49 49/49/60 48/48/59
f 38/38/49 39/39/50 50/50/61 49/49/60
f 39/39/50 40/40/51 51/51/62 50/50/61
f 40/40/51 41/41/52 52/52/63 51/51/62
f 41/41/52 42/42/53 53/53/64 52/52/63
f 42/42/53 43/43/54 54/54/65 53/53/64
f 43/43/54 44/44/55 55/55/66 54/54/65
f 45/45/57 46/46/56 57/57/67 56/56/68
f 46/46/56 47/47/58 58/58/69 57/57/67
f 47/47/58 48/48/59 59/59/70 58/58/69
f 48/48/59 49/49/60 60/60/71 59/59/70
f 49/49/60 50/50/61 61/61/72 60/60/71
f 50/50/61 51/51/62 62/62/73 61/61/72
f 51/51/62 52/52/63 63/63/74 62/62/73
f 52/52/63 53/53/64 64/64/75 63/63/74
f 53/53/64 54/54/65 65/65/76 64/64/75
f 54/54/65 55/55/66 66/66/77 65/65/76
f 56/56/68 57/57/67 68/68/78 67/67/79
f 57/57/67 58/58/69 69/69/80 68/68/78
f 58/58/69 59/59/70 70/70/81 69/69/80
f 59/59/70 60/60/71 71/71/82 70/70/81
f 60/60/71 61/61/72 72/72/83 71/71/82
f 61/61/72 62/62/73 73/73/84 72/72/83
f 62/62/73 63/63/74 74/74/85 73/73/84
f 63/63/74 64/64/75 75/75/86 74/74/85
f 64/64/75 65/65/76 76/76/87 75/75/86
f 65/65/76 66/66/77 77/77/88 76/76/87
f 67/67/79 68/68/78 79/79/89 78/78/90
f 68/68/78 69/69/80 80/80/91 79/79/89
f 69/69/80 70/70/81 81/81/92 80/80/91
f 70/70/81 71/71/82 82/82/93 81/81/92
f 71/71/82 72/72/83 83/83/94 82/82/93
f 72/72/83 73/73/84 84/84/95 83/83/94
f 73/73/84 74/74/85 85/85/96 84/84/95
f 74/74/85 75/75/86 86/86/97 85/85/96
f 75/75/86 76/76/87 87/87/98 86/86/97
f 76/76/87 77/77/88 88/88/99 87/87/98
f 78/78/90 79/79/89 90/90/100 89/89/101
f 79/79/89 80/80/91 91/91/102 90/90/100
f 80/80/91 81/81/92 92/92/103 91/91/102
f 81/81/92 82/82/93 93/93/104 92/92/103
f 82/82/93 83/83/94 94/94/105 93/93/104
f 83/83/94 84/84/95 95/95/106 94/94/105
f 84/84/95 85/85/96 96/96/107 95/95/106
f 85/85/96 86/86/97 97/97/108 96/96/107
f 86/86/97 87/87/98 98/98/109 97/97/108
f 87/87/98 88/88/99 99/99/110 98/98/109
f 89/89/101 90/90/100 101/101/111 100/100/112
f 90/90/100 91/91/102 102/102/113 101/101/111
f 91/91/102 92/92/103 103/103/114 102/102/113
f 92/92/103 93/93/104 104/104/115 103/103/114
f 93/93/104 94/94/105 105/105/116 104/104/115
f 94/94/105 95/95/106 106/106/117 105/105/116
f 95/95/106 96/96/107 107/107/118 106/106/117
f 96/96/107 97/97/108 108/108/119 107/107/118
f 97/97/108 98/98/109 109/109/120 108/108/119
f 98/98/109 99/99/110 110/110/121 109/109/120
f 100/100/112 101/101/111 112/112/122 111/111/123
f 101/101/111 102/102/113 113/113/124 112/112/122
f 102/102/113 103/103/114 114/114/125 113/113/124
f 103/103/114 104/104/115 115/115/126 114/114/125
f 104/104/115 105/105/116 116/116/127 115/115/126
f 105/105/116 106/106/117 117/117/128 116/116/127
f 106/106/117 107/107/118 118/118/129 117/117/128
f 107/107/118 108/108/119 119/119/130 118/118/129
f 108/108/119 109/109/120 120/120/131 119/119/130
f 109/109/120 110/110/121 121/121/132 120/120/131
f 111/111/123 112/112/122 123/123/133 122/122/134
f 112/112/122 113/113/124 124/124/135 123/123/133
f 113/113/124 114/114/125 125/125/136 124/124/135
f 114/114/125 115/115/126 126/126/137 125/125/136
f 115/115/126 116/116/127 127/127/138 126/126/137
f 116/116/127 117/117/128 128/128/139 127/127/138
f 117/117/128 118/118/129 129/129/140 128/128/139
f 118/118/129 119/119/130 130/130/141 129/129/140
f 119/119/130 120/120/131 131/131/142 130/130/141
f 120/120/131 121/121/132 132/132/143 131/131/142
s 3
f 122/122/144 123/123/145 134/134/146 133/133/147
f 123/123/145 124/124/148 135/135/149 134/134/146
f 124/124/148 125/125/150 136/136/151 135/135/149
f 125/125/150 126/126/152 137/137/153 136/136/151
f 126/126/152 127/127/154 138/138/155 137/137/153
f 127/127/154 128/128/156 139/139/157 138/138/155
f 128/128/156 129/129/158 140/140/159 139/139/157
f 129/129/158 130/130/160 141/141/161 140/140/159
f 130/130/160 131/131/162 142/142/163 141/141/161
f 131/131/162 132/132/164 143/143/165 142/142/163
s 4
f 133/133/166 134/134/167 145/145/168 144/144/169
f 134/134/167 135/135/170 146/146/171 145/145/168
f 135/135/170 136/136/172 147/147/173 146/146/171
f 136/136/172 137/137/174 148/148/175 147/147/173
f 137/137/174 138/138/176 149/149/177 148/148/175
f 138/138/176 139/139/178 150/150/179 149/149/177
f 139/139/178 140/140/180 151/151/181 150/150/179
f 140/140/180 141/141/182 152/152/183 151/151/181
f 141/141/182 142/142/184 153/153/185 152/152/183
f 142/142/184 143/143/186 154/154/187 153/153/185
f 144/144/169 145/145/168 156/156/188 155/155/189
f 145/145/168 146/146/171 157/157/190 156/156/188
f 146/146/171 147/147/173 158/158/191 157/157/190
f 147/147/173 148/148/175 159/159/192 158/158/191
f 148/148/175 149/149/177 160/160/193 159/159/192
f 149/149/177 150/150/179 161/161/194 160/160/193
f 150/150/179 151/151/181 162/162/195 161/161/194
f 151/151/181 152/152/183 163/163/196 162/162/195
f 152/152/183 153/153/185 164/164/197 163/163/196
f 153/153/185 154/154/187 165/165/198 164/164/197
f 155/155/189 156/156/188 167/167/199 166/166/200
f 156/156/188 157/157/190 168/168/201 167/167/199
f 157/157/190 158/158/191 169/169/202 168/168/201
f 158/158/191 159/159/192 170/170/203 169/169/202
f 159/159/192 160/160/193 171/171/204 170/170/203
f 160/160/193 161/161/194 172/172/205 171/171/204
f 161/161/194 162/162/195 173/173/206 172/172/205
f 162/162/195 163/163/196 174/174/207 173/173/206
f 163/163/196 164/164/197 175/175/208 174/174/207
f 164/164/197 165/165/198 176/176/209 175/175/208
f 166/166/200 167/167/199 178/178/210 177/177/211
f 167/167/199 168/168/201 179/179/212 178/178/210
f 168/168/201 169/169/202 180/180/213 179/179/212
f 169/169/202 170/170/203 181/181/214 180/180/213
f 170/170/203 171/171/204 182/182/215 181/181/214
f 171/171/204 172/172/205 183/183/216 182/182/215
f 172/172/205 173/173/206 184/184/217 183/183/216
f 173/173/206 174/174/207 185/185/218 184/184/217
f 174/174/207 175/175/208 186/186/219 185/185/218
f 175/175/208 176/176/209 187/187/220 186/186/219
f 177/177/211 178/178/210 189/189/221 188/188/222
f 178/178/210 179/179/212 190/190/223 189/189/221
f 179/179/212 180/180/213 191/191/224 190/190/223
f 180/180/213 181/181/214 192/192/225 191/191/224
f 181/181/214 182/182/215 193/193/226 192/192/225
f 182/182/215 183/183/216 194/194/227 193/193/226
f 183/183/216 184/184/217 195/195/228 194/194/227
f 184/184/217 185/185/218 196/196/229 195/195/228
f 185/185/218 186/186/219 197/197/230 196/196/229
f 186/186/219 187/187/220 198/198/231 197/197/230
f 188/188/222 189/189/221 200/200/232 199/199/233
f 189/189/221 190/190/223 201/201/234 200/200/232
f 190/190/223 191/191/224 202/202/235 201/201/234
f 191/191/224 192/192/225 203/203/236 202/202/235
f 192/192/225 193/193/226 204/204/237 203/203/236
f 193/193/226 194/194/227 205/205/238 204/204/237
f 194/194/227 195/195/228 206/206/239 205/205/238
f 195/195/228 196/196/229 207/207/240 206/206/239
f 196/196/229 197/197/230 208/208/241 207/207/240
f 197/197/230 198/198/231 209/209/242 208/208/241
f 199/199/233 200/200/232 211/211/243 210/210/244
f 200/200/232 201/201/234 212/212/245 211/211/243
f 201/201/234 202/202/235 213/213/246 212/212/245
f 202/202/235 203/203/236 214/214/247 213/213/246
f 203/203/236 204/204/237 215/215/248 214/214/247
f 204/204/237 205/205/238 216/216/249 215/215/248
f 205/205/238 206/206/239 217/217/250 216/216/249
f 206/206/239 207/207/240 218/218/251 217/217/250
f 207/207/240 208/208/241 219/219/252 218/218/251
f 208/208/241 209/209/242 220/220/253 219/219/252
f 210/210/244 211/211/243 222/222/254 221/221/255
f 211/211/243 212/212/245 223/223/256 222/222/254
f 212/212/245 213/213/246 224/224/257 223/223/256
f 213/213/246 214/214/247 225/225/258 224/224/257
f 214/214/247 215/215/248 226/226/259 225/225/258
f 215/215/248 216/216/249 227/227/260 226/226/259
f 216/216/249 217/217/250 228/228/261 227/227/260
f 217/217/250 218/218/251 229/229/262 228/228/261
f 218/218/251 219/219/252 230/230/263 229/229/262
f 219/219/252 220/220/253 231/231/264 230/230/263
f 221/221/255 222/222/254 233/233/265 232/232/266
f 222/222/254 223/223/256 234/234/267 233/233/265
f 223/223/256 224/224/257 235/235/268 234/234/267
f 224/224/257 225/225/258 236/236/269 235/235/268
f 225/225/258 226/226/259 237/237/270 236/236/269
f 226/226/259 227/227/260 238/238/271 237/237/270
f 227/227/260 228/228/261 239/239/272 238/238/271
f 228/228/261 229/229/262 240/240/273 239/239/272
f 229/229/262 230/230/263 241/241/274 240/240/273
f 230/230/263 231/231/264 242/242/275 241/241/274
f 232/232/266 233/233/265 2/244/276 1/243/277
f 233/233/265 234/234/267 3/245/278 2/244/276
f 234/234/267 235/235/268 4/246/279 3/245/278
f 235/235/268 236/236/269 5/247/280 4/246/279
f 236/236/269 237/237/270 6/248/281 5/247/280
f 237/237/270 238/238/271 7/249/282 6/248/281
f 238/238/271 239/239/272 8/250/283 7/249/282
f 239/239/272 240/240/273 9/251/284 8/250/283
f 240/240/273 241/241/274 10/252/285 9/251/284
f 241/241/274 242/242/275 11/253/286 10/252/285
s 5
f 154/255/287 143/254/288 132/264/289 121/265/290
f 165/256/291 154/255/287 121/265/290 110/266/292
f 176/257/293 165/256/291 110/266/292 99/267/294
f 187/258/295 176/257/293 99/267/294 88/268/296
f 198/259/297 187/258/295 88/268/296 77/269/298
f 209/260/299 198/259/297 77/269/298 66/270/300
f 220/261/301 209/260/299 66/270/300 55/271/302
f 231/262/303 220/261/301 55/271/302 44/272/304
f 242/263/305 231/262/303 44/272/304 33/273/306
f 11/11/307 242/263/305 33/273/306 22/22/308
s 6
f 133/274/309 144/275/310 111/285/311 122/284/312
f 144/275/310 155/276/313 100/286/314 111/285/311
f 155/276/313 166/277/315 89/287/316 100/286/314
f 166/277/315 177/278/317 78/288/318 89/287/316
f 177/278/317 188/279/319 67/289/320 78/288/318
f 188/279/319 199/280/321 56/290/322 67/289/320
f 199/280/321 210/281/323 45/291/324 56/290/322
f 210/281/323 221/282/325 34/292/326 45/291/324
f 221/282/325 232/283/327 23/293/328 34/292/326
f 232/283/327 1/1/329 12/12/330 23/293/328
g default
v -641.723815 61.611542 -398.536235
v -652.783076 61.611542 -468.361651
v -684.878287 61.611542 -531.352067
v -734.867767 61.611542 -581.341547
v -797.858184 61.611542 -613.436758
v -867.683599 61.611542 -624.496019
v -937.509015 61.611542 -613.436758
v -1000.499431 61.611542 -581.341547
v -1050.488911 61.611542 -531.352067
v -1082.584123 61.611542 -468.361651
v -1093.643384 61.611542 -398.536235
v -1082.584123 61.611542 -328.710819
v -1050.488911 61.611542 -265.720403
v -1000.499431 61.611542 -215.730923
v -937.509015 61.611542 -183.635712
v -867.683599 61.611542 -172.576451
v -797.858184 61.611542 -183.635712
v -734.867767 61.611542 -215.730923
v -684.878287 61.611542 -265.720403
v -652.783076 61.611542 -328.710819
v -641.723815 791.282126 -398.536235
v -652.783076 791.282126 -468.361651
v -684.878287 791.282126 -531.352067
v -734.867767 791.282126 -581.341547
v -797.858184 791.282126 -613.436758
v -867.683599 791.282126 -624.496019
v -937.509015 791.282126 -613.436758
v -1000.499431 791.282126 -581.341547
v -1050.488911 791.282126 -531.352067
v -1082.584123 791.282126 -468.361651
v -1093.643384 791.282126 -398.536235
v -1082.584123 791.282126 -328.710819
v -1050.488911 791.282126 -265.720403
v -1000.499431 791.282126 -215.730923
v -937.509015 791.282126 -183.635712
v -867.683599 791.282126 -172.576451
v -797.858184 791.282126 -183.635712
v -734.867767 791.282126 -215.730923
v -684.878287 791.282126 -265.720403
v -652.783076 791.282126 -328.710819
v -549.395772 791.282126 -398.536235
v -564.973865 791.282126 -496.892584
v -610.183303 791.282126 -585.621141
v -680.598676 791.282126 -656.036532
v -769.327233 791.282126 -701.246004
v -867.683599 791.282126 -716.824131
v -966.039974 791.282126 -701.246004
v -1054.768522 791.282126 -656.036532
v -1125.183913 791.282126 -585.621158
v -1170.393403 791.282126 -496.892601
v -1185.971530 791.282126 -398.536218
v -1170.393403 791.282126 -300.179835
v -1125.183931 791.282126 -211.451260
v -1054.768539 791.282126 -141.035869
v -966.039965 791.282126 -95.826397
v -867.683573 791.282126 -80.248269
v -769.327182 791.282126 -95.826397
v -680.598607 791.282126 -141.035869
v -610.183199 791.282126 -211.451260
v -564.973727 791.282126 -300.179843
v -143.603412 61.611542 -398.536279
v -179.042255 61.611542 -622.289425
v -281.890333 61.611542 -824.139708
v -442.080127 61.611542 -984.329502
v -643.930357 61.611542 -1087.177648
v -867.683533 61.611542 -1122.616630
v -1091.436738 61.611542 -1087.177648
v -1293.287003 61.611542 -984.329502
v -1453.476866 61.611542 -824.139708
v -1556.325013 61.611542 -622.289460
v -1591.763856 61.611542 -398.536240
v -1556.325013 61.611542 -174.782993
v -1453.476866 61.611542 27.067307
v -1293.287037 61.611542 187.257170
v -1091.436738 61.611542 290.105178
v -867.683474 61.611542 325.544160
v -643.930288 61.611542 290.105178
v -442.079780 61.611542 187.257170
v -281.890125 61.611542 27.067307
v -179.042048 61.611542 -174.783028
vt 0.000000 1.000000
vt 0.050000 1.000000
vt 0.100000 1.000000
vt 0.150000 1.000000
vt 0.200000 1.000000
vt 0.250000 1.000000
vt 0.300000 1.000000
vt 0.350000 1.000000
vt 0.400000 1.000000
vt 0.450000 1.000000
vt 0.500000 1.000000
vt 0.550000 1.000000
vt 0.600000 1.000000
vt 0.650000 1.000000
vt 0.700000 1.000000
vt 0.750000 1.000000
vt 0.800000 1.000000
vt 0.850000 1.000000
vt 0.900000 1.000000
vt 0.950000 1.000000
vt 1.000000 1.000000
vt 0.000000 0.750000
vt 0.050000 0.750000
vt 0.100000 0.750000
vt 0.150000 0.750000
vt 0.200000 0.750000
vt 0.250000 0.750000
vt 0.300000 0.750000
vt 0.350000 0.750000
vt 0.400000 0.750000
vt 0.450000 0.750000
vt 0.500000 0.750000
vt 0.550000 0.750000
vt 0.600000 0.750000
vt 0.650000 0.750000
vt 0.700000 0.750000
vt 0.750000 0.750000
vt 0.800000 0.750000
vt 0.850000 0.750000
vt 0.900000 0.750000
vt 0.950000 0.750000
vt 1.000000 0.750000
vt 0.000000 0.500000
vt 0.050000 0.500000
vt 0.100000 0.500000
vt 0.150000 0.500000
vt 0.200000 0.500000
vt 0.250000 0.500000
vt 0.300000 0.500000
vt 0.350000 0.500000
vt 0.400000 0.500000
vt 0.450000 0.500000
vt 0.500000 0.500000
vt 0.550000 0.500000
vt 0.600000 0.500000
vt 0.650000 0.500000
vt 0.700000 0.500000
vt 0.750000 0.500000
vt 0.800000 0.500000
vt 0.850000 0.500000
vt 0.900000 0.500000
vt 0.950000 0.500000
vt 1.000000 0.500000
vt 0.000000 0.250000
vt 0.050000 0.250000
vt 0.100000 0.250000
vt 0.150000 0.250000
vt 0.200000 0.250000
vt 0.250000 0.250000
vt 0.300000 0.250000
vt 0.350000 0.250000
vt 0.400000 0.250000
vt 0.450000 0.250000
vt 0.500000 0.250000
vt 0.550000 0.250000
vt 0.600000 0.250000
vt 0.650000 0.250000
vt 0.700000 0.250000
vt 0.750000 0.250000
vt 0.800000 0.250000
vt 0.850000 0.250000
vt 0.900000 0.250000
vt 0.950000 0.250000
vt 1.000000 0.250000
vt 0.000000 0.000000
vt 0.050000 0.000000
vt 0.100000 0.000000
vt 0.150000 0.000000
vt 0.200000 0.000000
vt 0.250000 0.000000
vt 0.300000 0.000000
vt 0.350000 0.000000
vt 0.400000 0.000000
vt 0.450000 0.000000
vt 0.500000 0.000000
vt 0.550000 0.000000
vt 0.600000 0.000000
vt 0.650000 0.000000
vt 0.700000 0.000000
vt 0.750000 0.000000
vt 0.800000 0.000000
vt 0.850000 0.000000
vt 0.900000 0.000000
vt 0.950000 0.000000
vt 1.000000 0.000000
vn -0.951057 0.000000 0.309017
vn -1.000000 0.000000 0.000000
vn -1.000000 0.000000 0.000000
vn -0.951057 0.000000 0.309017
vn -0.809017 0.000000 0.587785
vn -0.809017 0.000000 0.587785
vn -0.587785 0.000000 0.809017
vn -0.587785 0.000000 0.809017
vn -0.309017 0.000000 0.951057
vn -0.309017 0.000000 0.951057
vn 0.000000 0.000000 1.000000
vn 0.000000 0.000000 1.000000
vn 0.309017 0.000000 0.951057
vn 0.309017 0.000000 0.951057
vn 0.587785 0.000000 0.809017
vn 0.587785 0.000000 0.809017
vn 0.809017 0.000000 0.587785
vn 0.809017 0.000000 0.587785
vn 0.951057 -0.000000 0.309017
vn 0.951057 -0.000000 0.309017
vn 1.000000 -0.000000 0.000000
vn 1.000000 -0.000000 0.000000
vn 0.951057 0.000000 -0.309017
vn 0.951057 0.000000 -0.309017
vn 0.809017 0.000000 -0.587785
vn 0.809017 0.000000 -0.587785
vn 0.587785 0.000000 -0.809017
vn 0.587785 0.000000 -0.809017
vn 0.309017 0.000000 -0.951057
vn 0.309017 0.000000 -0.951057
vn 0.000000 0.000000 -1.000000
vn 0.000000 0.000000 -1.000000
vn -0.309017 0.000000 -0.951057
vn -0.309017 0.000000 -0.951057
vn -0.587785 0.000000 -0.809017
vn -0.587785 0.000000 -0.809017
vn -0.809017 0.000000 -0.587785
vn -0.809017 0.000000 -0.587785
vn -0.951057 0.000000 -0.309017
vn -0.951057 0.000000 -0.309017
vn 0.000000 1.000000 0.000000
vn 0.000000 1.000000 0.000000
vn 0.000000 1.000000 0.000000
vn 0.000000 1.000000 0.000000
vn 0.000000 1.000000 0.000000
vn 0.000000 1.000000 0.000000
vn 0.000000 1.000000 0.000000
vn 0.000000 1.000000 0.000000
vn 0.000000 1.000000 0.000000
vn 0.000000 1.000000 0.000000
vn 0.000000 1.000000 -0.000000
vn 0.000000 1.000000 -0.000000
vn 0.000000 1.000000 -0.000000
vn 0.000000 1.000000 -0.000000
vn 0.000000 1.000000 -0.000000
vn 0.000000 1.000000 -0.000000
vn 0.000000 1.000000 -0.000000
vn 0.000000 1.000000 0.000000
vn 0.000000 1.000000 0.000000
vn 0.000000 1.000000 0.000000
vn 0.000000 1.000000 0.000000
vn 0.000000 1.000000 0.000000
vn 0.000000 1.000000 -0.000000
vn 0.000000 1.000000 -0.000000
vn 0.000000 1.000000 -0.000000
vn 0.000000 1.000000 -0.000000
vn 0.000000 1.000000 -0.000000
vn 0.000000 1.000000 -0.000000
vn 0.000000 1.000000 0.000000
vn 0.000000 1.000000 0.000000
vn 0.000000 1.000000 0.000000
vn 0.000000 1.000000 0.000000
vn 0.000000 1.000000 0.000000
vn 0.000000 1.000000 0.000000
vn 0.000000 1.000000 -0.000000
vn 0.000000 1.000000 -0.000000
vn 0.000000 1.000000 -0.000000
vn 0.000000 1.000000 -0.000000
vn 0.000000 1.000000 -0.000000
vn 0.000000 1.000000 -0.000000
vn 0.831170 0.486027 -0.270063
vn 0.873944 0.486027 -0.000001
vn 0.873944 0.486027 -0.000000
vn 0.831170 0.486027 -0.270063
vn 0.707035 0.486027 -0.513692
vn 0.707035 0.486027 -0.513691
vn 0.513692 0.486027 -0.707035
vn 0.513692 0.486027 -0.707035
vn 0.270064 0.486027 -0.831170
vn 0.270064 0.486027 -0.831170
vn -0.000000 0.486027 -0.873944
vn 0.000000 0.486027 -0.873944
vn -0.270064 0.486027 -0.831170
vn -0.270064 0.486027 -0.831170
vn -0.513692 0.486027 -0.707035
vn -0.513692 0.486027 -0.707035
vn -0.707035 0.486027 -0.513692
vn -0.707035 0.486027 -0.513692
vn -0.831170 0.486027 -0.270064
vn -0.831170 0.486027 -0.270064
vn -0.873944 0.486027 0.000000
vn -0.873944 0.486027 0.000000
vn -0.831170 0.486027 0.270063
vn -0.831170 0.486027 0.270063
vn -0.707035 0.486027 0.513692
vn -0.707035 0.486027 0.513692
vn -0.513692 0.486027 0.707035
vn -0.513691 0.486027 0.707035
vn -0.270064 0.486027 0.831170
vn -0.270064 0.486027 0.831170
vn -0.000000 0.486027 0.873944
vn 0.000000 0.486027 0.873944
vn 0.270063 0.486027 0.831170
vn 0.270063 0.486027 0.831170
vn 0.513691 0.486027 0.707035
vn 0.513691 0.486027 0.707035
vn 0.707035 0.486027 0.513691
vn 0.707035 0.486027 0.513691
vn 0.831170 0.486027 0.270063
vn 0.831170 0.486027 0.270063
vn 0.000000 -1.000000 0.000000
vn 0.000000 -1.000000 0.000000
vn 0.000000 -1.000000 0.000000
vn 0.000000 -1.000000 0.000000
vn 0.000000 -1.000000 0.000000
vn 0.000000 -1.000000 0.000000
vn 0.000000 -1.000000 -0.000000
vn 0.000000 -1.000000 0.000000
vn 0.000000 -1.000000 -0.000000
vn 0.000000 -1.000000 -0.000000
vn 0.000000 -1.000000 -0.000000
vn 0.000000 -1.000000 -0.000000
vn 0.000000 -1.000000 -0.000000
vn 0.000000 -1.000000 -0.000000
vn 0.000000 -1.000000 -0.000000
vn 0.000000 -1.000000 -0.000000
vn 0.000000 -1.000000 -0.000000
vn 0.000000 -1.000000 -0.000000
vn 0.000000 -1.000000 0.000000
vn 0.000000 -1.000000 0.000000
vn 0.000000 -1.000000 0.000000
vn 0.000000 -1.000000 0.000000
vn 0.000000 -1.000000 0.000000
vn 0.000000 -1.000000 0.000000
vn 0.000000 -1.000000 0.000000
vn 0.000000 -1.000000 0.000000
vn 0.000000 -1.000000 0.000000
vn 0.000000 -1.000000 0.000000
vn 0.000000 -1.000000 -0.000000
vn 0.000000 -1.000000 -0.000000
vn 0.000000 -1.000000 -0.000000
vn 0.000000 -1.000000 -0.000000
vn 0.000000 -1.000000 0.000000
vn 0.000000 -1.000000 0.000000
vn 0.000000 -1.000000 0.000000
vn 0.000000 -1.000000 0.000000
vn 0.000000 -1.000000 0.000000
vn 0.000000 -1.000000 0.000000
vn 0.000000 -1.000000 0.000000
vn 0.000000 -1.000000 0.000000
s 1
g Basland Volcan
f 244/295/331 243/294/332 263/315/333 264/316/334
f 245/296/335 244/295/331 264/316/334 265/317/336
f 246/297/337 245/296/335 265/317/336 266/318/338
f 247/298/339 246/297/337 266/318/338 267/319/340
f 248/299/341 247/298/339 267/319/340 268/320/342
f 249/300/343 248/299/341 268/320/342 269/321/344
f 250/301/345 249/300/343 269/321/344 270/322/346
f 251/302/347 250/301/345 270/322/346 271/323/348
f 252/303/349 251/302/347 271/323/348 272/324/350
f 253/304/351 252/303/349 272/324/350 273/325/352
f 254/305/353 253/304/351 273/325/352 274/326/354
f 255/306/355 254/305/353 274/326/354 275/327/356
f 256/307/357 255/306/355 275/327/356 276/328/358
f 257/308/359 256/307/357 276/328/358 277/329/360
f 258/309/361 257/308/359 277/329/360 278/330/362
f 259/310/363 258/309/361 278/330/362 279/331/364
f 260/311/365 259/310/363 279/331/364 280/332/366
f 261/312/367 260/311/365 280/332/366 281/333/368
f 262/313/369 261/312/367 281/333/368 282/334/370
f 243/314/332 262/313/369 282/334/370 263/335/333
s 2
f 264/316/371 263/315/372 283/336/373 284/337/374
f 265/317/375 264/316/371 284/337/374 285/338/376
f 266/318/377 265/317/375 285/338/376 286/339/378
f 267/319/379 266/318/377 286/339/378 287/340/380
f 268/320/381 267/319/379 287/340/380 288/341/382
f 269/321/383 268/320/381 288/341/382 289/342/384
f 270/322/385 269/321/383 289/342/384 290/343/386
f 271/323/387 270/322/385 290/343/386 291/344/388
f 272/324/389 271/323/387 291/344/388 292/345/390
f 273/325/391 272/324/389 292/345/390 293/346/392
f 274/326/393 273/325/391 293/346/392 294/347/394
f 275/327/395 274/326/393 294/347/394 295/348/396
f 276/328/397 275/327/395 295/348/396 296/349/398
f 277/329/399 276/328/397 296/349/398 297/350/400
f 278/330/401 277/329/399 297/350/400 298/351/402
f 279/331/403 278/330/401 298/351/402 299/352/404
f 280/332/405 279/331/403 299/352/404 300/353/406
f 281/333/407 280/332/405 300/353/406 301/354/408
f 282/334/409 281/333/407 301/354/408 302/355/410
f 263/335/372 282/334/409 302/355/410 283/356/373
s 3
f 284/337/411 283/336/412 303/357/413 304/358/414
f 285/338/415 284/337/411 304/358/414 305/359/416
f 286/339/417 285/338/415 305/359/416 306/360/418
f 287/340/419 286/339/417 306/360/418 307/361/420
f 288/341/421 287/340/419 307/361/420 308/362/422
f 289/342/423 288/341/421 308/362/422 309/363/424
f 290/343/425 289/342/423 309/363/424 310/364/426
f 291/344/427 290/343/425 310/364/426 311/365/428
f 292/345/429 291/344/427 311/365/428 312/366/430
f 293/346/431 292/345/429 312/366/430 313/367/432
f 294/347/433 293/346/431 313/367/432 314/368/434
f 295/348/435 294/347/433 314/368/434 315/369/436
f 296/349/437 295/348/435 315/369/436 316/370/438
f 297/350/439 296/349/437 316/370/438 317/371/440
f 298/351/441 297/350/439 317/371/440 318/372/442
f 299/352/443 298/351/441 318/372/442 319/373/444
f 300/353/445 299/352/443 319/373/444 320/374/446
f 301/354/447 300/353/445 320/374/446 321/375/448
f 302/355/449 301/354/447 321/375/448 322/376/450
f 283/356/412 302/355/449 322/376/450 303/377/413
s 4
f 304/358/451 303/357/452 243/378/453 244/379/454
f 305/359/455 304/358/451 244/379/454 245/380/456
f 306/360/457 305/359/455 245/380/456 246/381/458
f 307/361/459 306/360/457 246/381/458 247/382/460
f 308/362/461 307/361/459 247/382/460 248/383/462
f 309/363/463 308/362/461 248/383/462 249/384/464
f 310/364/465 309/363/463 249/384/464 250/385/466
f 311/365/467 310/364/465 250/385/466 251/386/468
f 312/366/469 311/365/467 251/386/468 252/387/470
f 313/367/471 312/366/469 252/387/470 253/388/472
f 314/368/473 313/367/471 253/388/472 254/389/474
f 315/369/475 314/368/473 254/389/474 255/390/476
f 316/370/477 315/369/475 255/390/476 256/391/478
f 317/371/479 316/370/477 256/391/478 257/392/480
f 318/372/481 317/371/479 257/392/480 258/393/482
f 319/373/483 318/372/481 258/393/482 259/394/484
f 320/374/485 319/373/483 259/394/484 260/395/486
f 321/375/487 320/374/485 260/395/486 261/396/488
f 322/376/489 321/375/487 261/396/488 262/397/490
f 303/377/452 322/376/489 262/397/490 243/398/453
g default
v 1826.184897 -55.867367 818.275007
v 1919.200324 -55.867367 397.978108
v 1914.264271 -55.867367 -43.024717
v 1811.592237 -55.867367 -485.459608
v 1615.671537 -55.867367 -909.990114
v 1335.065003 -55.867367 -1298.062137
v 982.036344 -55.867367 -1632.715092
v 572.014641 -55.867367 -1899.322982
v 122.919843 -55.867367 -2086.233900
v -345.620434 -55.867367 -2185.278655
v -813.128688 -55.867367 -2192.128714
v -1259.172740 -55.867367 -2106.484787
v -1664.258147 -55.867367 -1932.089772
v -2010.680915 -55.867367 -1676.565724
v -2283.300393 -55.867367 -1351.080125
v -2470.202123 -55.867367 -969.858423
v -2563.217425 -55.867367 -549.561717
v -2558.281265 -55.867367 -108.559057
v -2455.609286 -55.867367 333.875640
v -2259.688777 -55.867367 758.406022
v -1979.082227 -55.867367 1146.477741
v -1626.053751 -55.867367 1481.130420
v -1216.032287 -55.867367 1747.738155
v -766.937688 -55.867367 1934.648786
v -298.397610 -55.867367 2033.693569
v 169.110508 -55.867367 2040.543697
v 615.154234 -55.867367 1954.899714
v 1020.239534 -55.867367 1780.504866
v 1366.661939 -55.867367 1524.980817
v 1639.281300 -55.867367 1199.495397
v 1337.201808 64.241878 614.762838
v 1409.044657 64.241878 290.136161
v 1405.232090 64.241878 -50.483434
v 1325.930788 64.241878 -392.209012
v 1174.606640 64.241878 -720.105640
v 957.873229 64.241878 -1019.842759
v 685.202754 64.241878 -1278.320185
v 368.512314 64.241878 -1484.241407
v 21.642827 64.241878 -1628.606662
v -340.245913 64.241878 -1705.106446
v -701.337604 64.241878 -1710.397160
v -1045.850710 64.241878 -1644.247964
v -1358.728484 64.241878 -1509.549606
v -1626.296715 64.241878 -1312.189352
v -1836.861189 64.241878 -1060.792480
v -1981.219307 64.241878 -766.346392
v -2053.061957 64.241878 -441.719743
v -2049.249537 64.241878 -101.100479
v -1969.948227 64.241878 240.624947
v -1818.624143 64.241878 568.521534
v -1601.890684 64.241878 868.258370
v -1329.220368 64.241878 1126.735692
v -1012.530119 64.241878 1332.656790
v -665.660751 64.241878 1477.021811
v -303.772203 64.241878 1553.521471
v 57.319281 64.241878 1558.812364
v 401.832260 64.241878 1492.663085
v 714.709926 64.241878 1357.964892
v 982.277831 64.241878 1160.604583
v 1192.842201 64.241878 909.207869
v 807.363327 152.211233 394.246848
v 856.264429 152.211233 173.283702
v 853.669354 152.211233 -58.565212
v 799.691495 152.211233 -291.167019
v 696.689909 152.211233 -514.355931
v 549.166309 152.211233 -718.377452
v 363.568152 152.211233 -894.314920
v 148.006985 152.211233 -1034.478983
v -88.096117 152.211233 -1132.743868
v -334.422343 152.211233 -1184.814818
v -580.205990 152.211233 -1188.416084
v -814.705234 152.211233 -1143.390377
v -1027.671259 152.211233 -1051.705523
v -1209.796416 152.211233 -917.368543
v -1353.121036 152.211233 -746.250682
v -1451.381090 152.211233 -545.830554
v -1500.282129 152.211233 -324.867504
v -1497.687036 152.211233 -93.018618
v -1443.709169 152.211233 139.583037
v -1340.707643 152.211233 362.771832
v -1193.184071 152.211233 566.793256
v -1007.585989 152.211233 742.730597
v -792.024950 152.211233 882.894577
v -555.921955 152.211233 981.159313
v -309.595824 152.211233 1033.230201
v -63.812278 152.211233 1036.831481
v 170.686831 152.211233 991.805842
v 383.652757 152.211233 900.121002
v 565.777778 152.211233 765.784092
v 709.102278 152.211233 594.666275
v 249.716009 205.874450 162.156992
v 274.471336 205.874450 50.298237
v 273.157621 205.874450 -67.071226
v 245.832251 205.874450 -184.821833
v 193.689509 205.874450 -297.807334
v 119.008255 205.874450 -401.089700
v 25.052413 205.874450 -490.154971
v -84.071668 205.874450 -561.110583
v -203.594748 205.874450 -610.855480
v -328.293115 205.874450 -637.215472
v -452.716817 205.874450 -639.038545
v -571.427977 205.874450 -616.245084
v -679.238278 205.874450 -569.831211
v -771.436010 205.874450 -501.825475
v -843.991574 205.874450 -415.200024
v -893.734009 205.874450 -313.740822
v -918.489305 205.874450 -201.882116
v -917.175612 205.874450 -84.512687
v -889.850256 205.874450 33.237872
v -837.707510 205.874450 146.223297
v -763.026268 205.874450 249.505576
v -669.070468 205.874450 338.570781
v -559.946446 205.874450 409.526355
v -440.423420 205.874450 459.271177
v -315.725118 205.874450 485.631165
v -191.301485 205.874450 487.454273
v -72.590407 205.874450 464.660799
v 35.219877 205.874450 418.246953
v 127.417509 205.874450 350.241231
v 199.973046 205.874450 263.615822
v -322.009150 223.910163 -75.791998
vt 0.000000 0.800000
vt 0.033333 0.800000
vt 0.066667 0.800000
vt 0.100000 0.800000
vt 0.133333 0.800000
vt 0.166667 0.800000
vt 0.200000 0.800000
vt 0.233333 0.800000
vt 0.266667 0.800000
vt 0.300000 0.800000
vt 0.333333 0.800000
vt 0.366667 0.800000
vt 0.400000 0.800000
vt 0.433333 0.800000
vt 0.466667 0.800000
vt 0.500000 0.800000
vt 0.533333 0.800000
vt 0.566667 0.800000
vt 0.600000 0.800000
vt 0.633333 0.800000
vt 0.666667 0.800000
vt 0.700000 0.800000
vt 0.733334 0.800000
vt 0.766667 0.800000
vt 0.800000 0.800000
vt 0.833334 0.800000
vt 0.866667 0.800000
vt 0.900000 0.800000
vt 0.933334 0.800000
vt 0.966667 0.800000
vt 1.000000 0.800000
vt 0.000000 0.850000
vt 0.033333 0.850000
vt 0.066667 0.850000
vt 0.100000 0.850000
vt 0.133333 0.850000
vt 0.166667 0.850000
vt 0.200000 0.850000
vt 0.233333 0.850000
vt 0.266667 0.850000
vt 0.300000 0.850000
vt 0.333333 0.850000
vt 0.366667 0.850000
vt 0.400000 0.850000
vt 0.433333 0.850000
vt 0.466667 0.850000
vt 0.500000 0.850000
vt 0.533333 0.850000
vt 0.566667 0.850000
vt 0.600000 0.850000
vt 0.633333 0.850000
vt 0.666667 0.850000
vt 0.700000 0.850000
vt 0.733334 0.850000
vt 0.766667 0.850000
vt 0.800000 0.850000
vt 0.833334 0.850000
vt 0.866667 0.850000
vt 0.900000 0.850000
vt 0.933334 0.850000
vt 0.966667 0.850000
vt 1.000000 0.850000
vt 0.000000 0.900000
vt 0.033333 0.900000
vt 0.066667 0.900000
vt 0.100000 0.900000
vt 0.133333 0.900000
vt 0.166667 0.900000
vt 0.200000 0.900000
vt 0.233333 0.900000
vt 0.266667 0.900000
vt 0.300000 0.900000
vt 0.333333 0.900000
vt 0.366667 0.900000
vt 0.400000 0.900000
vt 0.433333 0.900000
vt 0.466667 0.900000
vt 0.500000 0.900000
vt 0.533333 0.900000
vt 0.566667 0.900000
vt 0.600000 0.900000
vt 0.633333 0.900000
vt 0.666667 0.900000
vt 0.700000 0.900000
vt 0.733334 0.900000
vt 0.766667 0.900000
vt 0.800000 0.900000
vt 0.833334 0.900000
vt 0.866667 0.900000
vt 0.900000 0.900000
vt 0.933334 0.900000
vt 0.966667 0.900000
vt 1.000000 0.900000
vt 0.000000 0.950000
vt 0.033333 0.950000
vt 0.066667 0.950000
vt 0.100000 0.950000
vt 0.133333 0.950000
vt 0.166667 0.950000
vt 0.200000 0.950000
vt 0.233333 0.950000
vt 0.266667 0.950000
vt 0.300000 0.950000
vt 0.333333 0.950000
vt 0.366667 0.950000
vt 0.400000 0.950000
vt 0.433333 0.950000
vt 0.466667 0.950000
vt 0.500000 0.950000
vt 0.533333 0.950000
vt 0.566667 0.950000
vt 0.600000 0.950000
vt 0.633333 0.950000
vt 0.666667 0.950000
vt 0.700000 0.950000
vt 0.733334 0.950000
vt 0.766667 0.950000
vt 0.800000 0.950000
vt 0.833334 0.950000
vt 0.866667 0.950000
vt 0.900000 0.950000
vt 0.933334 0.950000
vt 0.966667 0.950000
vt 1.000000 0.950000
vt 0.016667 1.000000
vt 0.050000 1.000000
vt 0.083333 1.000000
vt 0.116667 1.000000
vt 0.150000 1.000000
vt 0.183333 1.000000
vt 0.216667 1.000000
vt 0.250000 1.000000
vt 0.283333 1.000000
vt 0.316667 1.000000
vt 0.350000 1.000000
vt 0.383333 1.000000
vt 0.416667 1.000000
vt 0.450000 1.000000
vt 0.483333 1.000000
vt 0.516667 1.000000
vt 0.550000 1.000000
vt 0.583333 1.000000
vt 0.616667 1.000000
vt 0.650000 1.000000
vt 0.683333 1.000000
vt 0.716667 1.000000
vt 0.750000 1.000000
vt 0.783333 1.000000
vt 0.816667 1.000000
vt 0.850000 1.000000
vt 0.883333 1.000000
vt 0.916667 1.000000
vt 0.950000 1.000000
vt 0.983333 1.000000
vn 0.209131 0.975156 0.073036
vn 0.224509 0.974202 0.022959
vn 0.195683 0.980463 0.020011
vn 0.182236 0.981193 0.063643
vn 0.229949 0.972800 -0.028009
vn 0.200493 0.979391 -0.024421
vn 0.225289 0.971197 -0.077592
vn 0.196508 0.978164 -0.067680
vn 0.210831 0.969672 -0.123636
vn 0.183966 0.976995 -0.107881
vn 0.187283 0.968486 -0.164197
vn 0.163466 0.976084 -0.143316
vn 0.155703 0.967838 -0.197600
vn 0.135924 0.975586 -0.172499
vn 0.117444 0.967838 -0.222477
vn 0.102525 0.975586 -0.194216
vn 0.074101 0.968486 -0.237790
vn 0.064678 0.976084 -0.207551
vn 0.027475 0.969672 -0.242859
vn 0.023974 0.976994 -0.211913
vn -0.020475 0.971197 -0.237395
vn -0.017860 0.978164 -0.207068
vn -0.067685 0.972800 -0.221539
vn -0.059015 0.979391 -0.193161
vn -0.112064 0.974201 -0.195891
vn -0.097675 0.980463 -0.170739
vn -0.151596 0.975156 -0.161520
vn -0.132101 0.981193 -0.140748
vn -0.184457 0.975495 -0.119939
vn -0.160722 0.981451 -0.104506
vn -0.209131 0.975156 -0.073036
vn -0.182236 0.981193 -0.063643
vn -0.224509 0.974201 -0.022959
vn -0.195683 0.980463 -0.020011
vn -0.229949 0.972800 0.028009
vn -0.200493 0.979391 0.024421
vn -0.225289 0.971197 0.077592
vn -0.196508 0.978164 0.067680
vn -0.210831 0.969672 0.123636
vn -0.183966 0.976994 0.107882
vn -0.187283 0.968486 0.164197
vn -0.163466 0.976084 0.143316
vn -0.155703 0.967838 0.197600
vn -0.135924 0.975586 0.172499
vn -0.117444 0.967838 0.222478
vn -0.102525 0.975586 0.194216
vn -0.074101 0.968486 0.237791
vn -0.064677 0.976084 0.207551
vn -0.027475 0.969672 0.242859
vn -0.023974 0.976994 0.211913
vn 0.020475 0.971197 0.237395
vn 0.017860 0.978164 0.207068
vn 0.067685 0.972800 0.221539
vn 0.059015 0.979391 0.193161
vn 0.112064 0.974201 0.195891
vn 0.097675 0.980463 0.170739
vn 0.151597 0.975156 0.161520
vn 0.132101 0.981193 0.140748
vn 0.184457 0.975495 0.119940
vn 0.160722 0.981451 0.104507
vn 0.130965 0.991296 0.013393
vn 0.121915 0.991627 0.042577
vn 0.134265 0.990811 -0.016354
vn 0.131687 0.990253 -0.045355
vn 0.123364 0.989721 -0.072343
vn 0.109673 0.989306 -0.096154
vn 0.091220 0.989079 -0.115766
vn 0.068805 0.989079 -0.130340
vn 0.043394 0.989306 -0.139250
vn 0.016076 0.989721 -0.142104
vn -0.011968 0.990253 -0.138764
vn -0.039521 0.990811 -0.129355
vn -0.065371 0.991296 -0.114270
vn -0.088375 0.991627 -0.094160
vn -0.107507 0.991744 -0.069904
vn -0.121915 0.991627 -0.042577
vn -0.130965 0.991296 -0.013393
vn -0.134265 0.990811 0.016354
vn -0.131687 0.990253 0.045355
vn -0.123364 0.989721 0.072343
vn -0.109673 0.989306 0.096154
vn -0.091220 0.989079 0.115766
vn -0.068805 0.989079 0.130340
vn -0.043394 0.989306 0.139251
vn -0.016076 0.989721 0.142104
vn 0.011968 0.990253 0.138764
vn 0.039521 0.990811 0.129355
vn 0.065371 0.991297 0.114270
vn 0.088375 0.991627 0.094160
vn 0.107506 0.991744 0.069904
vn 0.075983 0.997079 0.007770
vn 0.070717 0.997191 0.024697
vn 0.077923 0.996914 -0.009491
vn 0.076456 0.996725 -0.026332
vn 0.071649 0.996545 -0.042016
vn 0.063715 0.996404 -0.055861
vn 0.053003 0.996326 -0.067265
vn 0.039979 0.996326 -0.075733
vn 0.025210 0.996404 -0.080898
vn 0.009337 0.996545 -0.082533
vn -0.006949 0.996725 -0.080564
vn -0.022937 0.996914 -0.075074
vn -0.037927 0.997079 -0.066298
vn -0.051262 0.997191 -0.054618
vn -0.062355 0.997230 -0.040545
vn -0.070717 0.997191 -0.024697
vn -0.075983 0.997079 -0.007770
vn -0.077923 0.996914 0.009491
vn -0.076456 0.996725 0.026332
vn -0.071648 0.996545 0.042016
vn -0.063715 0.996404 0.055861
vn -0.053003 0.996326 0.067265
vn -0.039979 0.996326 0.075733
vn -0.025210 0.996403 0.080898
vn -0.009337 0.996545 0.082533
vn 0.006949 0.996725 0.080564
vn 0.022937 0.996914 0.075073
vn 0.037927 0.997079 0.066297
vn 0.051262 0.997191 0.054618
vn 0.062354 0.997230 0.040545
vn -0.000000 1.000000 0.000000
s 1
g Basland Ile2
f 323/399/491 324/400/492 354/431/493 353/430/494
f 324/400/492 325/401/495 355/432/496 354/431/493
f 325/401/495 326/402/497 356/433/498 355/432/496
f 326/402/497 327/403/499 357/434/500 356/433/498
f 327/403/499 328/404/501 358/435/502 357/434/500
f 328/404/501 329/405/503 359/436/504 358/435/502
f 329/405/503 330/406/505 360/437/506 359/436/504
f 330/406/505 331/407/507 361/438/508 360/437/506
f 331/407/507 332/408/509 362/439/510 361/438/508
f 332/408/509 333/409/511 363/440/512 362/439/510
f 333/409/511 334/410/513 364/441/514 363/440/512
f 334/410/513 335/411/515 365/442/516 364/441/514
f 335/411/515 336/412/517 366/443/518 365/442/516
f 336/412/517 337/413/519 367/444/520 366/443/518
f 337/413/519 338/414/521 368/445/522 367/444/520
f 338/414/521 339/415/523 369/446/524 368/445/522
f 339/415/523 340/416/525 370/447/526 369/446/524
f 340/416/525 341/417/527 371/448/528 370/447/526
f 341/417/527 342/418/529 372/449/530 371/448/528
f 342/418/529 343/419/531 373/450/532 372/449/530
f 343/419/531 344/420/533 374/451/534 373/450/532
f 344/420/533 345/421/535 375/452/536 374/451/534
f 345/421/535 346/422/537 376/453/538 375/452/536
f 346/422/537 347/423/539 377/454/540 376/453/538
f 347/423/539 348/424/541 378/455/542 377/454/540
f 348/424/541 349/425/543 379/456/544 378/455/542
f 349/425/543 350/426/545 380/457/546 379/456/544
f 350/426/545 351/427/547 381/458/548 380/457/546
f 351/427/547 352/428/549 382/459/550 381/458/548
f 352/428/549 323/429/491 353/460/494 382/459/550
f 353/430/494 354/431/493 384/462/551 383/461/552
f 354/431/493 355/432/496 385/463/553 384/462/551
f 355/432/496 356/433/498 386/464/554 385/463/553
f 356/433/498 357/434/500 387/465/555 386/464/554
f 357/434/500 358/435/502 388/466/556 387/465/555
f 358/435/502 359/436/504 389/467/557 388/466/556
f 359/436/504 360/437/506 390/468/558 389/467/557
f 360/437/506 361/438/508 391/469/559 390/468/558
f 361/438/508 362/439/510 392/470/560 391/469/559
f 362/439/510 363/440/512 393/471/561 392/470/560
f 363/440/512 364/441/514 394/472/562 393/471/561
f 364/441/514 365/442/516 395/473/563 394/472/562
f 365/442/516 366/443/518 396/474/564 395/473/563
f 366/443/518 367/444/520 397/475/565 396/474/564
f 367/444/520 368/445/522 398/476/566 397/475/565
f 368/445/522 369/446/524 399/477/567 398/476/566
f 369/446/524 370/447/526 400/478/568 399/477/567
f 370/447/526 371/448/528 401/479/569 400/478/568
f 371/448/528 372/449/530 402/480/570 401/479/569
f 372/449/530 373/450/532 403/481/571 402/480/570
f 373/450/532 374/451/534 404/482/572 403/481/571
f 374/451/534 375/452/536 405/483/573 404/482/572
f 375/452/536 376/453/538 406/484/574 405/483/573
f 376/453/538 377/454/540 407/485/575 406/484/574
f 377/454/540 378/455/542 408/486/576 407/485/575
f 378/455/542 379/456/544 409/487/577 408/486/576
f 379/456/544 380/457/546 410/488/578 409/487/577
f 380/457/546 381/458/548 411/489/579 410/488/578
f 381/458/548 382/459/550 412/490/580 411/489/579
f 382/459/550 353/460/494 383/491/552 412/490/580
f 383/461/552 384/462/551 414/493/581 413/492/582
f 384/462/551 385/463/553 415/494/583 414/493/581
f 385/463/553 386/464/554 416/495/584 415/494/583
f 386/464/554 387/465/555 417/496/585 416/495/584
f 387/465/555 388/466/556 418/497/586 417/496/585
f 388/466/556 389/467/557 419/498/587 418/497/586
f 389/467/557 390/468/558 420/499/588 419/498/587
f 390/468/558 391/469/559 421/500/589 420/499/588
f 391/469/559 392/470/560 422/501/590 421/500/589
f 392/470/560 393/471/561 423/502/591 422/501/590
f 393/471/561 394/472/562 424/503/592 423/502/591
f 394/472/562 395/473/563 425/504/593 424/503/592
f 395/473/563 396/474/564 426/505/594 425/504/593
f 396/474/564 397/475/565 427/506/595 426/505/594
f 397/475/565 398/476/566 428/507/596 427/506/595
f 398/476/566 399/477/567 429/508/597 428/507/596
f 399/477/567 400/478/568 430/509/598 429/508/597
f 400/478/568 401/479/569 431/510/599 430/509/598
f 401/479/569 402/480/570 432/511/600 431/510/599
f 402/480/570 403/481/571 433/512/601 432/511/600
f 403/481/571 404/482/572 434/513/602 433/512/601
f 404/482/572 405/483/573 435/514/603 434/513/602
f 405/483/573 406/484/574 436/515/604 435/514/603
f 406/484/574 407/485/575 437/516/605 436/515/604
f 407/485/575 408/486/576 438/517/606 437/516/605
f 408/486/576 409/487/577 439/518/607 438/517/606
f 409/487/577 410/488/578 440/519/608 439/518/607
f 410/488/578 411/489/579 441/520/609 440/519/608
f 411/489/579 412/490/580 442/521/610 441/520/609
f 412/490/580 383/491/552 413/522/582 442/521/610
f 413/492/582 414/493/581 443/523/611
f 414/493/581 415/494/583 443/524/611
f 415/494/583 416/495/584 443/525/611
f 416/495/584 417/496/585 443/526/611
f 417/496/585 418/497/586 443/527/611
f 418/497/586 419/498/587 443/528/611
f 419/498/587 420/499/588 443/529/611
f 420/499/588 421/500/589 443/530/611
f 421/500/589 422/501/590 443/531/611
f 422/501/590 423/502/591 443/532/611
f 423/502/591 424/503/592 443/533/611
f 424/503/592 425/504/593 443/534/611
f 425/504/593 426/505/594 443/535/611
f 426/505/594 427/506/595 443/536/611
f 427/506/595 428/507/596 443/537/611
f 428/507/596 429/508/597 443/538/611
f 429/508/597 430/509/598 443/539/611
f 430/509/598 431/510/599 443/540/611
f 431/510/599 432/511/600 443/541/611
f 432/511/600 433/512/601 443/542/611
f 433/512/601 434/513/602 443/543/611
f 434/513/602 435/514/603 443/544/611
f 435/514/603 436/515/604 443/545/611
f 436/515/604 437/516/605 443/546/611
f 437/516/605 438/517/606 443/547/611
f 438/517/606 439/518/607 443/548/611
f 439/518/607 440/519/608 443/549/611
f 440/519/608 441/520/609 443/550/611
f 441/520/609 442/521/610 443/551/611
f 442/521/610 413/522/582 443/552/611
