# This file uses centimeters as units for non-parametric coordinates.

g default
v 13.840405 192.156372 93.109253
v 0.000011 175.296326 92.628838
v -24.764153 168.702591 92.350121
v 24.764174 168.702591 92.350121
v -13.830204 192.234283 93.163719
v 43.172592 191.750290 92.933846
v -78.173561 192.152740 92.652092
v 78.173584 192.152740 92.652092
v -40.377594 157.623123 92.596146
v 40.377617 157.623123 92.596146
v -49.585331 139.769791 92.277565
v 49.585354 139.769791 92.277565
v -77.778770 150.670609 92.507927
v 77.778793 150.670609 92.507927
v -77.719414 118.773918 92.523170
v 77.719437 118.773918 92.523170
v -53.333332 119.160309 92.624725
v 53.333351 119.160309 92.624725
v -48.012917 100.316971 92.458275
v 48.012936 100.316971 92.458275
v -77.302139 89.093498 92.602310
v 77.302162 89.093498 92.602310
v -76.705872 51.974937 92.594757
v 76.705894 51.974937 92.594757
v -36.449532 83.058731 92.601173
v 36.449554 83.058731 92.601173
v -15.283261 72.019150 92.367455
v 15.283282 72.019150 92.367455
v -33.652287 53.151569 92.665321
v 33.652309 53.151569 92.665321
v 0.000011 69.018440 92.651031
v 0.000011 52.728409 92.675598
v -78.112648 193.469315 100.072823
v 78.112671 193.469315 100.072823
v -15.182692 193.510056 100.834991
v 43.486511 193.886963 101.053032
v 13.456400 193.679749 100.943222
v 78.087280 213.387741 99.776314
v -78.087265 213.387741 99.776314
v 78.776283 213.454529 91.964622
v -78.776268 213.454529 91.964622
v 78.634644 234.268082 87.856544
v -78.634628 234.268082 87.856544
v 78.532631 233.991150 96.185005
v -78.532608 233.991150 96.185005
v -78.187454 51.884312 -63.416306
v 78.187477 51.884312 -63.416306
v 0.000011 1.554056 92.221123
v -35.528229 0.742838 91.662338
v 35.528248 0.742838 91.662338
v -77.687675 1.554056 92.050652
v 77.687691 1.554056 92.050652
v -78.310921 1.183124 -61.814072
v 78.310944 1.183124 -61.814072
v -43.053673 0.700611 -62.355423
v 43.053692 0.700611 -62.355423
v 0.000011 0.625913 -62.071308
v 78.593513 120.978531 -62.684303
v -78.593491 120.978531 -62.684303
v 78.410812 234.296173 -62.161667
v -78.410789 234.296173 -62.161667
v 78.372437 212.400848 -63.000687
v -78.372414 212.400848 -63.000687
v 78.305611 191.846680 -63.116959
v -78.305588 191.846680 -63.116959
v 78.361145 154.106537 -63.032745
v -78.361122 154.106537 -63.032745
v 78.087868 90.268845 -63.440617
v -78.087845 90.268845 -63.440617
v 46.270359 48.590336 -64.019638
v -46.270340 48.590336 -64.019638
v 0.000011 48.336391 -64.070564
v 0.000011 88.769112 -64.070564
v 46.324352 88.432175 -64.070564
v -46.324329 88.432175 -64.070564
v 46.631145 120.528526 -64.039635
v -46.631126 120.528526 -64.039635
v 0.000011 121.153656 -64.039635
v 0.000011 152.536316 -64.039635
v 47.490292 153.584564 -64.039627
v -47.490269 153.584564 -64.039627
v 47.632458 191.031006 -64.039642
v -47.632435 191.031006 -64.039642
v 0.000011 190.280396 -64.070580
v 0.000011 209.822876 -64.070572
v 50.148708 210.385223 -64.034386
v -50.148685 210.385223 -64.034386
v 47.939262 234.844986 -62.152020
v -47.939240 234.844986 -62.152020
v 0.000011 234.707611 -63.229332
v 44.765297 235.265350 86.134727
v -13.518477 235.303528 87.263092
v 44.606644 232.948212 98.255508
v -14.226377 233.522797 97.742622
v 13.962602 235.333466 85.980331
v 58.290020 218.524139 103.974854
v 58.623558 208.351334 104.608376
v 63.376427 208.101181 104.558983
v 67.246605 213.106339 103.869019
v 64.126877 218.607513 103.835564
v 54.632416 213.234116 100.509613
v 54.871296 213.270966 103.880585
v 67.541542 213.030167 100.483734
v 64.243034 207.625870 100.771896
v 64.244987 218.860458 100.247238
v 58.071972 219.393951 99.867508
v 58.176697 207.482422 100.731018
v 23.535664 213.347000 103.975220
v 35.652813 213.837585 104.191002
v 32.953289 208.314423 104.556282
v 26.432741 208.278442 104.449295
v 26.355131 218.569351 103.600677
v 32.821335 218.774185 103.674782
v 36.157616 213.074203 100.802933
v 26.156723 218.619781 100.332512
v 23.295801 212.870316 100.605110
v 1.716577 208.356552 104.314758
v -5.299174 208.575790 104.385391
v -7.710839 213.179886 104.016159
v 4.274404 213.252960 104.047134
v 1.058852 218.514771 103.896553
v -4.933770 218.514771 103.675346
v -8.240932 213.843796 100.294670
v 43.769302 214.562363 100.043686
v 33.070705 219.007370 100.109009
v 33.219173 207.811691 101.018959
v 26.275377 207.558533 100.715492
v 11.841466 212.815353 100.167000
v 14.179316 233.474091 97.771530
v 4.612968 214.104111 100.471481
v 1.230999 218.887238 100.277802
v -5.028015 218.873581 100.046936
v 2.075610 208.032333 100.709671
v -5.582302 207.891846 100.592087
v -15.614833 215.800690 99.965576
v 0.000011 174.468994 86.361473
v -25.045313 168.094757 86.438095
v 25.045334 168.094757 86.438095
v -39.879581 156.262207 85.869385
v 39.879604 156.262207 85.869385
v -49.529259 139.494965 85.897942
v 49.529278 139.494965 85.897942
v -52.298244 118.166451 85.958366
v 52.298264 118.166451 85.958366
v -47.454422 100.257545 86.248589
v 47.454441 100.257545 86.248589
v -35.120705 83.168953 85.950066
v 35.120728 83.168953 85.950066
v -14.731261 71.839622 86.048561
v 14.731282 71.839622 86.048561
v 0.000011 69.691978 85.994789
v 65.509521 149.271774 2.598953
v 50.138836 172.275665 2.598953
v 27.134964 187.646393 2.598953
v 0.000036 190.903534 2.598953
v -27.134899 187.646423 2.598953
v -50.138779 172.275726 2.598953
v -65.509499 149.271851 2.598953
v -70.906982 122.136932 2.598953
v -65.509514 95.001999 2.598953
v -50.138828 71.998123 2.598953
v -27.134939 56.627403 2.598953
v 0.000004 51.229912 2.598953
v 27.134918 56.627388 2.598953
v 50.138809 71.998077 2.598953
v 65.509506 95.001968 2.598953
v 70.906982 122.136902 2.598953
v 65.509521 149.271774 85.333031
v 50.138836 172.275665 85.333031
v 27.134964 187.646393 85.333031
v 0.000036 190.903534 85.333031
v -27.134899 187.646423 85.333031
v -50.138779 172.275726 85.333031
v -65.509499 149.271851 85.333031
v -70.906982 122.136932 85.333031
v -65.509514 95.001999 85.333031
v -50.138828 71.998123 85.333031
v -27.134939 56.627403 85.333031
v 0.000004 51.229912 85.333031
v 27.134918 56.627388 85.333031
v 50.138809 71.998077 85.333031
v 65.509506 95.001968 85.333031
v 70.906982 122.136902 85.333031
v 0.000000 122.136902 2.598953
vt 0.375000 0.312500
vt 0.375000 0.688440
vt 0.390625 0.688440
vt 0.390625 0.312500
vt 0.406250 0.688440
vt 0.406250 0.312500
vt 0.421875 0.688440
vt 0.421875 0.312500
vt 0.437500 0.688440
vt 0.437500 0.312500
vt 0.453125 0.688440
vt 0.453125 0.312500
vt 0.468750 0.688440
vt 0.468750 0.312500
vt 0.484375 0.688440
vt 0.484375 0.312500
vt 0.500000 0.688440
vt 0.500000 0.312500
vt 0.515625 0.688440
vt 0.515625 0.312500
vt 0.531250 0.688440
vt 0.531250 0.312500
vt 0.546875 0.688440
vt 0.546875 0.312500
vt 0.562500 0.688440
vt 0.562500 0.312500
vt 0.578125 0.688440
vt 0.578125 0.312500
vt 0.593750 0.688440
vt 0.593750 0.312500
vt 0.609375 0.688440
vt 0.609375 0.312500
vt 0.625000 0.688440
vt 0.625000 0.312500
vt 0.610485 0.045765
vt 0.500000 0.150000
vt 0.644356 0.096456
vt 0.559794 0.011894
vt 0.500000 0.000000
vt 0.440206 0.011894
vt 0.389515 0.045765
vt 0.355644 0.096456
vt 0.343750 0.156250
vt 0.355644 0.216044
vt 0.389515 0.266735
vt 0.440206 0.300606
vt 0.500000 0.312500
vt 0.559794 0.300606
vt 0.610485 0.266735
vt 0.644356 0.216044
vt 0.656250 0.156250
vn -0.000320 -0.031824 0.999494
vn -0.000320 -0.031824 0.999494
vn -0.000320 -0.031824 0.999493
vn -0.000320 -0.031824 0.999493
vn 0.004474 -0.030268 0.999532
vn 0.004474 -0.030268 0.999532
vn 0.004474 -0.030268 0.999532
vn 0.004474 -0.030268 0.999532
vn 0.001434 -0.984063 0.177814
vn 0.001434 -0.984063 0.177814
vn 0.001434 -0.984063 0.177814
vn 0.001434 -0.984063 0.177814
vn -0.003018 -0.974676 0.223602
vn -0.003018 -0.974676 0.223602
vn -0.003018 -0.974676 0.223602
vn -0.003018 -0.974676 0.223602
vn 0.250081 -0.962227 0.107609
vn 0.250081 -0.962227 0.107609
vn 0.250081 -0.962227 0.107609
vn 0.250081 -0.962227 0.107609
vn -0.250081 -0.962226 0.107613
vn -0.250081 -0.962226 0.107613
vn -0.250081 -0.962226 0.107613
vn -0.250081 -0.962226 0.107613
vn -0.001157 -0.015510 0.999879
vn -0.001157 -0.015510 0.999879
vn -0.001157 -0.015510 0.999879
vn -0.001157 -0.015510 0.999879
vn 0.594979 -0.792549 0.133666
vn 0.594979 -0.792549 0.133666
vn 0.594979 -0.792549 0.133666
vn 0.594979 -0.792549 0.133666
vn -0.001358 -0.009784 0.999951
vn -0.001358 -0.009784 0.999951
vn -0.001358 -0.009784 0.999951
vn -0.001358 -0.009784 0.999951
vn -0.594980 -0.792549 0.133663
vn -0.594979 -0.792549 0.133663
vn -0.594979 -0.792549 0.133663
vn -0.594979 -0.792549 0.133664
vn -0.000747 -0.985576 0.169230
vn -0.000747 -0.985576 0.169230
vn -0.000747 -0.985576 0.169230
vn -0.000747 -0.985576 0.169230
vn 0.003718 -0.976194 0.216868
vn 0.003718 -0.976194 0.216868
vn 0.003718 -0.976194 0.216868
vn 0.003718 -0.976194 0.216868
vn -0.000935 -0.007660 0.999970
vn -0.000935 -0.007660 0.999970
vn -0.000935 -0.007660 0.999970
vn -0.000935 -0.007660 0.999970
vn -0.999988 -0.004284 0.002252
vn -0.999988 -0.004284 0.002252
vn -0.999988 -0.004284 0.002252
vn -0.999988 -0.004284 0.002252
vn -0.998657 -0.012788 0.050215
vn -0.998657 -0.012788 0.050215
vn -0.998657 -0.012788 0.050215
vn -0.998657 -0.012788 0.050215
vn -0.999872 -0.016005 -0.000805
vn -0.999872 -0.016005 -0.000805
vn -0.999872 -0.016005 -0.000805
vn -0.999872 -0.016005 -0.000805
vn 0.000934 -0.007660 0.999970
vn 0.000934 -0.007660 0.999970
vn 0.000934 -0.007660 0.999970
vn 0.000934 -0.007660 0.999970
vn 0.999988 -0.004284 0.002252
vn 0.999988 -0.004284 0.002252
vn 0.999988 -0.004284 0.002252
vn 0.999988 -0.004284 0.002252
vn 0.998657 -0.012788 0.050215
vn 0.998657 -0.012788 0.050215
vn 0.998657 -0.012788 0.050215
vn 0.998657 -0.012788 0.050215
vn 0.999872 -0.016005 -0.000805
vn 0.999872 -0.016005 -0.000805
vn 0.999872 -0.016005 -0.000805
vn 0.999872 -0.016005 -0.000805
vn 0.873746 -0.476727 0.096437
vn 0.873746 -0.476727 0.096437
vn 0.873746 -0.476727 0.096437
vn 0.873746 -0.476727 0.096437
vn -0.873746 -0.476727 0.096436
vn -0.873746 -0.476727 0.096436
vn -0.873746 -0.476727 0.096436
vn -0.873746 -0.476727 0.096436
vn 0.003777 0.006637 0.999971
vn 0.003777 0.006637 0.999971
vn 0.003777 0.006637 0.999971
vn 0.003777 0.006637 0.999971
vn 0.983619 -0.151907 0.097042
vn 0.983619 -0.151907 0.097042
vn 0.983619 -0.151907 0.097042
vn 0.983619 -0.151907 0.097042
vn -0.003777 0.006637 0.999971
vn -0.003777 0.006637 0.999971
vn -0.003777 0.006637 0.999971
vn -0.003777 0.006637 0.999971
vn -0.983619 -0.151907 0.097043
vn -0.983619 -0.151907 0.097043
vn -0.983619 -0.151907 0.097043
vn -0.983619 -0.151907 0.097043
vn -0.999985 0.002687 0.004736
vn -0.999985 0.002687 0.004736
vn -0.999985 0.002687 0.004736
vn -0.999985 0.002687 0.004736
vn 0.999985 0.002687 0.004736
vn 0.999985 0.002687 0.004736
vn 0.999985 0.002687 0.004736
vn 0.999985 0.002687 0.004736
vn 0.001151 -0.001663 0.999998
vn 0.001151 -0.001663 0.999998
vn 0.001151 -0.001663 0.999998
vn 0.001151 -0.001663 0.999998
vn -0.999869 -0.015338 0.005165
vn -0.999869 -0.015338 0.005165
vn -0.999869 -0.015338 0.005165
vn -0.999869 -0.015338 0.005165
vn -0.001151 -0.001663 0.999998
vn -0.001151 -0.001663 0.999998
vn -0.001151 -0.001663 0.999998
vn -0.001151 -0.001663 0.999998
vn 0.999869 -0.015339 0.005165
vn 0.999869 -0.015339 0.005165
vn 0.999869 -0.015339 0.005165
vn 0.999869 -0.015339 0.005165
vn 0.959192 0.265602 0.096986
vn 0.959192 0.265602 0.096986
vn 0.959192 0.265602 0.096986
vn 0.959192 0.265602 0.096986
vn -0.959192 0.265602 0.096986
vn -0.959192 0.265602 0.096986
vn -0.959192 0.265602 0.096986
vn -0.959192 0.265602 0.096986
vn 0.000409 0.002580 0.999997
vn 0.000409 0.002580 0.999997
vn 0.000409 0.002580 0.999997
vn 0.000409 0.002580 0.999997
vn 0.815008 0.566496 0.121840
vn 0.815008 0.566496 0.121840
vn 0.815008 0.566496 0.121840
vn 0.815008 0.566496 0.121840
vn -0.000409 0.002580 0.999997
vn -0.000409 0.002580 0.999997
vn -0.000409 0.002580 0.999997
vn -0.000409 0.002580 0.999997
vn -0.815008 0.566496 0.121839
vn -0.815008 0.566496 0.121839
vn -0.815008 0.566496 0.121839
vn -0.815008 0.566496 0.121839
vn -0.999952 -0.006576 0.007242
vn -0.999952 -0.006576 0.007242
vn -0.999952 -0.006576 0.007242
vn -0.999952 -0.006576 0.007242
vn 0.999952 -0.006576 0.007242
vn 0.999952 -0.006576 0.007242
vn 0.999952 -0.006576 0.007242
vn 0.999952 -0.006576 0.007242
vn 0.002912 0.002417 0.999993
vn 0.002912 0.002417 0.999993
vn 0.002912 0.002417 0.999993
vn 0.002912 0.002417 0.999993
vn 0.003794 -0.015149 0.999878
vn 0.003794 -0.015149 0.999878
vn 0.003794 -0.015149 0.999878
vn 0.003794 -0.015149 0.999878
vn -0.999917 0.011000 0.006776
vn -0.999917 0.011000 0.006776
vn -0.999917 0.011000 0.006776
vn -0.999917 0.011000 0.006776
vn -0.002912 0.002417 0.999993
vn -0.002912 0.002417 0.999993
vn -0.002912 0.002417 0.999993
vn -0.002912 0.002417 0.999993
vn -0.003794 -0.015149 0.999878
vn -0.003794 -0.015149 0.999878
vn -0.003794 -0.015149 0.999878
vn -0.003794 -0.015149 0.999878
vn 0.999917 0.011000 0.006776
vn 0.999917 0.011000 0.006776
vn 0.999917 0.011000 0.006776
vn 0.999917 0.011000 0.006776
vn 0.473173 0.878648 0.063920
vn 0.473173 0.878648 0.063920
vn 0.473173 0.878648 0.063920
vn 0.473173 0.878648 0.063920
vn -0.473173 0.878648 0.063923
vn -0.473173 0.878648 0.063923
vn -0.473173 0.878648 0.063923
vn -0.473173 0.878648 0.063923
vn -0.005174 0.011873 0.999916
vn -0.005174 0.011873 0.999916
vn -0.005174 0.011873 0.999916
vn -0.005174 0.011873 0.999916
vn 0.168559 0.984679 0.044661
vn 0.168559 0.984679 0.044661
vn 0.168559 0.984679 0.044661
vn 0.168559 0.984679 0.044661
vn 0.005174 0.011873 0.999916
vn 0.005174 0.011873 0.999916
vn 0.005174 0.011873 0.999916
vn 0.005174 0.011873 0.999916
vn -0.168559 0.984679 0.044661
vn -0.168559 0.984679 0.044661
vn -0.168559 0.984679 0.044661
vn -0.168559 0.984679 0.044661
vn -0.008147 -0.013921 0.999870
vn -0.008147 -0.013921 0.999870
vn -0.008147 -0.013921 0.999870
vn -0.008147 -0.013921 0.999870
vn 0.008147 -0.013921 0.999870
vn 0.008147 -0.013921 0.999870
vn 0.008147 -0.013921 0.999870
vn 0.008147 -0.013921 0.999870
vn -0.008123 0.027533 0.999588
vn -0.008123 0.027533 0.999588
vn -0.008123 0.027533 0.999588
vn -0.008123 0.027533 0.999588
vn 0.022979 -0.014261 0.999634
vn 0.022979 -0.014261 0.999634
vn 0.022979 -0.014261 0.999634
vn 0.022979 -0.014261 0.999634
vn 0.065697 0.014545 0.997734
vn 0.065697 0.014545 0.997734
vn 0.065697 0.014545 0.997734
vn 0.065697 0.014545 0.997734
vn -0.006358 0.016185 0.999849
vn -0.006358 0.016185 0.999849
vn -0.006358 0.016185 0.999849
vn -0.006358 0.016185 0.999849
vn -0.032658 0.037689 0.998756
vn -0.032658 0.037689 0.998756
vn -0.032658 0.037689 0.998756
vn -0.032658 0.037689 0.998756
vn -0.011306 0.010453 0.999881
vn -0.011306 0.010453 0.999882
vn -0.011306 0.010453 0.999882
vn -0.011306 0.010453 0.999881
vn -0.026390 0.043255 0.998715
vn -0.026390 0.043255 0.998716
vn -0.026390 0.043255 0.998715
vn -0.026390 0.043255 0.998715
vn 0.067380 0.038732 0.996975
vn 0.067380 0.038732 0.996975
vn 0.067380 0.038732 0.996975
vn 0.067380 0.038732 0.996975
vn -0.026591 0.031238 0.999158
vn -0.026591 0.031238 0.999158
vn -0.026591 0.031238 0.999158
vn -0.026591 0.031238 0.999158
vn 0.036460 0.038851 0.998580
vn 0.036460 0.038851 0.998580
vn 0.036460 0.038851 0.998580
vn 0.036460 0.038851 0.998580
vn 0.998798 0.001782 0.048988
vn 0.998798 0.001782 0.048988
vn 0.998798 0.001782 0.048988
vn 0.998798 0.001782 0.048988
vn 0.093797 0.152583 0.983830
vn 0.093797 0.152583 0.983830
vn 0.093797 0.152583 0.983830
vn 0.093797 0.152583 0.983830
vn -0.998798 0.001783 0.048989
vn -0.998798 0.001783 0.048989
vn -0.998798 0.001783 0.048989
vn -0.998798 0.001783 0.048989
vn -0.015927 0.150355 0.988504
vn -0.015927 0.150355 0.988504
vn -0.015927 0.150355 0.988504
vn -0.015927 0.150355 0.988504
vn 0.999995 0.002259 -0.002066
vn 0.999995 0.002259 -0.002066
vn 0.999995 0.002259 -0.002066
vn 0.999995 0.002259 -0.002066
vn -0.999995 0.002260 -0.002066
vn -0.999995 0.002260 -0.002066
vn -0.999995 0.002260 -0.002066
vn -0.999995 0.002260 -0.002066
vn -0.000021 0.992050 0.125846
vn -0.000021 0.992050 0.125846
vn -0.000021 0.992050 0.125846
vn -0.000021 0.992050 0.125846
vn 0.024051 0.999710 -0.001077
vn 0.024051 0.999710 -0.001077
vn 0.024051 0.999710 -0.001077
vn 0.024051 0.999710 -0.001077
vn -0.005165 0.994073 0.108588
vn -0.005165 0.994073 0.108588
vn -0.005165 0.994073 0.108588
vn -0.005165 0.994073 0.108588
vn -0.016569 0.999863 0.000455
vn -0.016569 0.999863 0.000455
vn -0.016569 0.999863 0.000455
vn -0.016569 0.999863 0.000455
vn 0.038891 0.192832 0.980461
vn 0.038891 0.192832 0.980461
vn 0.038891 0.192832 0.980461
vn 0.038891 0.192832 0.980461
vn -0.019440 -0.000950 -0.999811
vn -0.019440 -0.000950 -0.999811
vn -0.019440 -0.000950 -0.999811
vn -0.019440 -0.000950 -0.999811
vn -0.018922 -0.033700 -0.999253
vn -0.018922 -0.033700 -0.999253
vn -0.018922 -0.033700 -0.999253
vn -0.018922 -0.033700 -0.999253
vn 0.019440 -0.000950 -0.999811
vn 0.019440 -0.000950 -0.999811
vn 0.019440 -0.000950 -0.999811
vn 0.019440 -0.000950 -0.999811
vn 0.018922 -0.033700 -0.999253
vn 0.018922 -0.033700 -0.999253
vn 0.018922 -0.033700 -0.999253
vn 0.018922 -0.033700 -0.999253
vn 0.009341 -0.999952 0.002919
vn 0.009341 -0.999952 0.002919
vn 0.009341 -0.999952 0.002919
vn 0.009341 -0.999952 0.002919
vn -0.009341 -0.999952 0.002919
vn -0.009341 -0.999952 0.002919
vn -0.009341 -0.999952 0.002919
vn -0.009341 -0.999952 0.002919
vn 0.002468 -0.038210 -0.999267
vn 0.002468 -0.038210 -0.999267
vn 0.002468 -0.038210 -0.999267
vn 0.002468 -0.038210 -0.999267
vn -0.002468 -0.038210 -0.999267
vn -0.002468 -0.038210 -0.999267
vn -0.002468 -0.038210 -0.999267
vn -0.002468 -0.038210 -0.999267
vn 0.037654 -0.005617 -0.999275
vn 0.037654 -0.005617 -0.999275
vn 0.037654 -0.005617 -0.999275
vn 0.037654 -0.005617 -0.999275
vn 0.030701 0.012131 -0.999455
vn 0.030701 0.012131 -0.999455
vn 0.030701 0.012131 -0.999455
vn 0.030701 0.012131 -0.999455
vn -0.037654 -0.005617 -0.999275
vn -0.037654 -0.005617 -0.999275
vn -0.037654 -0.005617 -0.999275
vn -0.037654 -0.005617 -0.999275
vn -0.030701 0.012131 -0.999455
vn -0.030701 0.012131 -0.999455
vn -0.030701 0.012131 -0.999455
vn -0.030701 0.012131 -0.999455
vn 0.015931 0.059343 -0.998111
vn 0.015931 0.059343 -0.998111
vn 0.015931 0.059343 -0.998111
vn 0.015931 0.059343 -0.998111
vn -0.015931 0.059343 -0.998111
vn -0.015931 0.059343 -0.998111
vn -0.015931 0.059343 -0.998111
vn -0.015931 0.059343 -0.998111
vn 0.033156 0.000897 -0.999450
vn 0.033156 0.000897 -0.999450
vn 0.033156 0.000897 -0.999450
vn 0.033156 0.000897 -0.999450
vn -0.033156 0.000897 -0.999450
vn -0.033156 0.000897 -0.999450
vn -0.033156 0.000897 -0.999450
vn -0.033156 0.000897 -0.999450
vn 0.031362 -0.001156 -0.999507
vn 0.031362 -0.001156 -0.999507
vn 0.031362 -0.001156 -0.999507
vn 0.031362 -0.001156 -0.999507
vn -0.031362 -0.001156 -0.999507
vn -0.031362 -0.001156 -0.999507
vn -0.031362 -0.001156 -0.999507
vn -0.031362 -0.001156 -0.999507
vn 0.000549 -0.000635 -1.000000
vn 0.000549 -0.000635 -1.000000
vn 0.000549 -0.000635 -1.000000
vn 0.000549 -0.000635 -1.000000
vn -0.000549 -0.000635 -1.000000
vn -0.000549 -0.000635 -1.000000
vn -0.000549 -0.000635 -1.000000
vn -0.000549 -0.000635 -1.000000
vn 0.000010 0.000959 -1.000000
vn 0.000010 0.000959 -1.000000
vn 0.000010 0.000959 -1.000000
vn 0.000010 0.000959 -1.000000
vn -0.000010 0.000959 -1.000000
vn -0.000010 0.000959 -1.000000
vn -0.000010 0.000959 -1.000000
vn -0.000010 0.000959 -1.000000
vn 0.000000 0.000000 -1.000000
vn 0.000000 0.000000 -1.000000
vn 0.000000 0.000000 -1.000000
vn 0.000000 0.000000 -1.000000
vn -0.000000 0.000000 -1.000000
vn -0.000000 0.000000 -1.000000
vn -0.000000 0.000000 -1.000000
vn -0.000000 0.000000 -1.000000
vn 0.000333 -0.000412 -1.000000
vn 0.000333 -0.000412 -1.000000
vn 0.000333 -0.000412 -1.000000
vn 0.000333 -0.000412 -1.000000
vn -0.000333 -0.000412 -1.000000
vn -0.000333 -0.000412 -1.000000
vn -0.000333 -0.000412 -1.000000
vn -0.000333 -0.000412 -1.000000
vn 0.000685 0.000091 -1.000000
vn 0.000685 0.000091 -1.000000
vn 0.000685 0.000091 -1.000000
vn 0.000685 0.000091 -1.000000
vn -0.000685 0.000091 -1.000000
vn -0.000685 0.000091 -1.000000
vn -0.000685 0.000091 -1.000000
vn -0.000685 0.000091 -1.000000
vn 0.010937 0.055597 -0.998393
vn 0.010937 0.055597 -0.998393
vn 0.010937 0.055597 -0.998393
vn 0.010937 0.055597 -0.998393
vn -0.010937 0.055597 -0.998393
vn -0.010937 0.055597 -0.998393
vn -0.010937 0.055597 -0.998393
vn -0.010937 0.055597 -0.998393
vn -0.000825 0.999994 -0.003487
vn -0.000825 0.999994 -0.003487
vn -0.000825 0.999994 -0.003487
vn -0.000825 0.999994 -0.003487
vn 0.001304 0.999992 -0.003842
vn 0.001304 0.999992 -0.003842
vn 0.001304 0.999992 -0.003842
vn 0.001304 0.999992 -0.003842
vn 0.007763 0.985060 0.172035
vn 0.007763 0.985060 0.172035
vn 0.007763 0.985060 0.172035
vn 0.007763 0.985060 0.172035
vn 0.003952 0.986883 0.161390
vn 0.003952 0.986883 0.161390
vn 0.003952 0.986883 0.161390
vn 0.003952 0.986883 0.161390
vn -0.006334 0.151438 0.988446
vn -0.006334 0.151438 0.988446
vn -0.006334 0.151438 0.988446
vn -0.006334 0.151438 0.988446
vn -0.022327 0.102356 0.994497
vn -0.022327 0.102356 0.994497
vn -0.022327 0.102356 0.994497
vn -0.022327 0.102356 0.994497
vn 0.050102 0.105995 0.993104
vn 0.050102 0.105995 0.993104
vn 0.050102 0.105995 0.993104
vn 0.050102 0.105995 0.993104
vn -0.007228 0.163258 0.986557
vn -0.007228 0.163258 0.986557
vn -0.007228 0.163258 0.986557
vn -0.007228 0.163258 0.986557
vn -0.041333 0.116124 0.992374
vn -0.041333 0.116124 0.992374
vn -0.041333 0.116124 0.992374
vn -0.041333 0.116124 0.992374
vn -0.849677 0.515836 0.109371
vn -0.849677 0.515836 0.109371
vn -0.849677 0.515836 0.109371
vn -0.849677 0.515836 0.109371
vn 0.008257 -0.005884 0.999949
vn 0.008257 -0.005884 0.999949
vn 0.008257 -0.005884 0.999949
vn 0.008257 -0.005884 0.999949
vn 0.034187 0.989010 0.143845
vn 0.034187 0.989010 0.143845
vn 0.034187 0.989010 0.143845
vn 0.034187 0.989010 0.143845
vn -0.822602 -0.549427 0.146482
vn -0.822602 -0.549427 0.146482
vn -0.822602 -0.549427 0.146482
vn -0.822602 -0.549427 0.146482
vn 0.006946 0.141330 0.989938
vn 0.006946 0.141330 0.989938
vn 0.006946 0.141330 0.989938
vn 0.006946 0.141330 0.989938
vn -0.009579 -0.985009 0.172235
vn -0.009579 -0.985009 0.172235
vn -0.009579 -0.985009 0.172235
vn -0.009579 -0.985009 0.172235
vn 0.818524 -0.547284 0.174638
vn 0.818524 -0.547284 0.174638
vn 0.818524 -0.547284 0.174638
vn 0.818524 -0.547284 0.174638
vn -0.019481 0.078623 0.996714
vn -0.019481 0.078623 0.996714
vn -0.019481 0.078623 0.996714
vn -0.019481 0.078623 0.996714
vn -0.018804 0.087310 0.996004
vn -0.018804 0.087310 0.996004
vn -0.018804 0.087310 0.996004
vn -0.018804 0.087310 0.996004
vn -0.865978 -0.482952 0.129771
vn -0.865978 -0.482952 0.129771
vn -0.865978 -0.482952 0.129771
vn -0.865978 -0.482952 0.129771
vn -0.886971 0.460917 0.028962
vn -0.886971 0.460917 0.028962
vn -0.886971 0.460917 0.028962
vn -0.886971 0.460917 0.028962
vn 0.875785 -0.448129 0.179389
vn 0.875785 -0.448129 0.179389
vn 0.875785 -0.448129 0.179389
vn 0.875785 -0.448129 0.179389
vn 0.874049 0.482362 0.058017
vn 0.874049 0.482362 0.058017
vn 0.874049 0.482362 0.058017
vn 0.874049 0.482362 0.058017
vn -0.056636 0.111389 0.992162
vn -0.056636 0.111389 0.992162
vn -0.056636 0.111389 0.992162
vn -0.056636 0.111389 0.992162
vn 0.002597 0.066844 0.997760
vn 0.002597 0.066844 0.997760
vn 0.002597 0.066844 0.997760
vn 0.002597 0.066844 0.997760
vn -0.005750 -0.990835 0.134957
vn -0.005750 -0.990835 0.134957
vn -0.005750 -0.990835 0.134957
vn -0.005750 -0.990835 0.134957
vn 0.906436 -0.418433 0.057348
vn 0.906436 -0.418433 0.057348
vn 0.906436 -0.418433 0.057348
vn 0.906436 -0.418433 0.057348
vn -0.899442 -0.425802 0.098469
vn -0.899442 -0.425802 0.098469
vn -0.899442 -0.425802 0.098469
vn -0.899442 -0.425802 0.098469
vn -0.014199 0.045732 0.998853
vn -0.014199 0.045732 0.998853
vn -0.014199 0.045732 0.998853
vn -0.014199 0.045732 0.998853
vn -0.853483 0.501328 0.142259
vn -0.853483 0.501328 0.142259
vn -0.853483 0.501328 0.142259
vn -0.853483 0.501328 0.142259
vn 0.823815 0.546270 0.151389
vn 0.823815 0.546270 0.151389
vn 0.823815 0.546270 0.151389
vn 0.823815 0.546270 0.151389
vn -0.016687 -0.999859 0.001783
vn -0.016687 -0.999859 0.001783
vn -0.016687 -0.999859 0.001783
vn -0.016687 -0.999859 0.001783
vn 0.016687 -0.999859 0.001783
vn 0.016687 -0.999859 0.001783
vn 0.016687 -0.999859 0.001783
vn 0.016687 -0.999859 0.001783
vn 0.867751 0.492875 0.063891
vn 0.867751 0.492875 0.063891
vn 0.867751 0.492875 0.063891
vn 0.867751 0.492875 0.063891
vn 0.016112 -0.985989 0.166031
vn 0.016112 -0.985989 0.166031
vn 0.016112 -0.985989 0.166031
vn 0.016112 -0.985989 0.166031
vn -0.043737 0.998197 0.041097
vn -0.043737 0.998197 0.041097
vn -0.043737 0.998197 0.041097
vn -0.043737 0.998197 0.041097
vn -0.004812 0.994942 0.100340
vn -0.004812 0.994942 0.100340
vn -0.004812 0.994942 0.100340
vn -0.004812 0.994942 0.100340
vn 0.069779 0.103831 0.992144
vn 0.069779 0.103831 0.992144
vn 0.069779 0.103831 0.992144
vn 0.069779 0.103831 0.992144
vn -0.923880 -0.382683 0.000000
vn -0.923880 -0.382683 0.000000
vn -0.707107 -0.707106 0.000000
vn -0.707107 -0.707106 0.000000
vn -0.348267 -0.937396 0.000000
vn -0.348267 -0.937396 0.000000
vn -0.000001 -1.000000 0.000000
vn -0.000001 -1.000000 0.000000
vn 0.348266 -0.937396 0.000000
vn 0.348266 -0.937396 0.000000
vn 0.707107 -0.707107 0.000000
vn 0.707107 -0.707107 0.000000
vn 0.923879 -0.382684 0.000000
vn 0.923879 -0.382684 0.000000
vn 1.000000 -0.000000 0.000000
vn 1.000000 -0.000000 0.000000
vn 0.923880 0.382683 0.000000
vn 0.923880 0.382683 0.000000
vn 0.707107 0.707107 0.000000
vn 0.707107 0.707107 0.000000
vn 0.382684 0.923879 0.000000
vn 0.382684 0.923879 0.000000
vn 0.000000 1.000000 0.000000
vn 0.000000 1.000000 0.000000
vn -0.382683 0.923880 0.000000
vn -0.382683 0.923880 0.000000
vn -0.707107 0.707107 0.000000
vn -0.707107 0.707107 0.000000
vn -0.923880 0.382683 0.000000
vn -0.923880 0.382683 0.000000
vn -1.000000 0.000000 0.000000
vn -1.000000 0.000000 0.000000
vn 0.000000 0.000000 1.000000
vn 0.000000 0.000000 1.000000
vn 0.000000 0.000000 1.000000
vn 0.000000 0.000000 1.000000
vn -0.000000 0.000000 1.000000
vn -0.000000 0.000000 1.000000
vn 0.000000 0.000000 1.000000
vn 0.000000 0.000000 1.000000
vn 0.000000 0.000000 1.000000
vn 0.000000 0.000000 1.000000
vn 0.000000 0.000000 1.000000
vn -0.000000 0.000000 1.000000
vn -0.000000 0.000000 1.000000
vn 0.000000 0.000000 1.000000
vn 0.000000 0.000000 1.000000
vn -0.000000 0.000000 1.000000
vn 0.000000 0.000000 1.000000
vn 0.009358 -0.058639 -0.998235
vn 0.009358 -0.058639 -0.998235
vn 0.009358 -0.058639 -0.998235
vn 0.009358 -0.058639 -0.998235
vn -0.009358 -0.058639 -0.998235
vn -0.009358 -0.058639 -0.998235
vn -0.009358 -0.058639 -0.998235
vn -0.009358 -0.058639 -0.998235
vn -0.038530 -0.032715 -0.998722
vn -0.038530 -0.032715 -0.998722
vn -0.038530 -0.032715 -0.998722
vn -0.038530 -0.032715 -0.998722
vn -0.025486 -0.016751 -0.999535
vn -0.025486 -0.016751 -0.999535
vn -0.025486 -0.016751 -0.999535
vn -0.025486 -0.016751 -0.999535
vn -0.031770 -0.006600 -0.999474
vn -0.031770 -0.006600 -0.999474
vn -0.031770 -0.006600 -0.999473
vn -0.031770 -0.006600 -0.999473
vn -0.041883 0.003085 -0.999118
vn -0.041883 0.003085 -0.999118
vn -0.041883 0.003085 -0.999118
vn -0.041883 0.003085 -0.999118
vn -0.031716 0.029355 -0.999066
vn -0.031716 0.029355 -0.999066
vn -0.031716 0.029355 -0.999066
vn -0.031716 0.029355 -0.999066
vn -0.020327 0.029349 -0.999363
vn -0.020327 0.029349 -0.999363
vn -0.020327 0.029349 -0.999363
vn -0.020327 0.029349 -0.999363
vn -0.005703 0.038768 -0.999232
vn -0.005703 0.038768 -0.999232
vn -0.005703 0.038768 -0.999232
vn -0.005703 0.038768 -0.999232
vn 0.005703 0.038768 -0.999232
vn 0.005703 0.038768 -0.999232
vn 0.005703 0.038768 -0.999232
vn 0.005703 0.038768 -0.999232
vn 0.020327 0.029349 -0.999363
vn 0.020327 0.029349 -0.999363
vn 0.020327 0.029349 -0.999363
vn 0.020327 0.029349 -0.999363
vn 0.031716 0.029355 -0.999066
vn 0.031716 0.029355 -0.999066
vn 0.031716 0.029355 -0.999066
vn 0.031716 0.029355 -0.999066
vn 0.041882 0.003085 -0.999118
vn 0.041882 0.003085 -0.999118
vn 0.041882 0.003085 -0.999118
vn 0.041882 0.003085 -0.999118
vn 0.031770 -0.006600 -0.999473
vn 0.031770 -0.006600 -0.999474
vn 0.031770 -0.006600 -0.999473
vn 0.031770 -0.006600 -0.999474
vn 0.025486 -0.016751 -0.999535
vn 0.025486 -0.016751 -0.999535
vn 0.025486 -0.016751 -0.999535
vn 0.025486 -0.016751 -0.999535
vn 0.038531 -0.032715 -0.998722
vn 0.038531 -0.032715 -0.998722
vn 0.038531 -0.032715 -0.998722
vn 0.038531 -0.032715 -0.998722
s off
g UV
f 3//1 2//2 1//3 5//4
f 6//5 1//6 2//7 4//8
f 35//9 5//10 1//11 37//12
f 37//13 1//14 6//15 36//16
f 137//17 136//18 2//19 3//20
f 138//21 4//22 2//23 136//24
f 7//25 9//26 3//27 5//28
f 139//29 137//30 3//31 9//32
f 8//33 6//34 4//35 10//36
f 140//37 10//38 4//39 138//40
f 5//41 35//42 33//43 7//44
f 6//45 8//46 34//47 36//48
f 7//49 13//50 11//51 9//52
f 13//53 7//54 65//55 67//56
f 7//57 33//58 39//59 41//60
f 7//61 41//62 63//63 65//64
f 8//65 10//66 12//67 14//68
f 14//69 66//70 64//71 8//72
f 8//73 40//74 38//75 34//76
f 8//77 64//78 62//79 40//80
f 9//81 11//82 141//83 139//84
f 10//85 140//86 142//87 12//88
f 13//89 15//90 17//91 11//92
f 143//93 141//94 11//95 17//96
f 14//97 12//98 18//99 16//100
f 144//101 18//102 12//103 142//104
f 67//105 59//106 15//107 13//108
f 66//109 14//110 16//111 58//112
f 21//113 19//114 17//115 15//116
f 69//117 21//118 15//119 59//120
f 22//121 16//122 18//123 20//124
f 68//125 58//126 16//127 22//128
f 17//129 19//130 145//131 143//132
f 18//133 144//134 146//135 20//136
f 23//137 25//138 19//139 21//140
f 147//141 145//142 19//143 25//144
f 24//145 22//146 20//147 26//148
f 148//149 26//150 20//151 146//152
f 69//153 46//154 23//155 21//156
f 68//157 22//158 24//159 47//160
f 23//161 29//162 27//163 25//164
f 29//165 23//166 51//167 49//168
f 46//169 53//170 51//171 23//172
f 24//173 26//174 28//175 30//176
f 30//177 50//178 52//179 24//180
f 47//181 24//182 52//183 54//184
f 25//185 27//186 149//187 147//188
f 26//189 148//190 150//191 28//192
f 29//193 32//194 31//195 27//196
f 27//197 31//198 151//199 149//200
f 30//201 28//202 31//203 32//204
f 28//205 150//206 151//207 31//208
f 49//209 48//210 32//211 29//212
f 50//213 30//214 32//215 48//216
f 35//217 135//218 39//219 33//220
f 36//221 34//222 104//223 107//224
f 34//225 38//226 103//227 104//228
f 37//229 133//230 134//231 35//232
f 35//233 134//234 123//235 135//236
f 37//237 36//238 126//239 127//240
f 36//241 107//242 101//243 124//244
f 36//245 124//246 114//247 126//248
f 37//249 127//250 116//251 128//252
f 37//253 128//254 130//255 133//256
f 42//257 44//258 38//259 40//260
f 44//261 105//262 103//263 38//264
f 43//265 41//266 39//267 45//268
f 94//269 45//270 39//271 135//272
f 40//273 62//274 60//275 42//276
f 41//277 43//278 61//279 63//280
f 93//281 44//282 42//283 91//284
f 42//285 60//286 88//287 91//288
f 92//289 43//290 45//291 94//292
f 92//293 89//294 61//295 43//296
f 44//297 93//298 106//299 105//300
f 71//301 46//302 69//303 75//304
f 46//305 71//306 55//307 53//308
f 70//309 74//310 68//311 47//312
f 47//313 54//314 56//315 70//316
f 55//317 57//318 48//319 49//320
f 56//321 50//322 48//323 57//324
f 71//325 72//326 57//327 55//328
f 70//329 56//330 57//331 72//332
f 76//333 80//334 66//335 58//336
f 74//337 76//338 58//339 68//340
f 77//341 59//342 67//343 81//344
f 75//345 69//346 59//347 77//348
f 88//349 60//350 62//351 86//352
f 89//353 87//354 63//355 61//356
f 82//357 86//358 62//359 64//360
f 83//361 65//362 63//363 87//364
f 64//365 66//366 80//367 82//368
f 65//369 83//370 81//371 67//372
f 73//373 74//374 70//375 72//376
f 73//377 72//378 71//379 75//380
f 78//381 76//382 74//383 73//384
f 78//385 73//386 75//387 77//388
f 80//389 76//390 78//391 79//392
f 81//393 79//394 78//395 77//396
f 79//397 84//398 82//399 80//400
f 79//401 81//402 83//403 84//404
f 86//405 82//406 84//407 85//408
f 87//409 85//410 84//411 83//412
f 86//413 85//414 90//415 88//416
f 87//417 89//418 90//419 85//420
f 90//421 95//422 91//423 88//424
f 89//425 92//426 95//427 90//428
f 95//429 129//430 93//431 91//432
f 94//433 129//434 95//435 92//436
f 129//437 115//438 125//439 93//440
f 93//441 124//442 101//443 106//444
f 93//445 125//446 114//447 124//448
f 129//449 94//450 132//451 131//452
f 94//453 135//454 123//455 132//456
f 106//457 101//458 102//459 96//460
f 102//461 99//462 100//463 96//464
f 106//465 96//466 100//467 105//468
f 107//469 97//470 102//471 101//472
f 102//473 97//474 98//475 99//476
f 104//477 98//478 97//479 107//480
f 98//481 104//482 103//483 99//484
f 109//485 108//486 111//487 110//488
f 108//489 109//490 113//491 112//492
f 127//493 111//494 108//495 116//496
f 116//497 108//498 112//499 115//500
f 109//501 110//502 126//503 114//504
f 114//505 125//506 113//507 109//508
f 129//509 128//510 116//511 115//512
f 120//513 119//514 118//515 117//516
f 134//517 133//518 117//519 118//520
f 130//521 120//522 117//523 133//524
f 123//525 134//526 118//527 119//528
f 120//529 121//530 122//531 119//532
f 119//533 122//534 132//535 123//536
f 120//537 130//538 131//539 121//540
f 49//541 51//542 53//543 55//544
f 50//545 56//546 54//547 52//548
f 105//549 100//550 99//551 103//552
f 127//553 126//554 110//555 111//556
f 125//557 115//558 112//559 113//560
f 132//561 122//562 121//563 131//564
f 129//565 131//566 130//567 128//568
s 1
f 152/1/569 168/2/570 169/3/571 153/4/572
f 153/4/572 169/3/571 170/5/573 154/6/574
f 154/6/574 170/5/573 171/7/575 155/8/576
f 155/8/576 171/7/575 172/9/577 156/10/578
f 156/10/578 172/9/577 173/11/579 157/12/580
f 157/12/580 173/11/579 174/13/581 158/14/582
f 158/14/582 174/13/581 175/15/583 159/16/584
f 159/16/584 175/15/583 176/17/585 160/18/586
f 160/18/586 176/17/585 177/19/587 161/20/588
f 161/20/588 177/19/587 178/21/589 162/22/590
f 162/22/590 178/21/589 179/23/591 163/24/592
f 163/24/592 179/23/591 180/25/593 164/26/594
f 164/26/594 180/25/593 181/27/595 165/28/596
f 165/28/596 181/27/595 182/29/597 166/30/598
f 166/30/598 182/29/597 183/31/599 167/32/600
f 167/32/600 183/31/599 168/33/570 152/34/569
s 2
f 153/35/601 184/36/602 152/37/603
f 154/38/604 184/36/602 153/35/601
f 155/39/605 184/36/602 154/38/604
f 156/40/606 184/36/602 155/39/605
f 157/41/607 184/36/602 156/40/606
f 158/42/608 184/36/602 157/41/607
f 159/43/609 184/36/602 158/42/608
f 160/44/610 184/36/602 159/43/609
f 161/45/611 184/36/602 160/44/610
f 162/46/612 184/36/602 161/45/611
f 163/47/613 184/36/602 162/46/612
f 164/48/614 184/36/602 163/47/613
f 165/49/615 184/36/602 164/48/614
f 166/50/616 184/36/602 165/49/615
f 167/51/617 184/36/602 166/50/616
f 152/37/603 184/36/602 167/51/617
s off
f 136//618 137//619 172//620 171//621
f 138//622 136//623 171//624 170//625
f 140//626 138//627 170//628 169//629
f 142//630 140//631 169//632 168//633
f 144//634 142//635 168//636 183//637
f 146//638 144//639 183//640 182//641
f 148//642 146//643 182//644 181//645
f 150//646 148//647 181//648 180//649
f 151//650 150//651 180//652 179//653
f 149//654 151//655 179//656 178//657
f 147//658 149//659 178//660 177//661
f 145//662 147//663 177//664 176//665
f 143//666 145//667 176//668 175//669
f 141//670 143//671 175//672 174//673
f 139//674 141//675 174//676 173//677
f 137//678 139//679 173//680 172//681
