# This file uses centimeters as units for non-parametric coordinates.

g default
v 3.932467 -62.872975 -5.574476
v 0.000000 -62.872975 -7.883498
v -3.932466 -62.872975 -5.574476
v -5.561346 -62.872975 0.000000
v -3.932466 -62.872975 5.574476
v 0.000000 -62.872975 7.883498
v 3.932467 -62.872975 5.574477
v 5.561347 -62.872975 0.000000
v 6.157968 -52.392908 -8.729241
v 0.000000 -52.392908 -12.345009
v -6.157968 -52.392908 -8.729241
v -8.708680 -52.392908 0.000000
v -6.157968 -52.392908 8.729241
v 0.000000 -52.392908 12.345009
v 6.157969 -52.392908 8.729242
v 8.708682 -52.392908 0.000000
v 8.334524 22.707133 -11.814623
v 0.000000 22.707133 -16.708400
v -8.334523 22.707133 -11.814623
v -11.786797 22.707133 0.000000
v -8.334523 22.707133 11.814623
v 0.000000 22.707133 16.708400
v 8.334525 22.707133 11.814624
v 11.786798 22.707133 0.000000
v 9.757817 93.894783 -13.832215
v 0.000000 93.894783 -19.561706
v -9.757817 93.894783 -13.832215
v -13.799637 93.894783 0.000000
v -9.757817 93.894783 13.832215
v 0.000000 93.894783 19.561706
v 9.757818 93.894783 13.832217
v 13.799638 93.894783 0.000000
v 14.052360 164.585034 -19.919954
v -0.000000 164.585034 -28.171071
v -14.052360 164.585034 -19.919954
v -19.873039 164.585034 0.000000
v -14.052360 164.585034 19.919954
v -0.000000 164.585034 28.171071
v 14.052362 164.585034 19.919957
v 19.873039 164.585034 0.000000
v 25.966437 236.904664 -36.808785
v -0.000001 236.904664 -52.055486
v -25.966439 236.904664 -36.808785
v -36.722093 236.904664 0.000000
v -25.966439 236.904664 36.808785
v -0.000001 236.904664 52.055486
v 25.966439 236.904664 36.808785
v 36.722093 236.904664 0.000000
v 60.363317 280.272399 -85.568207
v -0.000002 280.272399 -121.011792
v -60.363353 280.272399 -85.568207
v -85.366723 280.272399 0.000000
v -60.363353 280.272399 85.568207
v -0.000002 280.272399 121.011792
v 60.363353 280.272399 85.568207
v 85.366723 280.272399 0.000000
v 0.000000 -67.532301 0.000000
vt 0.309704 0.671117
vt 0.336237 0.670580
vt 0.381217 0.698187
vt 0.359944 0.728928
vt 0.350956 0.661076
vt 0.395393 0.662972
vt 0.354498 0.645467
vt 0.394499 0.631233
vt 0.350503 0.632657
vt 0.382358 0.604068
vt 0.338704 0.627407
vt 0.356952 0.586366
vt 0.323177 0.630472
vt 0.324801 0.587165
vt 0.312357 0.644533
vt 0.288492 0.597823
vt 0.256097 0.616486
vt 0.462845 0.687896
vt 0.456461 0.736279
vt 0.465976 0.641508
vt 0.458692 0.595903
vt 0.432681 0.558034
vt 0.395177 0.532465
vt 0.351281 0.516277
vt 0.304823 0.516522
vt 0.256141 0.519164
vt 0.563075 0.660852
vt 0.552988 0.718462
vt 0.561049 0.601625
vt 0.542390 0.541922
vt 0.506947 0.489334
vt 0.457950 0.449200
vt 0.400120 0.426244
vt 0.340002 0.419409
vt 0.281711 0.424366
vt 0.666487 0.670166
vt 0.628476 0.745350
vt 0.674901 0.581946
vt 0.646639 0.490847
vt 0.595183 0.408062
vt 0.517017 0.349669
vt 0.428220 0.314721
vt 0.340414 0.315389
vt 0.262146 0.346780
vt 0.795160 0.734289
vt 0.700360 0.849154
vt 0.825176 0.584939
vt 0.788025 0.435917
vt 0.707312 0.304867
vt 0.583401 0.213521
vt 0.437962 0.164369
vt 0.286869 0.181884
vt 0.164606 0.266777
vt 0.936472 0.815390
vt 0.767377 0.990954
vt 0.980505 0.590105
vt 0.941472 0.376885
vt 0.820307 0.200811
vt 0.654842 0.065456
vt 0.445616 0.009098
vt 0.217661 0.034383
vt 0.028873 0.188259
vt 0.330814 0.651279
vn 0.711311 -0.492184 -0.501788
vn -0.000000 -0.547738 -0.836650
vn 0.000000 -0.084175 -0.996451
vn 0.815207 -0.068702 -0.575081
vn -0.711311 -0.492184 -0.501788
vn -0.815207 -0.068702 -0.575081
vn -0.907856 -0.419283 0.000000
vn -0.998229 -0.059486 -0.000000
vn -0.711311 -0.492184 0.501788
vn -0.815207 -0.068702 0.575081
vn 0.000000 -0.547738 0.836650
vn -0.000000 -0.084175 0.996451
vn 0.711311 -0.492184 0.501788
vn 0.815207 -0.068702 0.575081
vn 0.907855 -0.419283 0.000000
vn 0.998229 -0.059486 0.000000
vn 0.000000 -0.048020 -0.998846
vn 0.816511 -0.039162 -0.576001
vn -0.816511 -0.039162 -0.576000
vn -0.999425 -0.033895 -0.000000
vn -0.816511 -0.039162 0.576001
vn -0.000000 -0.048020 0.998846
vn 0.816511 -0.039162 0.576001
vn 0.999425 -0.033895 0.000000
vn 0.000000 -0.087840 -0.996135
vn 0.815034 -0.071701 -0.574959
vn -0.815034 -0.071701 -0.574959
vn -0.998071 -0.062087 0.000000
vn -0.815034 -0.071701 0.574959
vn -0.000000 -0.087840 0.996135
vn 0.815034 -0.071701 0.574959
vn 0.998071 -0.062087 -0.000000
vn -0.000000 -0.254981 -0.966946
vn 0.798887 -0.210168 -0.563568
vn -0.798887 -0.210168 -0.563568
vn -0.983134 -0.182886 -0.000000
vn -0.798887 -0.210168 0.563568
vn -0.000000 -0.254981 0.966946
vn 0.798887 -0.210168 0.563568
vn 0.983134 -0.182886 -0.000000
vn 0.000000 -0.756126 -0.654427
vn 0.594825 -0.685643 -0.419614
vn -0.594825 -0.685643 -0.419614
vn -0.775139 -0.631791 0.000000
vn -0.594825 -0.685643 0.419614
vn 0.000000 -0.756126 0.654427
vn 0.594825 -0.685643 0.419614
vn 0.775139 -0.631791 -0.000000
vn -0.000000 -0.846505 -0.532381
vn 0.499129 -0.791764 -0.352107
vn -0.499129 -0.791764 -0.352106
vn -0.665461 -0.746433 0.000000
vn -0.499129 -0.791764 0.352107
vn 0.000000 -0.846505 0.532381
vn 0.499129 -0.791764 0.352106
vn 0.665461 -0.746433 -0.000000
vn 0.000000 -1.000000 0.000000
s 1
g pCylinder1
f 1/1/1 2/2/2 10/3/3 9/4/4
f 2/2/2 3/5/5 11/6/6 10/3/3
f 3/5/5 4/7/7 12/8/8 11/6/6
f 4/7/7 5/9/9 13/10/10 12/8/8
f 5/9/9 6/11/11 14/12/12 13/10/10
f 6/11/11 7/13/13 15/14/14 14/12/12
f 7/13/13 8/15/15 16/16/16 15/14/14
f 8/15/15 1/1/1 9/17/4 16/16/16
f 9/4/4 10/3/3 18/18/17 17/19/18
f 10/3/3 11/6/6 19/20/19 18/18/17
f 11/6/6 12/8/8 20/21/20 19/20/19
f 12/8/8 13/10/10 21/22/21 20/21/20
f 13/10/10 14/12/12 22/23/22 21/22/21
f 14/12/12 15/14/14 23/24/23 22/23/22
f 15/14/14 16/16/16 24/25/24 23/24/23
f 16/16/16 9/17/4 17/26/18 24/25/24
f 17/19/18 18/18/17 26/27/25 25/28/26
f 18/18/17 19/20/19 27/29/27 26/27/25
f 19/20/19 20/21/20 28/30/28 27/29/27
f 20/21/20 21/22/21 29/31/29 28/30/28
f 21/22/21 22/23/22 30/32/30 29/31/29
f 22/23/22 23/24/23 31/33/31 30/32/30
f 23/24/23 24/25/24 32/34/32 31/33/31
f 24/25/24 17/26/18 25/35/26 32/34/32
f 25/28/26 26/27/25 34/36/33 33/37/34
f 26/27/25 27/29/27 35/38/35 34/36/33
f 27/29/27 28/30/28 36/39/36 35/38/35
f 28/30/28 29/31/29 37/40/37 36/39/36
f 29/31/29 30/32/30 38/41/38 37/40/37
f 30/32/30 31/33/31 39/42/39 38/41/38
f 31/33/31 32/34/32 40/43/40 39/42/39
f 32/34/32 25/35/26 33/44/34 40/43/40
f 33/37/34 34/36/33 42/45/41 41/46/42
f 34/36/33 35/38/35 43/47/43 42/45/41
f 35/38/35 36/39/36 44/48/44 43/47/43
f 36/39/36 37/40/37 45/49/45 44/48/44
f 37/40/37 38/41/38 46/50/46 45/49/45
f 38/41/38 39/42/39 47/51/47 46/50/46
f 39/42/39 40/43/40 48/52/48 47/51/47
f 40/43/40 33/44/34 41/53/42 48/52/48
f 41/46/42 42/45/41 50/54/49 49/55/50
f 42/45/41 43/47/43 51/56/51 50/54/49
f 43/47/43 44/48/44 52/57/52 51/56/51
f 44/48/44 45/49/45 53/58/53 52/57/52
f 45/49/45 46/50/46 54/59/54 53/58/53
f 46/50/46 47/51/47 55/60/55 54/59/54
f 47/51/47 48/52/48 56/61/56 55/60/55
f 48/52/48 41/53/42 49/62/50 56/61/56
f 1/1/1 8/15/15 7/13/13 57/63/57
f 2/2/2 1/1/1 57/63/57 3/5/5
f 5/9/9 4/7/7 3/5/5 57/63/57
f 6/11/11 5/9/9 57/63/57 7/13/13
